# 0D ASCII output created by CarpetIOASCII
# created on ub080066.ffn.ub.es by helvi on Jan 12 2017 at 15:59:10+0100
# parameter filename: "KQI_spin099_v1_dx075.par"
#
# QUASILOCALMEASURES::QLM_SCALARS (quasilocalmeasures-qlm_scalars)
#
# iteration 0   time 0
# time level 0
# refinement level 0   multigrid level 0   map 0   component 0
# column format: 1:it	2:tl	3:rl 4:c 5:ml	6:ix 7:iy 8:iz	9:time	10:x 11:y 12:z	13:data
# data columns: 13:qlm_time[0] 14:qlm_time[1] 15:qlm_equatorial_circumference[0] 16:qlm_equatorial_circumference[1] 17:qlm_polar_circumference_0[0] 18:qlm_polar_circumference_0[1] 19:qlm_polar_circumference_pi_2[0] 20:qlm_polar_circumference_pi_2[1] 21:qlm_area[0] 22:qlm_area[1] 23:qlm_irreducible_mass[0] 24:qlm_irreducible_mass[1] 25:qlm_radius[0] 26:qlm_radius[1] 27:qlm_spin_guess[0] 28:qlm_spin_guess[1] 29:qlm_mass_guess[0] 30:qlm_mass_guess[1] 31:qlm_killing_eigenvalue_re[0] 32:qlm_killing_eigenvalue_re[1] 33:qlm_killing_eigenvalue_im[0] 34:qlm_killing_eigenvalue_im[1] 35:qlm_spin[0] 36:qlm_spin[1] 37:qlm_npspin[0] 38:qlm_npspin[1] 39:qlm_wsspin[0] 40:qlm_wsspin[1] 41:qlm_cvspin[0] 42:qlm_cvspin[1] 43:qlm_coordspinx[0] 44:qlm_coordspinx[1] 45:qlm_coordspiny[0] 46:qlm_coordspiny[1] 47:qlm_coordspinz[0] 48:qlm_coordspinz[1] 49:qlm_mass[0] 50:qlm_mass[1] 51:qlm_adm_energy[0] 52:qlm_adm_energy[1] 53:qlm_adm_momentum_x[0] 54:qlm_adm_momentum_x[1] 55:qlm_adm_momentum_y[0] 56:qlm_adm_momentum_y[1] 57:qlm_adm_momentum_z[0] 58:qlm_adm_momentum_z[1] 59:qlm_adm_angular_momentum_x[0] 60:qlm_adm_angular_momentum_x[1] 61:qlm_adm_angular_momentum_y[0] 62:qlm_adm_angular_momentum_y[1] 63:qlm_adm_angular_momentum_z[0] 64:qlm_adm_angular_momentum_z[1] 65:qlm_w_energy[0] 66:qlm_w_energy[1] 67:qlm_w_momentum_x[0] 68:qlm_w_momentum_x[1] 69:qlm_w_momentum_y[0] 70:qlm_w_momentum_y[1] 71:qlm_w_momentum_z[0] 72:qlm_w_momentum_z[1] 73:qlm_w_angular_momentum_x[0] 74:qlm_w_angular_momentum_x[1] 75:qlm_w_angular_momentum_y[0] 76:qlm_w_angular_momentum_y[1] 77:qlm_w_angular_momentum_z[0] 78:qlm_w_angular_momentum_z[1]
0	0	0 0 0	0 0 0	0	0 0 0	0 0 12.5663445643405 12.5663445643405 8.37122479604326 8.37122479604326 8.37121426775377 8.37121426775377 28.6780593016854 28.6780593016854 0.755335595625029 0.755335595625029 1.51067119125006 1.51067119125006 0.989995739432716 0.989995739432716 0.999997927005379 0.999997927005379 0.99999994883847 0.999999948838471 0 0 -0.992243218400312 -0.992243218400319 -6.1481445703439 -6.14814457033729 -2.77564132363564 -2.77564132363267 0 0 -8.73073379147688e-18 -8.22203021674516e-19 5.25137692966026e-18 2.5389512025061e-18 -0.990001059676442 -0.990001059676442 1.00097352490463 1.00097352490463 -13.6309436781521 -13.6309436781361 9.98930215904363e-17 -1.12522424281883e-16 -2.644810482267e-16 -9.45374266523913e-17 -7.35811434696648e-19 5.48629189982466e-19 8.4476614150366e-18 -9.48028391324575e-19 -3.61206157495419e-18 -1.41079876227946e-17 -0.0224477114414106 -0.0224477114414593 49.5564083386721 49.5564083385585 2.87307392368144e-15 3.20316808953126e-15 -4.48825563981224e-15 -2.80130355151116e-15 -1.2361755372929e-17 3.50930998185326e-17 -6.74587627105165e-18 3.26838250609912e-18 -4.78461118635372e-19 6.02350936827645e-18 -0.990001059676441 -0.990001059676441

