# 0D ASCII output created by CarpetIOASCII
# created on cosmos2.private.damtp.cam.ac.uk by hw401 on Jan 20 2017 at 08:23:02+0000
# parameter filename: "TP_a0975_c1101_w1r6_mu033_dx025_nA192np16.par"
#
# QUASILOCALMEASURES::QLM_SCALARS (quasilocalmeasures-qlm_scalars)
#
# iteration 0   time 0
# time level 0
# refinement level 0   multigrid level 0   map 0   component 0
# column format: 1:it	2:tl	3:rl 4:c 5:ml	6:ix 7:iy 8:iz	9:time	10:x 11:y 12:z	13:data
# data columns: 13:qlm_time[0] 14:qlm_time[1] 15:qlm_equatorial_circumference[0] 16:qlm_equatorial_circumference[1] 17:qlm_polar_circumference_0[0] 18:qlm_polar_circumference_0[1] 19:qlm_polar_circumference_pi_2[0] 20:qlm_polar_circumference_pi_2[1] 21:qlm_area[0] 22:qlm_area[1] 23:qlm_irreducible_mass[0] 24:qlm_irreducible_mass[1] 25:qlm_radius[0] 26:qlm_radius[1] 27:qlm_spin_guess[0] 28:qlm_spin_guess[1] 29:qlm_mass_guess[0] 30:qlm_mass_guess[1] 31:qlm_killing_eigenvalue_re[0] 32:qlm_killing_eigenvalue_re[1] 33:qlm_killing_eigenvalue_im[0] 34:qlm_killing_eigenvalue_im[1] 35:qlm_spin[0] 36:qlm_spin[1] 37:qlm_npspin[0] 38:qlm_npspin[1] 39:qlm_wsspin[0] 40:qlm_wsspin[1] 41:qlm_cvspin[0] 42:qlm_cvspin[1] 43:qlm_coordspinx[0] 44:qlm_coordspinx[1] 45:qlm_coordspiny[0] 46:qlm_coordspiny[1] 47:qlm_coordspinz[0] 48:qlm_coordspinz[1] 49:qlm_mass[0] 50:qlm_mass[1] 51:qlm_adm_energy[0] 52:qlm_adm_energy[1] 53:qlm_adm_momentum_x[0] 54:qlm_adm_momentum_x[1] 55:qlm_adm_momentum_y[0] 56:qlm_adm_momentum_y[1] 57:qlm_adm_momentum_z[0] 58:qlm_adm_momentum_z[1] 59:qlm_adm_angular_momentum_x[0] 60:qlm_adm_angular_momentum_x[1] 61:qlm_adm_angular_momentum_y[0] 62:qlm_adm_angular_momentum_y[1] 63:qlm_adm_angular_momentum_z[0] 64:qlm_adm_angular_momentum_z[1] 65:qlm_w_energy[0] 66:qlm_w_energy[1] 67:qlm_w_momentum_x[0] 68:qlm_w_momentum_x[1] 69:qlm_w_momentum_y[0] 70:qlm_w_momentum_y[1] 71:qlm_w_momentum_z[0] 72:qlm_w_momentum_z[1] 73:qlm_w_angular_momentum_x[0] 74:qlm_w_angular_momentum_x[1] 75:qlm_w_angular_momentum_y[0] 76:qlm_w_angular_momentum_y[1] 77:qlm_w_angular_momentum_z[0] 78:qlm_w_angular_momentum_z[1]
0	0	0 0 0	0 0 0	0	0 0 0	0 0 12.5668746295942 12.5668746295951 8.784701851944 8.78470185194415 8.78470208333323 8.78470208333339 30.7200712873374 30.7200712873374 0.78176492610592 0.781764926105919 1.56352985221184 1.56352985221184 0.975075957304627 0.97507595730481 1.00004010825802 1.0000401082581 1.00000000061791 1.00000000061793 0 0 -0.976564342408949 -0.976564342410552 -3.54404582431692 -3.54404582023025 -2.32568097754617 -2.32568097432963 0 0 3.03051712202707e-19 -4.47594437213269e-18 1.94993487975624e-19 2.65331176994736e-18 -0.974996851133349 -0.97499685113336 1.00063402611037 1.00063402611101 -15.3497066099058 -15.3497065706021 3.27710340024246e-14 3.16588748705859e-14 1.21031854648155e-14 1.16030778501128e-14 5.49498880428557e-19 2.43346686924978e-19 2.4696347381775e-17 3.15472127248944e-18 2.0933502361681e-17 -1.21576549706625e-17 -0.025051847481882 -0.0250518475467366 44.5498331282605 44.549833003228 1.26628247017504e-13 1.25722883384565e-13 -3.78825477965214e-14 -4.30236299399909e-14 1.53855226594778e-17 7.39363635680096e-18 -1.41581557133556e-18 -3.46584706192778e-18 -1.04702536703492e-18 9.80473723671355e-19 -0.974996851133348 -0.97499685113336

