# 0D ASCII output created by CarpetIOASCII
# created on ub080066.ffn.ub.es by helvi on Jan 12 2017 at 15:55:38+0100
# parameter filename: "KQI_spin099_v1_dx05.par"
#
# QUASILOCALMEASURES::QLM_SCALARS (quasilocalmeasures-qlm_scalars)
#
# iteration 0   time 0
# time level 0
# refinement level 0   multigrid level 0   map 0   component 0
# column format: 1:it	2:tl	3:rl 4:c 5:ml	6:ix 7:iy 8:iz	9:time	10:x 11:y 12:z	13:data
# data columns: 13:qlm_time[0] 14:qlm_time[1] 15:qlm_equatorial_circumference[0] 16:qlm_equatorial_circumference[1] 17:qlm_polar_circumference_0[0] 18:qlm_polar_circumference_0[1] 19:qlm_polar_circumference_pi_2[0] 20:qlm_polar_circumference_pi_2[1] 21:qlm_area[0] 22:qlm_area[1] 23:qlm_irreducible_mass[0] 24:qlm_irreducible_mass[1] 25:qlm_radius[0] 26:qlm_radius[1] 27:qlm_spin_guess[0] 28:qlm_spin_guess[1] 29:qlm_mass_guess[0] 30:qlm_mass_guess[1] 31:qlm_killing_eigenvalue_re[0] 32:qlm_killing_eigenvalue_re[1] 33:qlm_killing_eigenvalue_im[0] 34:qlm_killing_eigenvalue_im[1] 35:qlm_spin[0] 36:qlm_spin[1] 37:qlm_npspin[0] 38:qlm_npspin[1] 39:qlm_wsspin[0] 40:qlm_wsspin[1] 41:qlm_cvspin[0] 42:qlm_cvspin[1] 43:qlm_coordspinx[0] 44:qlm_coordspinx[1] 45:qlm_coordspiny[0] 46:qlm_coordspiny[1] 47:qlm_coordspinz[0] 48:qlm_coordspinz[1] 49:qlm_mass[0] 50:qlm_mass[1] 51:qlm_adm_energy[0] 52:qlm_adm_energy[1] 53:qlm_adm_momentum_x[0] 54:qlm_adm_momentum_x[1] 55:qlm_adm_momentum_y[0] 56:qlm_adm_momentum_y[1] 57:qlm_adm_momentum_z[0] 58:qlm_adm_momentum_z[1] 59:qlm_adm_angular_momentum_x[0] 60:qlm_adm_angular_momentum_x[1] 61:qlm_adm_angular_momentum_y[0] 62:qlm_adm_angular_momentum_y[1] 63:qlm_adm_angular_momentum_z[0] 64:qlm_adm_angular_momentum_z[1] 65:qlm_w_energy[0] 66:qlm_w_energy[1] 67:qlm_w_momentum_x[0] 68:qlm_w_momentum_x[1] 69:qlm_w_momentum_y[0] 70:qlm_w_momentum_y[1] 71:qlm_w_momentum_z[0] 72:qlm_w_momentum_z[1] 73:qlm_w_angular_momentum_x[0] 74:qlm_w_angular_momentum_x[1] 75:qlm_w_angular_momentum_y[0] 76:qlm_w_angular_momentum_y[1] 77:qlm_w_angular_momentum_z[0] 78:qlm_w_angular_momentum_z[1]
0	0	0 0 0	0 0 0	0	0 0 0	0 0 12.5663513103029 12.5663513103029 8.37118924160757 8.37118924160757 8.37118777746258 8.37118777746258 28.6780578139429 28.6780578139429 0.755335576032614 0.755335576032614 1.51067115206523 1.51067115206523 0.989996985351513 0.989996985351513 0.999998463832008 0.999998463832008 0.999999998369163 0.999999998369176 0 0 -0.991633940060709 -0.991633940060706 -6.14196401330273 -6.14196401330308 -2.77293501489695 -2.7729350148971 0 0 3.6061536038356e-20 -7.31590829344868e-18 3.91364560330284e-18 2.22259547969485e-18 -0.989995416301736 -0.989995416301736 1.00070891787245 1.00070891787244 -13.6259754926822 -13.625975492683 4.78098978963197e-18 -1.0142652014752e-16 5.61199826318765e-17 -7.89430736374068e-17 -7.34932352956143e-19 -1.03268934055197e-20 -2.61424476896974e-18 -4.3801529540398e-18 -2.21657148563028e-18 -1.00757546926104e-18 -0.0224655232567797 -0.0224655232567772 49.5167926015355 49.516792601542 6.37633273682355e-16 -3.79607275611244e-15 2.22154338043348e-15 -1.6820490380859e-15 -2.50347365183295e-17 -1.48799330875779e-17 -1.97231621768164e-18 -4.82491142579731e-18 1.87548314645373e-18 7.6108226416514e-18 -0.989995416301738 -0.989995416301737

