%!PS-Adobe-2.0 EPSF-2.0
%%Title: Plots/Convergence_Ham_z_t0.eps
%%Creator: gnuplot 5.0 patchlevel 1
%%CreationDate: Mon Jan 16 15:49:06 2017
%%DocumentFonts: (atend)
%%BoundingBox: 50 50 410 302
%%EndComments
%%BeginProlog
/gnudict 256 dict def
gnudict begin
%
% The following true/false flags may be edited by hand if desired.
% The unit line width and grayscale image gamma correction may also be changed.
%
/Color true def
/Blacktext false def
/Solid false def
/Dashlength 1 def
/Landscape false def
/Level1 false def
/Level3 false def
/Rounded false def
/ClipToBoundingBox false def
/SuppressPDFMark false def
/TransparentPatterns false def
/gnulinewidth 5.000 def
/userlinewidth gnulinewidth def
/Gamma 1.0 def
/BackgroundColor {-1.000 -1.000 -1.000} def
%
/vshift -46 def
/dl1 {
  10.0 Dashlength userlinewidth gnulinewidth div mul mul mul
  Rounded { currentlinewidth 0.75 mul sub dup 0 le { pop 0.01 } if } if
} def
/dl2 {
  10.0 Dashlength userlinewidth gnulinewidth div mul mul mul
  Rounded { currentlinewidth 0.75 mul add } if
} def
/hpt_ 31.5 def
/vpt_ 31.5 def
/hpt hpt_ def
/vpt vpt_ def
/doclip {
  ClipToBoundingBox {
    newpath 50 50 moveto 410 50 lineto 410 302 lineto 50 302 lineto closepath
    clip
  } if
} def
%
% Gnuplot Prolog Version 5.0 (Dec 2014)
%
%/SuppressPDFMark true def
%
/M {moveto} bind def
/L {lineto} bind def
/R {rmoveto} bind def
/V {rlineto} bind def
/N {newpath moveto} bind def
/Z {closepath} bind def
/C {setrgbcolor} bind def
/f {rlineto fill} bind def
/g {setgray} bind def
/Gshow {show} def   % May be redefined later in the file to support UTF-8
/vpt2 vpt 2 mul def
/hpt2 hpt 2 mul def
/Lshow {currentpoint stroke M 0 vshift R 
	Blacktext {gsave 0 setgray textshow grestore} {textshow} ifelse} def
/Rshow {currentpoint stroke M dup stringwidth pop neg vshift R
	Blacktext {gsave 0 setgray textshow grestore} {textshow} ifelse} def
/Cshow {currentpoint stroke M dup stringwidth pop -2 div vshift R 
	Blacktext {gsave 0 setgray textshow grestore} {textshow} ifelse} def
/UP {dup vpt_ mul /vpt exch def hpt_ mul /hpt exch def
  /hpt2 hpt 2 mul def /vpt2 vpt 2 mul def} def
/DL {Color {setrgbcolor Solid {pop []} if 0 setdash}
 {pop pop pop 0 setgray Solid {pop []} if 0 setdash} ifelse} def
/BL {stroke userlinewidth 2 mul setlinewidth
	Rounded {1 setlinejoin 1 setlinecap} if} def
/AL {stroke userlinewidth 2 div setlinewidth
	Rounded {1 setlinejoin 1 setlinecap} if} def
/UL {dup gnulinewidth mul /userlinewidth exch def
	dup 1 lt {pop 1} if 10 mul /udl exch def} def
/PL {stroke userlinewidth setlinewidth
	Rounded {1 setlinejoin 1 setlinecap} if} def
3.8 setmiterlimit
% Classic Line colors (version 5.0)
/LCw {1 1 1} def
/LCb {0 0 0} def
/LCa {0 0 0} def
/LC0 {1 0 0} def
/LC1 {0 1 0} def
/LC2 {0 0 1} def
/LC3 {1 0 1} def
/LC4 {0 1 1} def
/LC5 {1 1 0} def
/LC6 {0 0 0} def
/LC7 {1 0.3 0} def
/LC8 {0.5 0.5 0.5} def
% Default dash patterns (version 5.0)
/LTw {PL [] 1 setgray} def
/LTb {BL [] LCb DL} def
/LTa {AL [1 udl mul 2 udl mul] 0 setdash LCa setrgbcolor} def
/LT0 {PL [] LC0 DL} def
/LT1 {PL [2 dl1 3 dl2] LC1 DL} def
/LT2 {PL [1 dl1 1.5 dl2] LC2 DL} def
/LT3 {PL [6 dl1 2 dl2 1 dl1 2 dl2] LC3 DL} def
/LT4 {PL [1 dl1 2 dl2 6 dl1 2 dl2 1 dl1 2 dl2] LC4 DL} def
/LT5 {PL [4 dl1 2 dl2] LC5 DL} def
/LT6 {PL [1.5 dl1 1.5 dl2 1.5 dl1 1.5 dl2 1.5 dl1 6 dl2] LC6 DL} def
/LT7 {PL [3 dl1 3 dl2 1 dl1 3 dl2] LC7 DL} def
/LT8 {PL [2 dl1 2 dl2 2 dl1 6 dl2] LC8 DL} def
/SL {[] 0 setdash} def
/Pnt {stroke [] 0 setdash gsave 1 setlinecap M 0 0 V stroke grestore} def
/Dia {stroke [] 0 setdash 2 copy vpt add M
  hpt neg vpt neg V hpt vpt neg V
  hpt vpt V hpt neg vpt V closepath stroke
  Pnt} def
/Pls {stroke [] 0 setdash vpt sub M 0 vpt2 V
  currentpoint stroke M
  hpt neg vpt neg R hpt2 0 V stroke
 } def
/Box {stroke [] 0 setdash 2 copy exch hpt sub exch vpt add M
  0 vpt2 neg V hpt2 0 V 0 vpt2 V
  hpt2 neg 0 V closepath stroke
  Pnt} def
/Crs {stroke [] 0 setdash exch hpt sub exch vpt add M
  hpt2 vpt2 neg V currentpoint stroke M
  hpt2 neg 0 R hpt2 vpt2 V stroke} def
/TriU {stroke [] 0 setdash 2 copy vpt 1.12 mul add M
  hpt neg vpt -1.62 mul V
  hpt 2 mul 0 V
  hpt neg vpt 1.62 mul V closepath stroke
  Pnt} def
/Star {2 copy Pls Crs} def
/BoxF {stroke [] 0 setdash exch hpt sub exch vpt add M
  0 vpt2 neg V hpt2 0 V 0 vpt2 V
  hpt2 neg 0 V closepath fill} def
/TriUF {stroke [] 0 setdash vpt 1.12 mul add M
  hpt neg vpt -1.62 mul V
  hpt 2 mul 0 V
  hpt neg vpt 1.62 mul V closepath fill} def
/TriD {stroke [] 0 setdash 2 copy vpt 1.12 mul sub M
  hpt neg vpt 1.62 mul V
  hpt 2 mul 0 V
  hpt neg vpt -1.62 mul V closepath stroke
  Pnt} def
/TriDF {stroke [] 0 setdash vpt 1.12 mul sub M
  hpt neg vpt 1.62 mul V
  hpt 2 mul 0 V
  hpt neg vpt -1.62 mul V closepath fill} def
/DiaF {stroke [] 0 setdash vpt add M
  hpt neg vpt neg V hpt vpt neg V
  hpt vpt V hpt neg vpt V closepath fill} def
/Pent {stroke [] 0 setdash 2 copy gsave
  translate 0 hpt M 4 {72 rotate 0 hpt L} repeat
  closepath stroke grestore Pnt} def
/PentF {stroke [] 0 setdash gsave
  translate 0 hpt M 4 {72 rotate 0 hpt L} repeat
  closepath fill grestore} def
/Circle {stroke [] 0 setdash 2 copy
  hpt 0 360 arc stroke Pnt} def
/CircleF {stroke [] 0 setdash hpt 0 360 arc fill} def
/C0 {BL [] 0 setdash 2 copy moveto vpt 90 450 arc} bind def
/C1 {BL [] 0 setdash 2 copy moveto
	2 copy vpt 0 90 arc closepath fill
	vpt 0 360 arc closepath} bind def
/C2 {BL [] 0 setdash 2 copy moveto
	2 copy vpt 90 180 arc closepath fill
	vpt 0 360 arc closepath} bind def
/C3 {BL [] 0 setdash 2 copy moveto
	2 copy vpt 0 180 arc closepath fill
	vpt 0 360 arc closepath} bind def
/C4 {BL [] 0 setdash 2 copy moveto
	2 copy vpt 180 270 arc closepath fill
	vpt 0 360 arc closepath} bind def
/C5 {BL [] 0 setdash 2 copy moveto
	2 copy vpt 0 90 arc
	2 copy moveto
	2 copy vpt 180 270 arc closepath fill
	vpt 0 360 arc} bind def
/C6 {BL [] 0 setdash 2 copy moveto
	2 copy vpt 90 270 arc closepath fill
	vpt 0 360 arc closepath} bind def
/C7 {BL [] 0 setdash 2 copy moveto
	2 copy vpt 0 270 arc closepath fill
	vpt 0 360 arc closepath} bind def
/C8 {BL [] 0 setdash 2 copy moveto
	2 copy vpt 270 360 arc closepath fill
	vpt 0 360 arc closepath} bind def
/C9 {BL [] 0 setdash 2 copy moveto
	2 copy vpt 270 450 arc closepath fill
	vpt 0 360 arc closepath} bind def
/C10 {BL [] 0 setdash 2 copy 2 copy moveto vpt 270 360 arc closepath fill
	2 copy moveto
	2 copy vpt 90 180 arc closepath fill
	vpt 0 360 arc closepath} bind def
/C11 {BL [] 0 setdash 2 copy moveto
	2 copy vpt 0 180 arc closepath fill
	2 copy moveto
	2 copy vpt 270 360 arc closepath fill
	vpt 0 360 arc closepath} bind def
/C12 {BL [] 0 setdash 2 copy moveto
	2 copy vpt 180 360 arc closepath fill
	vpt 0 360 arc closepath} bind def
/C13 {BL [] 0 setdash 2 copy moveto
	2 copy vpt 0 90 arc closepath fill
	2 copy moveto
	2 copy vpt 180 360 arc closepath fill
	vpt 0 360 arc closepath} bind def
/C14 {BL [] 0 setdash 2 copy moveto
	2 copy vpt 90 360 arc closepath fill
	vpt 0 360 arc} bind def
/C15 {BL [] 0 setdash 2 copy vpt 0 360 arc closepath fill
	vpt 0 360 arc closepath} bind def
/Rec {newpath 4 2 roll moveto 1 index 0 rlineto 0 exch rlineto
	neg 0 rlineto closepath} bind def
/Square {dup Rec} bind def
/Bsquare {vpt sub exch vpt sub exch vpt2 Square} bind def
/S0 {BL [] 0 setdash 2 copy moveto 0 vpt rlineto BL Bsquare} bind def
/S1 {BL [] 0 setdash 2 copy vpt Square fill Bsquare} bind def
/S2 {BL [] 0 setdash 2 copy exch vpt sub exch vpt Square fill Bsquare} bind def
/S3 {BL [] 0 setdash 2 copy exch vpt sub exch vpt2 vpt Rec fill Bsquare} bind def
/S4 {BL [] 0 setdash 2 copy exch vpt sub exch vpt sub vpt Square fill Bsquare} bind def
/S5 {BL [] 0 setdash 2 copy 2 copy vpt Square fill
	exch vpt sub exch vpt sub vpt Square fill Bsquare} bind def
/S6 {BL [] 0 setdash 2 copy exch vpt sub exch vpt sub vpt vpt2 Rec fill Bsquare} bind def
/S7 {BL [] 0 setdash 2 copy exch vpt sub exch vpt sub vpt vpt2 Rec fill
	2 copy vpt Square fill Bsquare} bind def
/S8 {BL [] 0 setdash 2 copy vpt sub vpt Square fill Bsquare} bind def
/S9 {BL [] 0 setdash 2 copy vpt sub vpt vpt2 Rec fill Bsquare} bind def
/S10 {BL [] 0 setdash 2 copy vpt sub vpt Square fill 2 copy exch vpt sub exch vpt Square fill
	Bsquare} bind def
/S11 {BL [] 0 setdash 2 copy vpt sub vpt Square fill 2 copy exch vpt sub exch vpt2 vpt Rec fill
	Bsquare} bind def
/S12 {BL [] 0 setdash 2 copy exch vpt sub exch vpt sub vpt2 vpt Rec fill Bsquare} bind def
/S13 {BL [] 0 setdash 2 copy exch vpt sub exch vpt sub vpt2 vpt Rec fill
	2 copy vpt Square fill Bsquare} bind def
/S14 {BL [] 0 setdash 2 copy exch vpt sub exch vpt sub vpt2 vpt Rec fill
	2 copy exch vpt sub exch vpt Square fill Bsquare} bind def
/S15 {BL [] 0 setdash 2 copy Bsquare fill Bsquare} bind def
/D0 {gsave translate 45 rotate 0 0 S0 stroke grestore} bind def
/D1 {gsave translate 45 rotate 0 0 S1 stroke grestore} bind def
/D2 {gsave translate 45 rotate 0 0 S2 stroke grestore} bind def
/D3 {gsave translate 45 rotate 0 0 S3 stroke grestore} bind def
/D4 {gsave translate 45 rotate 0 0 S4 stroke grestore} bind def
/D5 {gsave translate 45 rotate 0 0 S5 stroke grestore} bind def
/D6 {gsave translate 45 rotate 0 0 S6 stroke grestore} bind def
/D7 {gsave translate 45 rotate 0 0 S7 stroke grestore} bind def
/D8 {gsave translate 45 rotate 0 0 S8 stroke grestore} bind def
/D9 {gsave translate 45 rotate 0 0 S9 stroke grestore} bind def
/D10 {gsave translate 45 rotate 0 0 S10 stroke grestore} bind def
/D11 {gsave translate 45 rotate 0 0 S11 stroke grestore} bind def
/D12 {gsave translate 45 rotate 0 0 S12 stroke grestore} bind def
/D13 {gsave translate 45 rotate 0 0 S13 stroke grestore} bind def
/D14 {gsave translate 45 rotate 0 0 S14 stroke grestore} bind def
/D15 {gsave translate 45 rotate 0 0 S15 stroke grestore} bind def
/DiaE {stroke [] 0 setdash vpt add M
  hpt neg vpt neg V hpt vpt neg V
  hpt vpt V hpt neg vpt V closepath stroke} def
/BoxE {stroke [] 0 setdash exch hpt sub exch vpt add M
  0 vpt2 neg V hpt2 0 V 0 vpt2 V
  hpt2 neg 0 V closepath stroke} def
/TriUE {stroke [] 0 setdash vpt 1.12 mul add M
  hpt neg vpt -1.62 mul V
  hpt 2 mul 0 V
  hpt neg vpt 1.62 mul V closepath stroke} def
/TriDE {stroke [] 0 setdash vpt 1.12 mul sub M
  hpt neg vpt 1.62 mul V
  hpt 2 mul 0 V
  hpt neg vpt -1.62 mul V closepath stroke} def
/PentE {stroke [] 0 setdash gsave
  translate 0 hpt M 4 {72 rotate 0 hpt L} repeat
  closepath stroke grestore} def
/CircE {stroke [] 0 setdash 
  hpt 0 360 arc stroke} def
/Opaque {gsave closepath 1 setgray fill grestore 0 setgray closepath} def
/DiaW {stroke [] 0 setdash vpt add M
  hpt neg vpt neg V hpt vpt neg V
  hpt vpt V hpt neg vpt V Opaque stroke} def
/BoxW {stroke [] 0 setdash exch hpt sub exch vpt add M
  0 vpt2 neg V hpt2 0 V 0 vpt2 V
  hpt2 neg 0 V Opaque stroke} def
/TriUW {stroke [] 0 setdash vpt 1.12 mul add M
  hpt neg vpt -1.62 mul V
  hpt 2 mul 0 V
  hpt neg vpt 1.62 mul V Opaque stroke} def
/TriDW {stroke [] 0 setdash vpt 1.12 mul sub M
  hpt neg vpt 1.62 mul V
  hpt 2 mul 0 V
  hpt neg vpt -1.62 mul V Opaque stroke} def
/PentW {stroke [] 0 setdash gsave
  translate 0 hpt M 4 {72 rotate 0 hpt L} repeat
  Opaque stroke grestore} def
/CircW {stroke [] 0 setdash 
  hpt 0 360 arc Opaque stroke} def
/BoxFill {gsave Rec 1 setgray fill grestore} def
/Density {
  /Fillden exch def
  currentrgbcolor
  /ColB exch def /ColG exch def /ColR exch def
  /ColR ColR Fillden mul Fillden sub 1 add def
  /ColG ColG Fillden mul Fillden sub 1 add def
  /ColB ColB Fillden mul Fillden sub 1 add def
  ColR ColG ColB setrgbcolor} def
/BoxColFill {gsave Rec PolyFill} def
/PolyFill {gsave Density fill grestore grestore} def
/h {rlineto rlineto rlineto gsave closepath fill grestore} bind def
%
% PostScript Level 1 Pattern Fill routine for rectangles
% Usage: x y w h s a XX PatternFill
%	x,y = lower left corner of box to be filled
%	w,h = width and height of box
%	  a = angle in degrees between lines and x-axis
%	 XX = 0/1 for no/yes cross-hatch
%
/PatternFill {gsave /PFa [ 9 2 roll ] def
  PFa 0 get PFa 2 get 2 div add PFa 1 get PFa 3 get 2 div add translate
  PFa 2 get -2 div PFa 3 get -2 div PFa 2 get PFa 3 get Rec
  TransparentPatterns {} {gsave 1 setgray fill grestore} ifelse
  clip
  currentlinewidth 0.5 mul setlinewidth
  /PFs PFa 2 get dup mul PFa 3 get dup mul add sqrt def
  0 0 M PFa 5 get rotate PFs -2 div dup translate
  0 1 PFs PFa 4 get div 1 add floor cvi
	{PFa 4 get mul 0 M 0 PFs V} for
  0 PFa 6 get ne {
	0 1 PFs PFa 4 get div 1 add floor cvi
	{PFa 4 get mul 0 2 1 roll M PFs 0 V} for
 } if
  stroke grestore} def
%
/languagelevel where
 {pop languagelevel} {1} ifelse
dup 2 lt
	{/InterpretLevel1 true def
	 /InterpretLevel3 false def}
	{/InterpretLevel1 Level1 def
	 2 gt
	    {/InterpretLevel3 Level3 def}
	    {/InterpretLevel3 false def}
	 ifelse }
 ifelse
%
% PostScript level 2 pattern fill definitions
%
/Level2PatternFill {
/Tile8x8 {/PaintType 2 /PatternType 1 /TilingType 1 /BBox [0 0 8 8] /XStep 8 /YStep 8}
	bind def
/KeepColor {currentrgbcolor [/Pattern /DeviceRGB] setcolorspace} bind def
<< Tile8x8
 /PaintProc {0.5 setlinewidth pop 0 0 M 8 8 L 0 8 M 8 0 L stroke} 
>> matrix makepattern
/Pat1 exch def
<< Tile8x8
 /PaintProc {0.5 setlinewidth pop 0 0 M 8 8 L 0 8 M 8 0 L stroke
	0 4 M 4 8 L 8 4 L 4 0 L 0 4 L stroke}
>> matrix makepattern
/Pat2 exch def
<< Tile8x8
 /PaintProc {0.5 setlinewidth pop 0 0 M 0 8 L
	8 8 L 8 0 L 0 0 L fill}
>> matrix makepattern
/Pat3 exch def
<< Tile8x8
 /PaintProc {0.5 setlinewidth pop -4 8 M 8 -4 L
	0 12 M 12 0 L stroke}
>> matrix makepattern
/Pat4 exch def
<< Tile8x8
 /PaintProc {0.5 setlinewidth pop -4 0 M 8 12 L
	0 -4 M 12 8 L stroke}
>> matrix makepattern
/Pat5 exch def
<< Tile8x8
 /PaintProc {0.5 setlinewidth pop -2 8 M 4 -4 L
	0 12 M 8 -4 L 4 12 M 10 0 L stroke}
>> matrix makepattern
/Pat6 exch def
<< Tile8x8
 /PaintProc {0.5 setlinewidth pop -2 0 M 4 12 L
	0 -4 M 8 12 L 4 -4 M 10 8 L stroke}
>> matrix makepattern
/Pat7 exch def
<< Tile8x8
 /PaintProc {0.5 setlinewidth pop 8 -2 M -4 4 L
	12 0 M -4 8 L 12 4 M 0 10 L stroke}
>> matrix makepattern
/Pat8 exch def
<< Tile8x8
 /PaintProc {0.5 setlinewidth pop 0 -2 M 12 4 L
	-4 0 M 12 8 L -4 4 M 8 10 L stroke}
>> matrix makepattern
/Pat9 exch def
/Pattern1 {PatternBgnd KeepColor Pat1 setpattern} bind def
/Pattern2 {PatternBgnd KeepColor Pat2 setpattern} bind def
/Pattern3 {PatternBgnd KeepColor Pat3 setpattern} bind def
/Pattern4 {PatternBgnd KeepColor Landscape {Pat5} {Pat4} ifelse setpattern} bind def
/Pattern5 {PatternBgnd KeepColor Landscape {Pat4} {Pat5} ifelse setpattern} bind def
/Pattern6 {PatternBgnd KeepColor Landscape {Pat9} {Pat6} ifelse setpattern} bind def
/Pattern7 {PatternBgnd KeepColor Landscape {Pat8} {Pat7} ifelse setpattern} bind def
} def
%
%
%End of PostScript Level 2 code
%
/PatternBgnd {
  TransparentPatterns {} {gsave 1 setgray fill grestore} ifelse
} def
%
% Substitute for Level 2 pattern fill codes with
% grayscale if Level 2 support is not selected.
%
/Level1PatternFill {
/Pattern1 {0.250 Density} bind def
/Pattern2 {0.500 Density} bind def
/Pattern3 {0.750 Density} bind def
/Pattern4 {0.125 Density} bind def
/Pattern5 {0.375 Density} bind def
/Pattern6 {0.625 Density} bind def
/Pattern7 {0.875 Density} bind def
} def
%
% Now test for support of Level 2 code
%
Level1 {Level1PatternFill} {Level2PatternFill} ifelse
%
/Symbol-Oblique /Symbol findfont [1 0 .167 1 0 0] makefont
dup length dict begin {1 index /FID eq {pop pop} {def} ifelse} forall
currentdict end definefont pop
%
/MFshow {
   { dup 5 get 3 ge
     { 5 get 3 eq {gsave} {grestore} ifelse }
     {dup dup 0 get findfont exch 1 get scalefont setfont
     [ currentpoint ] exch dup 2 get 0 exch R dup 5 get 2 ne {dup dup 6
     get exch 4 get {textshow} {stringwidth pop 0 R} ifelse }if dup 5 get 0 eq
     {dup 3 get {2 get neg 0 exch R pop} {pop aload pop M} ifelse} {dup 5
     get 1 eq {dup 2 get exch dup 3 get exch 6 get stringwidth pop -2 div
     dup 0 R} {dup 6 get stringwidth pop -2 div 0 R 6 get
     textshow 2 index {aload pop M neg 3 -1 roll neg R pop pop} {pop pop pop
     pop aload pop M} ifelse }ifelse }ifelse }
     ifelse }
   forall} def
/Gswidth {dup type /stringtype eq {stringwidth} {pop (n) stringwidth} ifelse} def
/MFwidth {0 exch { dup 5 get 3 ge { 5 get 3 eq { 0 } { pop } ifelse }
 {dup 3 get{dup dup 0 get findfont exch 1 get scalefont setfont
     6 get Gswidth pop add} {pop} ifelse} ifelse} forall} def
/MLshow { currentpoint stroke M
  0 exch R
  Blacktext {gsave 0 setgray MFshow grestore} {MFshow} ifelse } bind def
/MRshow { currentpoint stroke M
  exch dup MFwidth neg 3 -1 roll R
  Blacktext {gsave 0 setgray MFshow grestore} {MFshow} ifelse } bind def
/MCshow { currentpoint stroke M
  exch dup MFwidth -2 div 3 -1 roll R
  Blacktext {gsave 0 setgray MFshow grestore} {MFshow} ifelse } bind def
/XYsave    { [( ) 1 2 true false 3 ()] } bind def
/XYrestore { [( ) 1 2 true false 4 ()] } bind def
Level1 SuppressPDFMark or 
{} {
/SDict 10 dict def
systemdict /pdfmark known not {
  userdict /pdfmark systemdict /cleartomark get put
} if
SDict begin [
  /Title (Plots/Convergence_Ham_z_t0.eps)
  /Subject (gnuplot plot)
  /Creator (gnuplot 5.0 patchlevel 1)
  /Author (helvi)
%  /Producer (gnuplot)
%  /Keywords ()
  /CreationDate (Mon Jan 16 15:49:06 2017)
  /DOCINFO pdfmark
end
} ifelse
end
%
% Support for boxed text - Ethan A Merritt May 2005
%
/InitTextBox { userdict /TBy2 3 -1 roll put userdict /TBx2 3 -1 roll put
           userdict /TBy1 3 -1 roll put userdict /TBx1 3 -1 roll put
	   /Boxing true def } def
/ExtendTextBox { Boxing
    { gsave dup false charpath pathbbox
      dup TBy2 gt {userdict /TBy2 3 -1 roll put} {pop} ifelse
      dup TBx2 gt {userdict /TBx2 3 -1 roll put} {pop} ifelse
      dup TBy1 lt {userdict /TBy1 3 -1 roll put} {pop} ifelse
      dup TBx1 lt {userdict /TBx1 3 -1 roll put} {pop} ifelse
      grestore } if } def
/PopTextBox { newpath TBx1 TBxmargin sub TBy1 TBymargin sub M
               TBx1 TBxmargin sub TBy2 TBymargin add L
	       TBx2 TBxmargin add TBy2 TBymargin add L
	       TBx2 TBxmargin add TBy1 TBymargin sub L closepath } def
/DrawTextBox { PopTextBox stroke /Boxing false def} def
/FillTextBox { gsave PopTextBox 1 1 1 setrgbcolor fill grestore /Boxing false def} def
0 0 0 0 InitTextBox
/TBxmargin 20 def
/TBymargin 20 def
/Boxing false def
/textshow { ExtendTextBox Gshow } def
%
%%EndProlog
%%Page: 1 1
gnudict begin
gsave
doclip
50 50 translate
0.050 0.050 scale
0 setgray
newpath
(Helvetica) findfont 140 scalefont setfont
BackgroundColor 0 lt 3 1 roll 0 lt exch 0 lt or or not {BackgroundColor C 1.000 0 0 7200.00 5040.00 BoxColFill} if
/Helvetica findfont 140 scalefont setfont
/vshift -46 def
/Helvetica findfont 140 scalefont setfont
/Helvetica findfont 140 scalefont setfont
1.000 UL
LTb
LCb setrgbcolor
602 448 M
63 0 V
6282 0 R
-63 0 V
stroke
518 448 M
[ [(Helvetica) 140.0 0.0 true true 0 (10)]
[(Helvetica) 112.0 70.0 true true 0 (-8)]
] -60.7 MRshow
1.000 UL
LTb
LCb setrgbcolor
602 596 M
31 0 V
6314 0 R
-31 0 V
602 792 M
31 0 V
6314 0 R
-31 0 V
602 892 M
31 0 V
6314 0 R
-31 0 V
602 939 M
63 0 V
6282 0 R
-63 0 V
stroke
518 939 M
[ [(Helvetica) 140.0 0.0 true true 0 (10)]
[(Helvetica) 112.0 70.0 true true 0 (-7)]
] -60.7 MRshow
1.000 UL
LTb
LCb setrgbcolor
602 1087 M
31 0 V
6314 0 R
-31 0 V
602 1283 M
31 0 V
6314 0 R
-31 0 V
602 1383 M
31 0 V
6314 0 R
-31 0 V
602 1431 M
63 0 V
6282 0 R
-63 0 V
stroke
518 1431 M
[ [(Helvetica) 140.0 0.0 true true 0 (10)]
[(Helvetica) 112.0 70.0 true true 0 (-6)]
] -60.7 MRshow
1.000 UL
LTb
LCb setrgbcolor
602 1579 M
31 0 V
6314 0 R
-31 0 V
602 1774 M
31 0 V
6314 0 R
-31 0 V
602 1875 M
31 0 V
6314 0 R
-31 0 V
602 1922 M
63 0 V
6282 0 R
-63 0 V
stroke
518 1922 M
[ [(Helvetica) 140.0 0.0 true true 0 (10)]
[(Helvetica) 112.0 70.0 true true 0 (-5)]
] -60.7 MRshow
1.000 UL
LTb
LCb setrgbcolor
602 2070 M
31 0 V
6314 0 R
-31 0 V
602 2266 M
31 0 V
6314 0 R
-31 0 V
602 2366 M
31 0 V
6314 0 R
-31 0 V
602 2414 M
63 0 V
6282 0 R
-63 0 V
stroke
518 2414 M
[ [(Helvetica) 140.0 0.0 true true 0 (10)]
[(Helvetica) 112.0 70.0 true true 0 (-4)]
] -60.7 MRshow
1.000 UL
LTb
LCb setrgbcolor
602 2562 M
31 0 V
6314 0 R
-31 0 V
602 2757 M
31 0 V
6314 0 R
-31 0 V
602 2858 M
31 0 V
6314 0 R
-31 0 V
602 2905 M
63 0 V
6282 0 R
-63 0 V
stroke
518 2905 M
[ [(Helvetica) 140.0 0.0 true true 0 (10)]
[(Helvetica) 112.0 70.0 true true 0 (-3)]
] -60.7 MRshow
1.000 UL
LTb
LCb setrgbcolor
602 3053 M
31 0 V
6314 0 R
-31 0 V
602 3249 M
31 0 V
6314 0 R
-31 0 V
602 3349 M
31 0 V
6314 0 R
-31 0 V
602 3397 M
63 0 V
6282 0 R
-63 0 V
stroke
518 3397 M
[ [(Helvetica) 140.0 0.0 true true 0 (10)]
[(Helvetica) 112.0 70.0 true true 0 (-2)]
] -60.7 MRshow
1.000 UL
LTb
LCb setrgbcolor
602 3545 M
31 0 V
6314 0 R
-31 0 V
602 3740 M
31 0 V
6314 0 R
-31 0 V
602 3840 M
31 0 V
6314 0 R
-31 0 V
602 3888 M
63 0 V
6282 0 R
-63 0 V
stroke
518 3888 M
[ [(Helvetica) 140.0 0.0 true true 0 (10)]
[(Helvetica) 112.0 70.0 true true 0 (-1)]
] -60.7 MRshow
1.000 UL
LTb
LCb setrgbcolor
602 4036 M
31 0 V
6314 0 R
-31 0 V
602 4232 M
31 0 V
6314 0 R
-31 0 V
602 4332 M
31 0 V
6314 0 R
-31 0 V
602 4380 M
63 0 V
6282 0 R
-63 0 V
stroke
518 4380 M
[ [(Helvetica) 140.0 0.0 true true 0 (10)]
[(Helvetica) 112.0 70.0 true true 0 (0)]
] -60.7 MRshow
1.000 UL
LTb
LCb setrgbcolor
602 4527 M
31 0 V
6314 0 R
-31 0 V
602 4723 M
31 0 V
6314 0 R
-31 0 V
602 4823 M
31 0 V
6314 0 R
-31 0 V
602 4871 M
63 0 V
6282 0 R
-63 0 V
stroke
518 4871 M
[ [(Helvetica) 140.0 0.0 true true 0 (10)]
[(Helvetica) 112.0 70.0 true true 0 (1)]
] -60.7 MRshow
1.000 UL
LTb
LCb setrgbcolor
602 448 M
0 63 V
0 4360 R
0 -63 V
stroke
602 308 M
[ [(Helvetica) 140.0 0.0 true true 0 (10)]
[(Helvetica) 112.0 70.0 true true 0 (-2)]
] -60.7 MCshow
1.000 UL
LTb
LCb setrgbcolor
1080 448 M
0 31 V
0 4392 R
0 -31 V
1359 448 M
0 31 V
0 4392 R
0 -31 V
1557 448 M
0 31 V
0 4392 R
0 -31 V
1711 448 M
0 31 V
0 4392 R
0 -31 V
1836 448 M
0 31 V
0 4392 R
0 -31 V
1943 448 M
0 31 V
0 4392 R
0 -31 V
2035 448 M
0 31 V
0 4392 R
0 -31 V
2116 448 M
0 31 V
0 4392 R
0 -31 V
2188 448 M
0 63 V
0 4360 R
0 -63 V
stroke
2188 308 M
[ [(Helvetica) 140.0 0.0 true true 0 (10)]
[(Helvetica) 112.0 70.0 true true 0 (-1)]
] -60.7 MCshow
1.000 UL
LTb
LCb setrgbcolor
2666 448 M
0 31 V
0 4392 R
0 -31 V
2945 448 M
0 31 V
0 4392 R
0 -31 V
3143 448 M
0 31 V
0 4392 R
0 -31 V
3297 448 M
0 31 V
0 4392 R
0 -31 V
3423 448 M
0 31 V
0 4392 R
0 -31 V
3529 448 M
0 31 V
0 4392 R
0 -31 V
3621 448 M
0 31 V
0 4392 R
0 -31 V
3702 448 M
0 31 V
0 4392 R
0 -31 V
3775 448 M
0 63 V
0 4360 R
0 -63 V
stroke
3775 308 M
[ [(Helvetica) 140.0 0.0 true true 0 (10)]
[(Helvetica) 112.0 70.0 true true 0 (0)]
] -60.7 MCshow
1.000 UL
LTb
LCb setrgbcolor
4252 448 M
0 31 V
0 4392 R
0 -31 V
4531 448 M
0 31 V
0 4392 R
0 -31 V
4730 448 M
0 31 V
0 4392 R
0 -31 V
4883 448 M
0 31 V
0 4392 R
0 -31 V
5009 448 M
0 31 V
0 4392 R
0 -31 V
5115 448 M
0 31 V
0 4392 R
0 -31 V
5207 448 M
0 31 V
0 4392 R
0 -31 V
5288 448 M
0 31 V
0 4392 R
0 -31 V
5361 448 M
0 63 V
0 4360 R
0 -63 V
stroke
5361 308 M
[ [(Helvetica) 140.0 0.0 true true 0 (10)]
[(Helvetica) 112.0 70.0 true true 0 (1)]
] -60.7 MCshow
1.000 UL
LTb
LCb setrgbcolor
5838 448 M
0 31 V
0 4392 R
0 -31 V
6118 448 M
0 31 V
0 4392 R
0 -31 V
6316 448 M
0 31 V
0 4392 R
0 -31 V
6469 448 M
0 31 V
0 4392 R
0 -31 V
6595 448 M
0 31 V
0 4392 R
0 -31 V
6701 448 M
0 31 V
0 4392 R
0 -31 V
6793 448 M
0 31 V
0 4392 R
0 -31 V
6874 448 M
0 31 V
0 4392 R
0 -31 V
6947 448 M
0 63 V
0 4360 R
0 -63 V
stroke
6947 308 M
[ [(Helvetica) 140.0 0.0 true true 0 (10)]
[(Helvetica) 112.0 70.0 true true 0 (2)]
] -60.7 MCshow
1.000 UL
LTb
LCb setrgbcolor
1.000 UL
LTb
LCb setrgbcolor
602 4871 N
602 448 L
6345 0 V
0 4423 V
-6345 0 V
Z stroke
1.000 UP
1.000 UL
LTb
LCb setrgbcolor
LCb setrgbcolor
112 2659 M
currentpoint gsave translate -270 rotate 0 0 moveto
[ [(Helvetica) 140.0 0.0 true true 0 (H)]
] -46.7 MCshow
grestore
LTb
LCb setrgbcolor
3774 98 M
[ [(Helvetica) 140.0 0.0 true true 0 (z)]
] -46.7 MCshow
LTb
% Begin plot #1
1.000 UL
LTb
0.58 0.00 0.83 C /Helvetica findfont 140 scalefont setfont
LCb setrgbcolor
6296 4738 M
("TPKP_a09_c1101_w1r6_mu034_dx125/FunctionsZ/leanbssnmol-ham.z.xg::hc" u 1:\(abs\($2\)\)) Rshow
1.000 UL
LTb
0.58 0.00 0.83 C 6380 4738 M
399 0 V
602 3810 M
461 0 V
478 580 V
279 -560 V
198 -439 V
154 -212 V
126 -126 V
106 -124 V
92 -117 V
81 -107 V
72 -94 V
66 -82 V
60 -76 V
55 -69 V
51 -58 V
48 -46 V
44 -40 V
42 -43 V
39 -49 V
38 -50 V
35 -42 V
34 -26 V
32 -13 V
30 -12 V
30 -20 V
28 -34 V
27 -49 V
26 -59 V
25 -58 V
24 -37 V
23 542 V
23 408 V
22 -144 V
21 -291 V
20 150 V
20 -1 V
20 -172 V
19 -72 V
18 15 V
18 -26 V
17 -31 V
34 -43 V
32 -24 V
31 -17 V
29 -22 V
28 -38 V
27 -54 V
26 190 V
25 295 V
24 49 V
24 -6 V
22 -384 V
22 295 V
21 -6 V
21 -153 V
20 -68 V
19 4 V
19 -31 V
19 -36 V
35 -53 V
34 -23 V
32 -5 V
30 -4 V
30 -14 V
28 74 V
27 81 V
26 117 V
25 -31 V
24 -711 V
23 715 V
23 -4 V
22 -105 V
21 -35 V
20 6 V
20 -13 V
20 -16 V
37 -21 V
35 -6 V
34 8 V
32 11 V
31 8 V
29 4 V
28 18 V
27 -211 V
26 26 V
25 35 V
24 126 V
24 75 V
22 2 V
22 -22 V
21 -4 V
21 1 V
20 -4 V
19 -8 V
38 -21 V
35 -30 V
34 -37 V
32 -40 V
30 -44 V
30 -46 V
28 -36 V
27 -217 V
26 21 V
stroke 5244 1644 M
25 -61 V
24 50 V
23 46 V
23 -34 V
22 -74 V
21 -48 V
21 -29 V
19 -36 V
20 -35 V
37 -65 V
35 -62 V
34 -59 V
32 -57 V
31 -57 V
29 -57 V
28 9 V
27 145 V
26 -232 V
25 12 V
24 -448 V
24 493 V
22 -21 V
22 -144 V
21 -71 V
21 -7 V
20 -33 V
19 -37 V
38 -66 V
35 -65 V
34 -67 V
32 223 V
30 172 V
0 -481 V
% End plot #1
% Begin plot #2
stroke
LTb
0.00 0.62 0.45 C /Helvetica findfont 140 scalefont setfont
LCb setrgbcolor
6296 4598 M
("TPKP_a09_c1101_w1r6_mu034_dx1/FunctionsZ/leanbssnmol-ham.z.xg::hc" u 1:\(abs\($2\)*2.4\)) Rshow
1.000 UL
LTb
0.00 0.62 0.45 C 6380 4598 M
399 0 V
602 4032 M
307 0 V
478 288 V
279 282 V
198 -506 V
154 -802 V
126 -91 V
106 -101 V
92 -103 V
81 -98 V
73 -94 V
65 -87 V
60 -77 V
55 -68 V
51 -63 V
48 -62 V
44 -60 V
42 -52 V
40 -38 V
37 -27 V
35 -26 V
34 -33 V
32 -43 V
30 -51 V
30 -52 V
28 -38 V
27 -15 V
26 3 V
25 8 V
24 1 V
24 -12 V
22 -28 V
22 -45 V
21 -63 V
21 -75 V
20 -73 V
19 -44 V
19 507 V
18 369 V
18 37 V
18 -1 V
17 -278 V
16 115 V
17 4 V
15 -167 V
16 -66 V
15 16 V
15 -26 V
14 -33 V
28 -56 V
27 -35 V
26 -6 V
26 9 V
24 6 V
23 -7 V
23 198 V
22 279 V
21 51 V
20 -6 V
20 -327 V
20 205 V
19 -2 V
18 -158 V
18 -53 V
17 23 V
17 -12 V
17 -19 V
32 -43 V
31 -55 V
29 -52 V
28 -31 V
27 1 V
26 18 V
25 18 V
24 8 V
24 -3 V
22 64 V
22 12 V
21 126 V
21 -39 V
20 -511 V
19 537 V
19 3 V
18 -81 V
18 -16 V
18 14 V
17 -2 V
16 -5 V
32 -13 V
31 -12 V
29 -6 V
28 5 V
27 12 V
26 13 V
26 12 V
24 8 V
23 4 V
23 13 V
22 -102 V
21 -1 V
20 18 V
20 67 V
20 50 V
stroke 4811 2285 M
19 3 V
18 -11 V
18 1 V
17 5 V
17 2 V
17 0 V
32 -5 V
31 -12 V
29 -18 V
28 -24 V
27 -28 V
26 -32 V
25 -34 V
24 -35 V
24 -36 V
22 -31 V
22 -109 V
21 -20 V
21 -39 V
20 6 V
19 10 V
19 -30 V
18 -51 V
18 -37 V
18 -28 V
17 -30 V
16 -31 V
32 -56 V
31 -53 V
29 -50 V
28 -48 V
27 -46 V
26 -46 V
26 -45 V
24 -45 V
23 -45 V
23 -4 V
22 -30 V
21 -228 V
20 13 V
20 -97 V
20 269 V
19 -19 V
18 -113 V
18 -53 V
17 -11 V
17 -27 V
17 -29 V
32 -51 V
31 -48 V
29 -47 V
28 -48 V
27 -50 V
26 -54 V
25 -57 V
24 -62 V
24 206 V
22 158 V
0 -407 V
% End plot #2
% Begin plot #3
stroke
LTb
0.34 0.71 0.91 C /Helvetica findfont 140 scalefont setfont
LCb setrgbcolor
6296 4458 M
("TPKP_a09_c1101_w1r6_mu034_dx075/FunctionsZ/leanbssnmol-ham.z.xg::hc" u 1:\(abs\($2\)*7.7\)) Rshow
1.000 UL
LTb
0.34 0.71 0.91 C 6380 4458 M
399 0 V
602 4436 M
109 0 V
478 -568 V
279 863 V
198 113 V
154 -488 V
1946 3341 L
106 -60 V
92 -72 V
81 -78 V
73 -78 V
65 -75 V
60 -73 V
55 -73 V
51 -69 V
48 -63 V
44 -55 V
42 -47 V
39 -45 V
38 -48 V
35 -53 V
34 -55 V
32 -49 V
30 -36 V
30 -18 V
28 -8 V
27 -7 V
26 -14 V
25 -27 V
24 -32 V
23 -52 V
23 -59 V
22 -58 V
21 -40 V
21 -11 V
20 16 V
19 27 V
19 25 V
18 16 V
18 4 V
18 -8 V
17 -20 V
16 -32 V
16 -44 V
16 -53 V
16 -57 V
15 -54 V
15 -38 V
14 -9 V
14 18 V
14 646 V
14 408 V
13 -145 V
13 -261 V
13 68 V
13 14 V
12 -156 V
13 -46 V
12 25 V
11 -14 V
12 -25 V
22 -59 V
22 -73 V
22 -75 V
20 -45 V
20 7 V
19 44 V
19 49 V
19 38 V
18 21 V
17 5 V
17 -11 V
17 293 V
16 361 V
16 -157 V
15 -297 V
15 144 V
15 0 V
15 -170 V
14 -53 V
14 38 V
13 4 V
14 1 V
26 6 V
25 -6 V
24 -22 V
23 -36 V
23 -43 V
22 -37 V
21 -14 V
21 12 V
20 30 V
19 33 V
19 27 V
18 18 V
18 9 V
18 1 V
17 -6 V
16 82 V
16 133 V
16 -244 V
16 -153 V
15 291 V
15 4 V
14 -56 V
14 -3 V
14 18 V
14 9 V
13 7 V
26 10 V
25 3 V
stroke 4439 2429 M
25 -3 V
23 -5 V
22 -4 V
22 1 V
22 6 V
20 10 V
20 12 V
19 12 V
19 10 V
19 8 V
18 6 V
17 4 V
17 2 V
17 11 V
16 -97 V
16 52 V
15 30 V
15 25 V
15 3 V
15 -5 V
14 2 V
14 5 V
13 4 V
14 4 V
26 5 V
25 2 V
24 -2 V
23 -7 V
23 -10 V
22 -14 V
21 -17 V
21 -20 V
20 -22 V
19 -24 V
19 -25 V
18 -26 V
18 -26 V
18 -28 V
17 -27 V
16 -23 V
16 -75 V
16 -6 V
16 -11 V
15 -9 V
15 -25 V
14 -33 V
14 -27 V
14 -23 V
14 -25 V
13 -24 V
26 -47 V
25 -45 V
25 -42 V
23 -40 V
22 -39 V
22 -37 V
22 -35 V
20 -35 V
20 -34 V
19 -34 V
19 -33 V
19 -34 V
18 -33 V
17 -34 V
17 -33 V
17 0 V
16 -293 V
16 -107 V
15 214 V
15 103 V
15 -20 V
15 -71 V
14 -37 V
14 -16 V
13 -24 V
14 -23 V
26 -42 V
25 -37 V
24 -33 V
23 -33 V
23 -31 V
22 -33 V
21 -33 V
21 -36 V
20 -37 V
19 -40 V
19 -43 V
18 117 V
18 58 V
0 -500 V
% End plot #3
stroke
2.000 UL
LTb
LCb setrgbcolor
1.000 UL
LTb
LCb setrgbcolor
602 4871 N
602 448 L
6345 0 V
0 4423 V
-6345 0 V
Z stroke
1.000 UP
1.000 UL
LTb
LCb setrgbcolor
stroke
grestore
end
showpage
%%Trailer
%%DocumentFonts: Helvetica
