%!PS-Adobe-2.0 EPSF-2.0
%%Title: Plots/Convergence_Ham_x_t0.eps
%%Creator: gnuplot 5.0 patchlevel 1
%%CreationDate: Wed Jan 11 17:19:46 2017
%%DocumentFonts: (atend)
%%BoundingBox: 50 50 410 302
%%EndComments
%%BeginProlog
/gnudict 256 dict def
gnudict begin
%
% The following true/false flags may be edited by hand if desired.
% The unit line width and grayscale image gamma correction may also be changed.
%
/Color true def
/Blacktext false def
/Solid false def
/Dashlength 1 def
/Landscape false def
/Level1 false def
/Level3 false def
/Rounded false def
/ClipToBoundingBox false def
/SuppressPDFMark false def
/TransparentPatterns false def
/gnulinewidth 5.000 def
/userlinewidth gnulinewidth def
/Gamma 1.0 def
/BackgroundColor {-1.000 -1.000 -1.000} def
%
/vshift -46 def
/dl1 {
  10.0 Dashlength userlinewidth gnulinewidth div mul mul mul
  Rounded { currentlinewidth 0.75 mul sub dup 0 le { pop 0.01 } if } if
} def
/dl2 {
  10.0 Dashlength userlinewidth gnulinewidth div mul mul mul
  Rounded { currentlinewidth 0.75 mul add } if
} def
/hpt_ 31.5 def
/vpt_ 31.5 def
/hpt hpt_ def
/vpt vpt_ def
/doclip {
  ClipToBoundingBox {
    newpath 50 50 moveto 410 50 lineto 410 302 lineto 50 302 lineto closepath
    clip
  } if
} def
%
% Gnuplot Prolog Version 5.0 (Dec 2014)
%
%/SuppressPDFMark true def
%
/M {moveto} bind def
/L {lineto} bind def
/R {rmoveto} bind def
/V {rlineto} bind def
/N {newpath moveto} bind def
/Z {closepath} bind def
/C {setrgbcolor} bind def
/f {rlineto fill} bind def
/g {setgray} bind def
/Gshow {show} def   % May be redefined later in the file to support UTF-8
/vpt2 vpt 2 mul def
/hpt2 hpt 2 mul def
/Lshow {currentpoint stroke M 0 vshift R 
	Blacktext {gsave 0 setgray textshow grestore} {textshow} ifelse} def
/Rshow {currentpoint stroke M dup stringwidth pop neg vshift R
	Blacktext {gsave 0 setgray textshow grestore} {textshow} ifelse} def
/Cshow {currentpoint stroke M dup stringwidth pop -2 div vshift R 
	Blacktext {gsave 0 setgray textshow grestore} {textshow} ifelse} def
/UP {dup vpt_ mul /vpt exch def hpt_ mul /hpt exch def
  /hpt2 hpt 2 mul def /vpt2 vpt 2 mul def} def
/DL {Color {setrgbcolor Solid {pop []} if 0 setdash}
 {pop pop pop 0 setgray Solid {pop []} if 0 setdash} ifelse} def
/BL {stroke userlinewidth 2 mul setlinewidth
	Rounded {1 setlinejoin 1 setlinecap} if} def
/AL {stroke userlinewidth 2 div setlinewidth
	Rounded {1 setlinejoin 1 setlinecap} if} def
/UL {dup gnulinewidth mul /userlinewidth exch def
	dup 1 lt {pop 1} if 10 mul /udl exch def} def
/PL {stroke userlinewidth setlinewidth
	Rounded {1 setlinejoin 1 setlinecap} if} def
3.8 setmiterlimit
% Classic Line colors (version 5.0)
/LCw {1 1 1} def
/LCb {0 0 0} def
/LCa {0 0 0} def
/LC0 {1 0 0} def
/LC1 {0 1 0} def
/LC2 {0 0 1} def
/LC3 {1 0 1} def
/LC4 {0 1 1} def
/LC5 {1 1 0} def
/LC6 {0 0 0} def
/LC7 {1 0.3 0} def
/LC8 {0.5 0.5 0.5} def
% Default dash patterns (version 5.0)
/LTw {PL [] 1 setgray} def
/LTb {BL [] LCb DL} def
/LTa {AL [1 udl mul 2 udl mul] 0 setdash LCa setrgbcolor} def
/LT0 {PL [] LC0 DL} def
/LT1 {PL [2 dl1 3 dl2] LC1 DL} def
/LT2 {PL [1 dl1 1.5 dl2] LC2 DL} def
/LT3 {PL [6 dl1 2 dl2 1 dl1 2 dl2] LC3 DL} def
/LT4 {PL [1 dl1 2 dl2 6 dl1 2 dl2 1 dl1 2 dl2] LC4 DL} def
/LT5 {PL [4 dl1 2 dl2] LC5 DL} def
/LT6 {PL [1.5 dl1 1.5 dl2 1.5 dl1 1.5 dl2 1.5 dl1 6 dl2] LC6 DL} def
/LT7 {PL [3 dl1 3 dl2 1 dl1 3 dl2] LC7 DL} def
/LT8 {PL [2 dl1 2 dl2 2 dl1 6 dl2] LC8 DL} def
/SL {[] 0 setdash} def
/Pnt {stroke [] 0 setdash gsave 1 setlinecap M 0 0 V stroke grestore} def
/Dia {stroke [] 0 setdash 2 copy vpt add M
  hpt neg vpt neg V hpt vpt neg V
  hpt vpt V hpt neg vpt V closepath stroke
  Pnt} def
/Pls {stroke [] 0 setdash vpt sub M 0 vpt2 V
  currentpoint stroke M
  hpt neg vpt neg R hpt2 0 V stroke
 } def
/Box {stroke [] 0 setdash 2 copy exch hpt sub exch vpt add M
  0 vpt2 neg V hpt2 0 V 0 vpt2 V
  hpt2 neg 0 V closepath stroke
  Pnt} def
/Crs {stroke [] 0 setdash exch hpt sub exch vpt add M
  hpt2 vpt2 neg V currentpoint stroke M
  hpt2 neg 0 R hpt2 vpt2 V stroke} def
/TriU {stroke [] 0 setdash 2 copy vpt 1.12 mul add M
  hpt neg vpt -1.62 mul V
  hpt 2 mul 0 V
  hpt neg vpt 1.62 mul V closepath stroke
  Pnt} def
/Star {2 copy Pls Crs} def
/BoxF {stroke [] 0 setdash exch hpt sub exch vpt add M
  0 vpt2 neg V hpt2 0 V 0 vpt2 V
  hpt2 neg 0 V closepath fill} def
/TriUF {stroke [] 0 setdash vpt 1.12 mul add M
  hpt neg vpt -1.62 mul V
  hpt 2 mul 0 V
  hpt neg vpt 1.62 mul V closepath fill} def
/TriD {stroke [] 0 setdash 2 copy vpt 1.12 mul sub M
  hpt neg vpt 1.62 mul V
  hpt 2 mul 0 V
  hpt neg vpt -1.62 mul V closepath stroke
  Pnt} def
/TriDF {stroke [] 0 setdash vpt 1.12 mul sub M
  hpt neg vpt 1.62 mul V
  hpt 2 mul 0 V
  hpt neg vpt -1.62 mul V closepath fill} def
/DiaF {stroke [] 0 setdash vpt add M
  hpt neg vpt neg V hpt vpt neg V
  hpt vpt V hpt neg vpt V closepath fill} def
/Pent {stroke [] 0 setdash 2 copy gsave
  translate 0 hpt M 4 {72 rotate 0 hpt L} repeat
  closepath stroke grestore Pnt} def
/PentF {stroke [] 0 setdash gsave
  translate 0 hpt M 4 {72 rotate 0 hpt L} repeat
  closepath fill grestore} def
/Circle {stroke [] 0 setdash 2 copy
  hpt 0 360 arc stroke Pnt} def
/CircleF {stroke [] 0 setdash hpt 0 360 arc fill} def
/C0 {BL [] 0 setdash 2 copy moveto vpt 90 450 arc} bind def
/C1 {BL [] 0 setdash 2 copy moveto
	2 copy vpt 0 90 arc closepath fill
	vpt 0 360 arc closepath} bind def
/C2 {BL [] 0 setdash 2 copy moveto
	2 copy vpt 90 180 arc closepath fill
	vpt 0 360 arc closepath} bind def
/C3 {BL [] 0 setdash 2 copy moveto
	2 copy vpt 0 180 arc closepath fill
	vpt 0 360 arc closepath} bind def
/C4 {BL [] 0 setdash 2 copy moveto
	2 copy vpt 180 270 arc closepath fill
	vpt 0 360 arc closepath} bind def
/C5 {BL [] 0 setdash 2 copy moveto
	2 copy vpt 0 90 arc
	2 copy moveto
	2 copy vpt 180 270 arc closepath fill
	vpt 0 360 arc} bind def
/C6 {BL [] 0 setdash 2 copy moveto
	2 copy vpt 90 270 arc closepath fill
	vpt 0 360 arc closepath} bind def
/C7 {BL [] 0 setdash 2 copy moveto
	2 copy vpt 0 270 arc closepath fill
	vpt 0 360 arc closepath} bind def
/C8 {BL [] 0 setdash 2 copy moveto
	2 copy vpt 270 360 arc closepath fill
	vpt 0 360 arc closepath} bind def
/C9 {BL [] 0 setdash 2 copy moveto
	2 copy vpt 270 450 arc closepath fill
	vpt 0 360 arc closepath} bind def
/C10 {BL [] 0 setdash 2 copy 2 copy moveto vpt 270 360 arc closepath fill
	2 copy moveto
	2 copy vpt 90 180 arc closepath fill
	vpt 0 360 arc closepath} bind def
/C11 {BL [] 0 setdash 2 copy moveto
	2 copy vpt 0 180 arc closepath fill
	2 copy moveto
	2 copy vpt 270 360 arc closepath fill
	vpt 0 360 arc closepath} bind def
/C12 {BL [] 0 setdash 2 copy moveto
	2 copy vpt 180 360 arc closepath fill
	vpt 0 360 arc closepath} bind def
/C13 {BL [] 0 setdash 2 copy moveto
	2 copy vpt 0 90 arc closepath fill
	2 copy moveto
	2 copy vpt 180 360 arc closepath fill
	vpt 0 360 arc closepath} bind def
/C14 {BL [] 0 setdash 2 copy moveto
	2 copy vpt 90 360 arc closepath fill
	vpt 0 360 arc} bind def
/C15 {BL [] 0 setdash 2 copy vpt 0 360 arc closepath fill
	vpt 0 360 arc closepath} bind def
/Rec {newpath 4 2 roll moveto 1 index 0 rlineto 0 exch rlineto
	neg 0 rlineto closepath} bind def
/Square {dup Rec} bind def
/Bsquare {vpt sub exch vpt sub exch vpt2 Square} bind def
/S0 {BL [] 0 setdash 2 copy moveto 0 vpt rlineto BL Bsquare} bind def
/S1 {BL [] 0 setdash 2 copy vpt Square fill Bsquare} bind def
/S2 {BL [] 0 setdash 2 copy exch vpt sub exch vpt Square fill Bsquare} bind def
/S3 {BL [] 0 setdash 2 copy exch vpt sub exch vpt2 vpt Rec fill Bsquare} bind def
/S4 {BL [] 0 setdash 2 copy exch vpt sub exch vpt sub vpt Square fill Bsquare} bind def
/S5 {BL [] 0 setdash 2 copy 2 copy vpt Square fill
	exch vpt sub exch vpt sub vpt Square fill Bsquare} bind def
/S6 {BL [] 0 setdash 2 copy exch vpt sub exch vpt sub vpt vpt2 Rec fill Bsquare} bind def
/S7 {BL [] 0 setdash 2 copy exch vpt sub exch vpt sub vpt vpt2 Rec fill
	2 copy vpt Square fill Bsquare} bind def
/S8 {BL [] 0 setdash 2 copy vpt sub vpt Square fill Bsquare} bind def
/S9 {BL [] 0 setdash 2 copy vpt sub vpt vpt2 Rec fill Bsquare} bind def
/S10 {BL [] 0 setdash 2 copy vpt sub vpt Square fill 2 copy exch vpt sub exch vpt Square fill
	Bsquare} bind def
/S11 {BL [] 0 setdash 2 copy vpt sub vpt Square fill 2 copy exch vpt sub exch vpt2 vpt Rec fill
	Bsquare} bind def
/S12 {BL [] 0 setdash 2 copy exch vpt sub exch vpt sub vpt2 vpt Rec fill Bsquare} bind def
/S13 {BL [] 0 setdash 2 copy exch vpt sub exch vpt sub vpt2 vpt Rec fill
	2 copy vpt Square fill Bsquare} bind def
/S14 {BL [] 0 setdash 2 copy exch vpt sub exch vpt sub vpt2 vpt Rec fill
	2 copy exch vpt sub exch vpt Square fill Bsquare} bind def
/S15 {BL [] 0 setdash 2 copy Bsquare fill Bsquare} bind def
/D0 {gsave translate 45 rotate 0 0 S0 stroke grestore} bind def
/D1 {gsave translate 45 rotate 0 0 S1 stroke grestore} bind def
/D2 {gsave translate 45 rotate 0 0 S2 stroke grestore} bind def
/D3 {gsave translate 45 rotate 0 0 S3 stroke grestore} bind def
/D4 {gsave translate 45 rotate 0 0 S4 stroke grestore} bind def
/D5 {gsave translate 45 rotate 0 0 S5 stroke grestore} bind def
/D6 {gsave translate 45 rotate 0 0 S6 stroke grestore} bind def
/D7 {gsave translate 45 rotate 0 0 S7 stroke grestore} bind def
/D8 {gsave translate 45 rotate 0 0 S8 stroke grestore} bind def
/D9 {gsave translate 45 rotate 0 0 S9 stroke grestore} bind def
/D10 {gsave translate 45 rotate 0 0 S10 stroke grestore} bind def
/D11 {gsave translate 45 rotate 0 0 S11 stroke grestore} bind def
/D12 {gsave translate 45 rotate 0 0 S12 stroke grestore} bind def
/D13 {gsave translate 45 rotate 0 0 S13 stroke grestore} bind def
/D14 {gsave translate 45 rotate 0 0 S14 stroke grestore} bind def
/D15 {gsave translate 45 rotate 0 0 S15 stroke grestore} bind def
/DiaE {stroke [] 0 setdash vpt add M
  hpt neg vpt neg V hpt vpt neg V
  hpt vpt V hpt neg vpt V closepath stroke} def
/BoxE {stroke [] 0 setdash exch hpt sub exch vpt add M
  0 vpt2 neg V hpt2 0 V 0 vpt2 V
  hpt2 neg 0 V closepath stroke} def
/TriUE {stroke [] 0 setdash vpt 1.12 mul add M
  hpt neg vpt -1.62 mul V
  hpt 2 mul 0 V
  hpt neg vpt 1.62 mul V closepath stroke} def
/TriDE {stroke [] 0 setdash vpt 1.12 mul sub M
  hpt neg vpt 1.62 mul V
  hpt 2 mul 0 V
  hpt neg vpt -1.62 mul V closepath stroke} def
/PentE {stroke [] 0 setdash gsave
  translate 0 hpt M 4 {72 rotate 0 hpt L} repeat
  closepath stroke grestore} def
/CircE {stroke [] 0 setdash 
  hpt 0 360 arc stroke} def
/Opaque {gsave closepath 1 setgray fill grestore 0 setgray closepath} def
/DiaW {stroke [] 0 setdash vpt add M
  hpt neg vpt neg V hpt vpt neg V
  hpt vpt V hpt neg vpt V Opaque stroke} def
/BoxW {stroke [] 0 setdash exch hpt sub exch vpt add M
  0 vpt2 neg V hpt2 0 V 0 vpt2 V
  hpt2 neg 0 V Opaque stroke} def
/TriUW {stroke [] 0 setdash vpt 1.12 mul add M
  hpt neg vpt -1.62 mul V
  hpt 2 mul 0 V
  hpt neg vpt 1.62 mul V Opaque stroke} def
/TriDW {stroke [] 0 setdash vpt 1.12 mul sub M
  hpt neg vpt 1.62 mul V
  hpt 2 mul 0 V
  hpt neg vpt -1.62 mul V Opaque stroke} def
/PentW {stroke [] 0 setdash gsave
  translate 0 hpt M 4 {72 rotate 0 hpt L} repeat
  Opaque stroke grestore} def
/CircW {stroke [] 0 setdash 
  hpt 0 360 arc Opaque stroke} def
/BoxFill {gsave Rec 1 setgray fill grestore} def
/Density {
  /Fillden exch def
  currentrgbcolor
  /ColB exch def /ColG exch def /ColR exch def
  /ColR ColR Fillden mul Fillden sub 1 add def
  /ColG ColG Fillden mul Fillden sub 1 add def
  /ColB ColB Fillden mul Fillden sub 1 add def
  ColR ColG ColB setrgbcolor} def
/BoxColFill {gsave Rec PolyFill} def
/PolyFill {gsave Density fill grestore grestore} def
/h {rlineto rlineto rlineto gsave closepath fill grestore} bind def
%
% PostScript Level 1 Pattern Fill routine for rectangles
% Usage: x y w h s a XX PatternFill
%	x,y = lower left corner of box to be filled
%	w,h = width and height of box
%	  a = angle in degrees between lines and x-axis
%	 XX = 0/1 for no/yes cross-hatch
%
/PatternFill {gsave /PFa [ 9 2 roll ] def
  PFa 0 get PFa 2 get 2 div add PFa 1 get PFa 3 get 2 div add translate
  PFa 2 get -2 div PFa 3 get -2 div PFa 2 get PFa 3 get Rec
  TransparentPatterns {} {gsave 1 setgray fill grestore} ifelse
  clip
  currentlinewidth 0.5 mul setlinewidth
  /PFs PFa 2 get dup mul PFa 3 get dup mul add sqrt def
  0 0 M PFa 5 get rotate PFs -2 div dup translate
  0 1 PFs PFa 4 get div 1 add floor cvi
	{PFa 4 get mul 0 M 0 PFs V} for
  0 PFa 6 get ne {
	0 1 PFs PFa 4 get div 1 add floor cvi
	{PFa 4 get mul 0 2 1 roll M PFs 0 V} for
 } if
  stroke grestore} def
%
/languagelevel where
 {pop languagelevel} {1} ifelse
dup 2 lt
	{/InterpretLevel1 true def
	 /InterpretLevel3 false def}
	{/InterpretLevel1 Level1 def
	 2 gt
	    {/InterpretLevel3 Level3 def}
	    {/InterpretLevel3 false def}
	 ifelse }
 ifelse
%
% PostScript level 2 pattern fill definitions
%
/Level2PatternFill {
/Tile8x8 {/PaintType 2 /PatternType 1 /TilingType 1 /BBox [0 0 8 8] /XStep 8 /YStep 8}
	bind def
/KeepColor {currentrgbcolor [/Pattern /DeviceRGB] setcolorspace} bind def
<< Tile8x8
 /PaintProc {0.5 setlinewidth pop 0 0 M 8 8 L 0 8 M 8 0 L stroke} 
>> matrix makepattern
/Pat1 exch def
<< Tile8x8
 /PaintProc {0.5 setlinewidth pop 0 0 M 8 8 L 0 8 M 8 0 L stroke
	0 4 M 4 8 L 8 4 L 4 0 L 0 4 L stroke}
>> matrix makepattern
/Pat2 exch def
<< Tile8x8
 /PaintProc {0.5 setlinewidth pop 0 0 M 0 8 L
	8 8 L 8 0 L 0 0 L fill}
>> matrix makepattern
/Pat3 exch def
<< Tile8x8
 /PaintProc {0.5 setlinewidth pop -4 8 M 8 -4 L
	0 12 M 12 0 L stroke}
>> matrix makepattern
/Pat4 exch def
<< Tile8x8
 /PaintProc {0.5 setlinewidth pop -4 0 M 8 12 L
	0 -4 M 12 8 L stroke}
>> matrix makepattern
/Pat5 exch def
<< Tile8x8
 /PaintProc {0.5 setlinewidth pop -2 8 M 4 -4 L
	0 12 M 8 -4 L 4 12 M 10 0 L stroke}
>> matrix makepattern
/Pat6 exch def
<< Tile8x8
 /PaintProc {0.5 setlinewidth pop -2 0 M 4 12 L
	0 -4 M 8 12 L 4 -4 M 10 8 L stroke}
>> matrix makepattern
/Pat7 exch def
<< Tile8x8
 /PaintProc {0.5 setlinewidth pop 8 -2 M -4 4 L
	12 0 M -4 8 L 12 4 M 0 10 L stroke}
>> matrix makepattern
/Pat8 exch def
<< Tile8x8
 /PaintProc {0.5 setlinewidth pop 0 -2 M 12 4 L
	-4 0 M 12 8 L -4 4 M 8 10 L stroke}
>> matrix makepattern
/Pat9 exch def
/Pattern1 {PatternBgnd KeepColor Pat1 setpattern} bind def
/Pattern2 {PatternBgnd KeepColor Pat2 setpattern} bind def
/Pattern3 {PatternBgnd KeepColor Pat3 setpattern} bind def
/Pattern4 {PatternBgnd KeepColor Landscape {Pat5} {Pat4} ifelse setpattern} bind def
/Pattern5 {PatternBgnd KeepColor Landscape {Pat4} {Pat5} ifelse setpattern} bind def
/Pattern6 {PatternBgnd KeepColor Landscape {Pat9} {Pat6} ifelse setpattern} bind def
/Pattern7 {PatternBgnd KeepColor Landscape {Pat8} {Pat7} ifelse setpattern} bind def
} def
%
%
%End of PostScript Level 2 code
%
/PatternBgnd {
  TransparentPatterns {} {gsave 1 setgray fill grestore} ifelse
} def
%
% Substitute for Level 2 pattern fill codes with
% grayscale if Level 2 support is not selected.
%
/Level1PatternFill {
/Pattern1 {0.250 Density} bind def
/Pattern2 {0.500 Density} bind def
/Pattern3 {0.750 Density} bind def
/Pattern4 {0.125 Density} bind def
/Pattern5 {0.375 Density} bind def
/Pattern6 {0.625 Density} bind def
/Pattern7 {0.875 Density} bind def
} def
%
% Now test for support of Level 2 code
%
Level1 {Level1PatternFill} {Level2PatternFill} ifelse
%
/Symbol-Oblique /Symbol findfont [1 0 .167 1 0 0] makefont
dup length dict begin {1 index /FID eq {pop pop} {def} ifelse} forall
currentdict end definefont pop
%
/MFshow {
   { dup 5 get 3 ge
     { 5 get 3 eq {gsave} {grestore} ifelse }
     {dup dup 0 get findfont exch 1 get scalefont setfont
     [ currentpoint ] exch dup 2 get 0 exch R dup 5 get 2 ne {dup dup 6
     get exch 4 get {textshow} {stringwidth pop 0 R} ifelse }if dup 5 get 0 eq
     {dup 3 get {2 get neg 0 exch R pop} {pop aload pop M} ifelse} {dup 5
     get 1 eq {dup 2 get exch dup 3 get exch 6 get stringwidth pop -2 div
     dup 0 R} {dup 6 get stringwidth pop -2 div 0 R 6 get
     textshow 2 index {aload pop M neg 3 -1 roll neg R pop pop} {pop pop pop
     pop aload pop M} ifelse }ifelse }ifelse }
     ifelse }
   forall} def
/Gswidth {dup type /stringtype eq {stringwidth} {pop (n) stringwidth} ifelse} def
/MFwidth {0 exch { dup 5 get 3 ge { 5 get 3 eq { 0 } { pop } ifelse }
 {dup 3 get{dup dup 0 get findfont exch 1 get scalefont setfont
     6 get Gswidth pop add} {pop} ifelse} ifelse} forall} def
/MLshow { currentpoint stroke M
  0 exch R
  Blacktext {gsave 0 setgray MFshow grestore} {MFshow} ifelse } bind def
/MRshow { currentpoint stroke M
  exch dup MFwidth neg 3 -1 roll R
  Blacktext {gsave 0 setgray MFshow grestore} {MFshow} ifelse } bind def
/MCshow { currentpoint stroke M
  exch dup MFwidth -2 div 3 -1 roll R
  Blacktext {gsave 0 setgray MFshow grestore} {MFshow} ifelse } bind def
/XYsave    { [( ) 1 2 true false 3 ()] } bind def
/XYrestore { [( ) 1 2 true false 4 ()] } bind def
Level1 SuppressPDFMark or 
{} {
/SDict 10 dict def
systemdict /pdfmark known not {
  userdict /pdfmark systemdict /cleartomark get put
} if
SDict begin [
  /Title (Plots/Convergence_Ham_x_t0.eps)
  /Subject (gnuplot plot)
  /Creator (gnuplot 5.0 patchlevel 1)
  /Author (helvi)
%  /Producer (gnuplot)
%  /Keywords ()
  /CreationDate (Wed Jan 11 17:19:46 2017)
  /DOCINFO pdfmark
end
} ifelse
end
%
% Support for boxed text - Ethan A Merritt May 2005
%
/InitTextBox { userdict /TBy2 3 -1 roll put userdict /TBx2 3 -1 roll put
           userdict /TBy1 3 -1 roll put userdict /TBx1 3 -1 roll put
	   /Boxing true def } def
/ExtendTextBox { Boxing
    { gsave dup false charpath pathbbox
      dup TBy2 gt {userdict /TBy2 3 -1 roll put} {pop} ifelse
      dup TBx2 gt {userdict /TBx2 3 -1 roll put} {pop} ifelse
      dup TBy1 lt {userdict /TBy1 3 -1 roll put} {pop} ifelse
      dup TBx1 lt {userdict /TBx1 3 -1 roll put} {pop} ifelse
      grestore } if } def
/PopTextBox { newpath TBx1 TBxmargin sub TBy1 TBymargin sub M
               TBx1 TBxmargin sub TBy2 TBymargin add L
	       TBx2 TBxmargin add TBy2 TBymargin add L
	       TBx2 TBxmargin add TBy1 TBymargin sub L closepath } def
/DrawTextBox { PopTextBox stroke /Boxing false def} def
/FillTextBox { gsave PopTextBox 1 1 1 setrgbcolor fill grestore /Boxing false def} def
0 0 0 0 InitTextBox
/TBxmargin 20 def
/TBymargin 20 def
/Boxing false def
/textshow { ExtendTextBox Gshow } def
%
%%EndProlog
%%Page: 1 1
gnudict begin
gsave
doclip
50 50 translate
0.050 0.050 scale
0 setgray
newpath
(Helvetica) findfont 140 scalefont setfont
BackgroundColor 0 lt 3 1 roll 0 lt exch 0 lt or or not {BackgroundColor C 1.000 0 0 7200.00 5040.00 BoxColFill} if
/Helvetica findfont 140 scalefont setfont
/vshift -46 def
/Helvetica findfont 140 scalefont setfont
/Helvetica findfont 140 scalefont setfont
1.000 UL
LTb
LCb setrgbcolor
686 448 M
63 0 V
6198 0 R
-63 0 V
stroke
602 448 M
[ [(Helvetica) 140.0 0.0 true true 0 (10)]
[(Helvetica) 112.0 70.0 true true 0 (-10)]
] -60.7 MRshow
1.000 UL
LTb
LCb setrgbcolor
686 817 M
31 0 V
6230 0 R
-31 0 V
686 1185 M
63 0 V
6198 0 R
-63 0 V
stroke
602 1185 M
[ [(Helvetica) 140.0 0.0 true true 0 (10)]
[(Helvetica) 112.0 70.0 true true 0 (-8)]
] -60.7 MRshow
1.000 UL
LTb
LCb setrgbcolor
686 1554 M
31 0 V
6230 0 R
-31 0 V
686 1922 M
63 0 V
6198 0 R
-63 0 V
stroke
602 1922 M
[ [(Helvetica) 140.0 0.0 true true 0 (10)]
[(Helvetica) 112.0 70.0 true true 0 (-6)]
] -60.7 MRshow
1.000 UL
LTb
LCb setrgbcolor
686 2291 M
31 0 V
6230 0 R
-31 0 V
686 2660 M
63 0 V
6198 0 R
-63 0 V
stroke
602 2660 M
[ [(Helvetica) 140.0 0.0 true true 0 (10)]
[(Helvetica) 112.0 70.0 true true 0 (-4)]
] -60.7 MRshow
1.000 UL
LTb
LCb setrgbcolor
686 3028 M
31 0 V
6230 0 R
-31 0 V
686 3397 M
63 0 V
6198 0 R
-63 0 V
stroke
602 3397 M
[ [(Helvetica) 140.0 0.0 true true 0 (10)]
[(Helvetica) 112.0 70.0 true true 0 (-2)]
] -60.7 MRshow
1.000 UL
LTb
LCb setrgbcolor
686 3765 M
31 0 V
6230 0 R
-31 0 V
686 4134 M
63 0 V
6198 0 R
-63 0 V
stroke
602 4134 M
[ [(Helvetica) 140.0 0.0 true true 0 (10)]
[(Helvetica) 112.0 70.0 true true 0 (0)]
] -60.7 MRshow
1.000 UL
LTb
LCb setrgbcolor
686 4502 M
31 0 V
6230 0 R
-31 0 V
686 4871 M
63 0 V
6198 0 R
-63 0 V
stroke
602 4871 M
[ [(Helvetica) 140.0 0.0 true true 0 (10)]
[(Helvetica) 112.0 70.0 true true 0 (2)]
] -60.7 MRshow
1.000 UL
LTb
LCb setrgbcolor
686 448 M
0 63 V
0 4360 R
0 -63 V
stroke
686 308 M
[ [(Helvetica) 140.0 0.0 true true 0 (10)]
[(Helvetica) 112.0 70.0 true true 0 (-2)]
] -60.7 MCshow
1.000 UL
LTb
LCb setrgbcolor
1157 448 M
0 31 V
0 4392 R
0 -31 V
1433 448 M
0 31 V
0 4392 R
0 -31 V
1628 448 M
0 31 V
0 4392 R
0 -31 V
1780 448 M
0 31 V
0 4392 R
0 -31 V
1904 448 M
0 31 V
0 4392 R
0 -31 V
2009 448 M
0 31 V
0 4392 R
0 -31 V
2100 448 M
0 31 V
0 4392 R
0 -31 V
2180 448 M
0 31 V
0 4392 R
0 -31 V
2251 448 M
0 63 V
0 4360 R
0 -63 V
stroke
2251 308 M
[ [(Helvetica) 140.0 0.0 true true 0 (10)]
[(Helvetica) 112.0 70.0 true true 0 (-1)]
] -60.7 MCshow
1.000 UL
LTb
LCb setrgbcolor
2722 448 M
0 31 V
0 4392 R
0 -31 V
2998 448 M
0 31 V
0 4392 R
0 -31 V
3194 448 M
0 31 V
0 4392 R
0 -31 V
3345 448 M
0 31 V
0 4392 R
0 -31 V
3469 448 M
0 31 V
0 4392 R
0 -31 V
3574 448 M
0 31 V
0 4392 R
0 -31 V
3665 448 M
0 31 V
0 4392 R
0 -31 V
3745 448 M
0 31 V
0 4392 R
0 -31 V
3817 448 M
0 63 V
0 4360 R
0 -63 V
stroke
3817 308 M
[ [(Helvetica) 140.0 0.0 true true 0 (10)]
[(Helvetica) 112.0 70.0 true true 0 (0)]
] -60.7 MCshow
1.000 UL
LTb
LCb setrgbcolor
4288 448 M
0 31 V
0 4392 R
0 -31 V
4563 448 M
0 31 V
0 4392 R
0 -31 V
4759 448 M
0 31 V
0 4392 R
0 -31 V
4911 448 M
0 31 V
0 4392 R
0 -31 V
5035 448 M
0 31 V
0 4392 R
0 -31 V
5139 448 M
0 31 V
0 4392 R
0 -31 V
5230 448 M
0 31 V
0 4392 R
0 -31 V
5310 448 M
0 31 V
0 4392 R
0 -31 V
5382 448 M
0 63 V
0 4360 R
0 -63 V
stroke
5382 308 M
[ [(Helvetica) 140.0 0.0 true true 0 (10)]
[(Helvetica) 112.0 70.0 true true 0 (1)]
] -60.7 MCshow
1.000 UL
LTb
LCb setrgbcolor
5853 448 M
0 31 V
0 4392 R
0 -31 V
6129 448 M
0 31 V
0 4392 R
0 -31 V
6324 448 M
0 31 V
0 4392 R
0 -31 V
6476 448 M
0 31 V
0 4392 R
0 -31 V
6600 448 M
0 31 V
0 4392 R
0 -31 V
6705 448 M
0 31 V
0 4392 R
0 -31 V
6795 448 M
0 31 V
0 4392 R
0 -31 V
6875 448 M
0 31 V
0 4392 R
0 -31 V
6947 448 M
0 63 V
0 4360 R
0 -63 V
stroke
6947 308 M
[ [(Helvetica) 140.0 0.0 true true 0 (10)]
[(Helvetica) 112.0 70.0 true true 0 (2)]
] -60.7 MCshow
1.000 UL
LTb
LCb setrgbcolor
1.000 UL
LTb
LCb setrgbcolor
686 4871 N
686 448 L
6261 0 V
0 4423 V
-6261 0 V
Z stroke
1.000 UP
1.000 UL
LTb
LCb setrgbcolor
LCb setrgbcolor
112 2659 M
currentpoint gsave translate -270 rotate 0 0 moveto
[ [(Helvetica) 140.0 0.0 true true 0 (H)]
] -46.7 MCshow
grestore
LTb
LCb setrgbcolor
3816 98 M
[ [(Helvetica) 140.0 0.0 true true 0 (x)]
] -46.7 MCshow
LTb
% Begin plot #1
1.000 UL
LTb
0.58 0.00 0.83 C /Helvetica findfont 140 scalefont setfont
LCb setrgbcolor
6296 4738 M
("KQI_spin09_v1_dx1/FunctionsX/leanbssnmol-ham.x.xg::hc" u 1:\(abs\($2\)\)) Rshow
1.000 UL
LTb
0.58 0.00 0.83 C 6380 4738 M
399 0 V
686 3980 M
775 0 V
471 7 V
275 -525 V
196 -164 V
152 -456 V
124 234 V
104 37 V
91 -10 V
80 -27 V
72 -33 V
65 -38 V
59 -40 V
54 -40 V
51 -40 V
46 -40 V
44 -40 V
42 -39 V
38 -60 V
37 112 V
35 281 V
33 -31 V
32 -54 V
30 -37 V
29 -25 V
28 -30 V
26 -32 V
26 -31 V
25 -29 V
47 -58 V
44 -54 V
41 -53 V
39 -51 V
36 -49 V
35 -47 V
33 -73 V
32 45 V
30 336 V
29 1 V
28 -51 V
27 -89 V
25 -48 V
25 -12 V
24 -32 V
23 -40 V
22 -36 V
22 -34 V
41 -66 V
39 -65 V
37 -62 V
34 -60 V
34 -58 V
31 -26 V
30 420 V
29 22 V
28 -91 V
27 -260 V
25 -172 V
25 174 V
24 -19 V
23 -77 V
22 -50 V
22 -42 V
41 -91 V
39 -90 V
37 -90 V
35 -92 V
33 -95 V
31 -103 V
31 381 V
29 355 V
27 -32 V
27 0 V
26 -148 V
24 -98 V
24 15 V
23 -287 V
22 -296 V
22 256 V
21 -10 V
20 -33 V
39 -45 V
37 -45 V
35 -44 V
33 -44 V
32 366 V
30 173 V
0 -1508 V
% End plot #1
% Begin plot #2
stroke
LTb
0.00 0.62 0.45 C /Helvetica findfont 140 scalefont setfont
LCb setrgbcolor
6296 4598 M
("KQI_spin09_v1_dx075/FunctionsX/leanbssnmol-ham.x.xg::hc" u 1:\(abs\($2\)*3.16\)) Rshow
1.000 UL
LTb
0.00 0.62 0.45 C 6380 4598 M
399 0 V
686 3809 M
579 0 V
471 512 V
276 -408 V
195 -413 V
152 -143 V
124 -221 V
105 -185 V
91 153 V
80 25 V
71 -5 V
65 -16 V
59 -23 V
55 -26 V
50 -29 V
47 -30 V
44 -30 V
41 -31 V
39 -31 V
37 -30 V
34 -31 V
34 -30 V
31 -29 V
30 -30 V
29 -28 V
28 -42 V
27 60 V
25 310 V
25 15 V
24 -25 V
23 -45 V
22 -28 V
22 -18 V
21 -23 V
20 -25 V
20 -23 V
19 -23 V
37 -45 V
35 -43 V
33 -42 V
31 -40 V
31 -39 V
29 -135 V
27 326 V
27 169 V
26 -41 V
24 -70 V
24 -39 V
23 -16 V
23 -29 V
21 -34 V
21 -31 V
20 -29 V
39 -58 V
37 -56 V
35 -54 V
33 -52 V
32 -51 V
30 -50 V
29 -110 V
28 472 V
26 44 V
26 -76 V
25 -171 V
23 -80 V
23 46 V
23 -25 V
21 -55 V
21 -41 V
21 -37 V
38 -76 V
37 -73 V
35 -71 V
33 -69 V
32 -69 V
30 -67 V
29 273 V
28 333 V
26 -36 V
26 -126 V
25 -237 V
24 51 V
23 -387 V
22 138 V
22 -544 V
20 201 V
21 2 V
39 54 V
36 2 V
35 -16 V
33 -24 V
32 -29 V
30 -30 V
29 -32 V
28 -32 V
27 -33 V
25 -32 V
25 -32 V
24 -31 V
23 426 V
22 173 V
0 -1530 V
% End plot #2
% Begin plot #3
stroke
LTb
0.34 0.71 0.91 C /Helvetica findfont 140 scalefont setfont
LCb setrgbcolor
6296 4458 M
("KQI_spin09_v1_dx05/FunctionsX/leanbssnmol-ham.x.xg::hc" u 1:\(abs\($2\)*16\)) Rshow
1.000 UL
LTb
0.34 0.71 0.91 C 6380 4458 M
399 0 V
686 4177 M
303 0 V
472 230 V
275 203 V
196 -376 V
151 -651 V
124 -73 V
105 -98 V
91 -123 V
80 -182 V
72 -272 V
64 238 V
60 51 V
54 16 V
50 0 V
47 -6 V
44 -12 V
41 -15 V
39 -16 V
37 -18 V
35 -19 V
33 -20 V
32 -20 V
30 -20 V
29 -21 V
28 -21 V
26 -20 V
26 -21 V
25 -21 V
23 -20 V
23 -21 V
23 -20 V
21 -20 V
21 -20 V
21 -19 V
19 -20 V
19 -19 V
19 -44 V
18 116 V
18 294 V
17 19 V
17 -20 V
16 -38 V
16 -20 V
16 -11 V
15 -16 V
15 -18 V
15 -17 V
14 -16 V
28 -33 V
26 -31 V
26 -31 V
25 -30 V
24 -29 V
23 -29 V
22 -60 V
22 104 V
20 308 V
21 11 V
19 -33 V
20 -57 V
18 -29 V
18 -12 V
18 -22 V
17 -25 V
17 -23 V
16 -23 V
32 -44 V
30 -43 V
29 -41 V
28 -41 V
27 -39 V
25 -39 V
25 -38 V
24 -36 V
23 -36 V
22 -234 V
22 434 V
21 204 V
20 0 V
20 -67 V
19 -134 V
18 -52 V
19 26 V
17 -20 V
17 -40 V
17 -30 V
17 -28 V
31 -57 V
30 -55 V
29 -53 V
28 -53 V
27 -51 V
25 -50 V
25 -48 V
24 -48 V
23 -48 V
22 128 V
22 368 V
21 50 V
20 -5 V
20 -116 V
19 -414 V
stroke 4839 2166 M
19 129 V
18 -69 V
17 26 V
18 -118 V
16 -58 V
17 -37 V
31 -103 V
31 -120 V
29 -164 V
27 -863 V
27 766 V
26 64 V
24 19 V
24 2 V
23 -7 V
22 459 V
22 332 V
21 -38 V
20 -7 V
20 -161 V
19 -53 V
19 10 V
18 -226 V
18 -114 V
17 70 V
17 -572 V
16 528 V
32 366 V
30 173 V
0 -1952 V
% End plot #3
stroke
2.000 UL
LTb
LCb setrgbcolor
1.000 UL
LTb
LCb setrgbcolor
686 4871 N
686 448 L
6261 0 V
0 4423 V
-6261 0 V
Z stroke
1.000 UP
1.000 UL
LTb
LCb setrgbcolor
stroke
grestore
end
showpage
%%Trailer
%%DocumentFonts: Helvetica
