%!PS-Adobe-2.0 EPSF-2.0
%%Title: Plots/Ham_x_VarSpin.eps
%%Creator: gnuplot 5.0 patchlevel 1
%%CreationDate: Thu Jan 12 16:47:54 2017
%%DocumentFonts: (atend)
%%BoundingBox: 50 50 410 302
%%EndComments
%%BeginProlog
/gnudict 256 dict def
gnudict begin
%
% The following true/false flags may be edited by hand if desired.
% The unit line width and grayscale image gamma correction may also be changed.
%
/Color true def
/Blacktext false def
/Solid false def
/Dashlength 1 def
/Landscape false def
/Level1 false def
/Level3 false def
/Rounded false def
/ClipToBoundingBox false def
/SuppressPDFMark false def
/TransparentPatterns false def
/gnulinewidth 5.000 def
/userlinewidth gnulinewidth def
/Gamma 1.0 def
/BackgroundColor {-1.000 -1.000 -1.000} def
%
/vshift -46 def
/dl1 {
  10.0 Dashlength userlinewidth gnulinewidth div mul mul mul
  Rounded { currentlinewidth 0.75 mul sub dup 0 le { pop 0.01 } if } if
} def
/dl2 {
  10.0 Dashlength userlinewidth gnulinewidth div mul mul mul
  Rounded { currentlinewidth 0.75 mul add } if
} def
/hpt_ 31.5 def
/vpt_ 31.5 def
/hpt hpt_ def
/vpt vpt_ def
/doclip {
  ClipToBoundingBox {
    newpath 50 50 moveto 410 50 lineto 410 302 lineto 50 302 lineto closepath
    clip
  } if
} def
%
% Gnuplot Prolog Version 5.0 (Dec 2014)
%
%/SuppressPDFMark true def
%
/M {moveto} bind def
/L {lineto} bind def
/R {rmoveto} bind def
/V {rlineto} bind def
/N {newpath moveto} bind def
/Z {closepath} bind def
/C {setrgbcolor} bind def
/f {rlineto fill} bind def
/g {setgray} bind def
/Gshow {show} def   % May be redefined later in the file to support UTF-8
/vpt2 vpt 2 mul def
/hpt2 hpt 2 mul def
/Lshow {currentpoint stroke M 0 vshift R 
	Blacktext {gsave 0 setgray textshow grestore} {textshow} ifelse} def
/Rshow {currentpoint stroke M dup stringwidth pop neg vshift R
	Blacktext {gsave 0 setgray textshow grestore} {textshow} ifelse} def
/Cshow {currentpoint stroke M dup stringwidth pop -2 div vshift R 
	Blacktext {gsave 0 setgray textshow grestore} {textshow} ifelse} def
/UP {dup vpt_ mul /vpt exch def hpt_ mul /hpt exch def
  /hpt2 hpt 2 mul def /vpt2 vpt 2 mul def} def
/DL {Color {setrgbcolor Solid {pop []} if 0 setdash}
 {pop pop pop 0 setgray Solid {pop []} if 0 setdash} ifelse} def
/BL {stroke userlinewidth 2 mul setlinewidth
	Rounded {1 setlinejoin 1 setlinecap} if} def
/AL {stroke userlinewidth 2 div setlinewidth
	Rounded {1 setlinejoin 1 setlinecap} if} def
/UL {dup gnulinewidth mul /userlinewidth exch def
	dup 1 lt {pop 1} if 10 mul /udl exch def} def
/PL {stroke userlinewidth setlinewidth
	Rounded {1 setlinejoin 1 setlinecap} if} def
3.8 setmiterlimit
% Classic Line colors (version 5.0)
/LCw {1 1 1} def
/LCb {0 0 0} def
/LCa {0 0 0} def
/LC0 {1 0 0} def
/LC1 {0 1 0} def
/LC2 {0 0 1} def
/LC3 {1 0 1} def
/LC4 {0 1 1} def
/LC5 {1 1 0} def
/LC6 {0 0 0} def
/LC7 {1 0.3 0} def
/LC8 {0.5 0.5 0.5} def
% Default dash patterns (version 5.0)
/LTw {PL [] 1 setgray} def
/LTb {BL [] LCb DL} def
/LTa {AL [1 udl mul 2 udl mul] 0 setdash LCa setrgbcolor} def
/LT0 {PL [] LC0 DL} def
/LT1 {PL [2 dl1 3 dl2] LC1 DL} def
/LT2 {PL [1 dl1 1.5 dl2] LC2 DL} def
/LT3 {PL [6 dl1 2 dl2 1 dl1 2 dl2] LC3 DL} def
/LT4 {PL [1 dl1 2 dl2 6 dl1 2 dl2 1 dl1 2 dl2] LC4 DL} def
/LT5 {PL [4 dl1 2 dl2] LC5 DL} def
/LT6 {PL [1.5 dl1 1.5 dl2 1.5 dl1 1.5 dl2 1.5 dl1 6 dl2] LC6 DL} def
/LT7 {PL [3 dl1 3 dl2 1 dl1 3 dl2] LC7 DL} def
/LT8 {PL [2 dl1 2 dl2 2 dl1 6 dl2] LC8 DL} def
/SL {[] 0 setdash} def
/Pnt {stroke [] 0 setdash gsave 1 setlinecap M 0 0 V stroke grestore} def
/Dia {stroke [] 0 setdash 2 copy vpt add M
  hpt neg vpt neg V hpt vpt neg V
  hpt vpt V hpt neg vpt V closepath stroke
  Pnt} def
/Pls {stroke [] 0 setdash vpt sub M 0 vpt2 V
  currentpoint stroke M
  hpt neg vpt neg R hpt2 0 V stroke
 } def
/Box {stroke [] 0 setdash 2 copy exch hpt sub exch vpt add M
  0 vpt2 neg V hpt2 0 V 0 vpt2 V
  hpt2 neg 0 V closepath stroke
  Pnt} def
/Crs {stroke [] 0 setdash exch hpt sub exch vpt add M
  hpt2 vpt2 neg V currentpoint stroke M
  hpt2 neg 0 R hpt2 vpt2 V stroke} def
/TriU {stroke [] 0 setdash 2 copy vpt 1.12 mul add M
  hpt neg vpt -1.62 mul V
  hpt 2 mul 0 V
  hpt neg vpt 1.62 mul V closepath stroke
  Pnt} def
/Star {2 copy Pls Crs} def
/BoxF {stroke [] 0 setdash exch hpt sub exch vpt add M
  0 vpt2 neg V hpt2 0 V 0 vpt2 V
  hpt2 neg 0 V closepath fill} def
/TriUF {stroke [] 0 setdash vpt 1.12 mul add M
  hpt neg vpt -1.62 mul V
  hpt 2 mul 0 V
  hpt neg vpt 1.62 mul V closepath fill} def
/TriD {stroke [] 0 setdash 2 copy vpt 1.12 mul sub M
  hpt neg vpt 1.62 mul V
  hpt 2 mul 0 V
  hpt neg vpt -1.62 mul V closepath stroke
  Pnt} def
/TriDF {stroke [] 0 setdash vpt 1.12 mul sub M
  hpt neg vpt 1.62 mul V
  hpt 2 mul 0 V
  hpt neg vpt -1.62 mul V closepath fill} def
/DiaF {stroke [] 0 setdash vpt add M
  hpt neg vpt neg V hpt vpt neg V
  hpt vpt V hpt neg vpt V closepath fill} def
/Pent {stroke [] 0 setdash 2 copy gsave
  translate 0 hpt M 4 {72 rotate 0 hpt L} repeat
  closepath stroke grestore Pnt} def
/PentF {stroke [] 0 setdash gsave
  translate 0 hpt M 4 {72 rotate 0 hpt L} repeat
  closepath fill grestore} def
/Circle {stroke [] 0 setdash 2 copy
  hpt 0 360 arc stroke Pnt} def
/CircleF {stroke [] 0 setdash hpt 0 360 arc fill} def
/C0 {BL [] 0 setdash 2 copy moveto vpt 90 450 arc} bind def
/C1 {BL [] 0 setdash 2 copy moveto
	2 copy vpt 0 90 arc closepath fill
	vpt 0 360 arc closepath} bind def
/C2 {BL [] 0 setdash 2 copy moveto
	2 copy vpt 90 180 arc closepath fill
	vpt 0 360 arc closepath} bind def
/C3 {BL [] 0 setdash 2 copy moveto
	2 copy vpt 0 180 arc closepath fill
	vpt 0 360 arc closepath} bind def
/C4 {BL [] 0 setdash 2 copy moveto
	2 copy vpt 180 270 arc closepath fill
	vpt 0 360 arc closepath} bind def
/C5 {BL [] 0 setdash 2 copy moveto
	2 copy vpt 0 90 arc
	2 copy moveto
	2 copy vpt 180 270 arc closepath fill
	vpt 0 360 arc} bind def
/C6 {BL [] 0 setdash 2 copy moveto
	2 copy vpt 90 270 arc closepath fill
	vpt 0 360 arc closepath} bind def
/C7 {BL [] 0 setdash 2 copy moveto
	2 copy vpt 0 270 arc closepath fill
	vpt 0 360 arc closepath} bind def
/C8 {BL [] 0 setdash 2 copy moveto
	2 copy vpt 270 360 arc closepath fill
	vpt 0 360 arc closepath} bind def
/C9 {BL [] 0 setdash 2 copy moveto
	2 copy vpt 270 450 arc closepath fill
	vpt 0 360 arc closepath} bind def
/C10 {BL [] 0 setdash 2 copy 2 copy moveto vpt 270 360 arc closepath fill
	2 copy moveto
	2 copy vpt 90 180 arc closepath fill
	vpt 0 360 arc closepath} bind def
/C11 {BL [] 0 setdash 2 copy moveto
	2 copy vpt 0 180 arc closepath fill
	2 copy moveto
	2 copy vpt 270 360 arc closepath fill
	vpt 0 360 arc closepath} bind def
/C12 {BL [] 0 setdash 2 copy moveto
	2 copy vpt 180 360 arc closepath fill
	vpt 0 360 arc closepath} bind def
/C13 {BL [] 0 setdash 2 copy moveto
	2 copy vpt 0 90 arc closepath fill
	2 copy moveto
	2 copy vpt 180 360 arc closepath fill
	vpt 0 360 arc closepath} bind def
/C14 {BL [] 0 setdash 2 copy moveto
	2 copy vpt 90 360 arc closepath fill
	vpt 0 360 arc} bind def
/C15 {BL [] 0 setdash 2 copy vpt 0 360 arc closepath fill
	vpt 0 360 arc closepath} bind def
/Rec {newpath 4 2 roll moveto 1 index 0 rlineto 0 exch rlineto
	neg 0 rlineto closepath} bind def
/Square {dup Rec} bind def
/Bsquare {vpt sub exch vpt sub exch vpt2 Square} bind def
/S0 {BL [] 0 setdash 2 copy moveto 0 vpt rlineto BL Bsquare} bind def
/S1 {BL [] 0 setdash 2 copy vpt Square fill Bsquare} bind def
/S2 {BL [] 0 setdash 2 copy exch vpt sub exch vpt Square fill Bsquare} bind def
/S3 {BL [] 0 setdash 2 copy exch vpt sub exch vpt2 vpt Rec fill Bsquare} bind def
/S4 {BL [] 0 setdash 2 copy exch vpt sub exch vpt sub vpt Square fill Bsquare} bind def
/S5 {BL [] 0 setdash 2 copy 2 copy vpt Square fill
	exch vpt sub exch vpt sub vpt Square fill Bsquare} bind def
/S6 {BL [] 0 setdash 2 copy exch vpt sub exch vpt sub vpt vpt2 Rec fill Bsquare} bind def
/S7 {BL [] 0 setdash 2 copy exch vpt sub exch vpt sub vpt vpt2 Rec fill
	2 copy vpt Square fill Bsquare} bind def
/S8 {BL [] 0 setdash 2 copy vpt sub vpt Square fill Bsquare} bind def
/S9 {BL [] 0 setdash 2 copy vpt sub vpt vpt2 Rec fill Bsquare} bind def
/S10 {BL [] 0 setdash 2 copy vpt sub vpt Square fill 2 copy exch vpt sub exch vpt Square fill
	Bsquare} bind def
/S11 {BL [] 0 setdash 2 copy vpt sub vpt Square fill 2 copy exch vpt sub exch vpt2 vpt Rec fill
	Bsquare} bind def
/S12 {BL [] 0 setdash 2 copy exch vpt sub exch vpt sub vpt2 vpt Rec fill Bsquare} bind def
/S13 {BL [] 0 setdash 2 copy exch vpt sub exch vpt sub vpt2 vpt Rec fill
	2 copy vpt Square fill Bsquare} bind def
/S14 {BL [] 0 setdash 2 copy exch vpt sub exch vpt sub vpt2 vpt Rec fill
	2 copy exch vpt sub exch vpt Square fill Bsquare} bind def
/S15 {BL [] 0 setdash 2 copy Bsquare fill Bsquare} bind def
/D0 {gsave translate 45 rotate 0 0 S0 stroke grestore} bind def
/D1 {gsave translate 45 rotate 0 0 S1 stroke grestore} bind def
/D2 {gsave translate 45 rotate 0 0 S2 stroke grestore} bind def
/D3 {gsave translate 45 rotate 0 0 S3 stroke grestore} bind def
/D4 {gsave translate 45 rotate 0 0 S4 stroke grestore} bind def
/D5 {gsave translate 45 rotate 0 0 S5 stroke grestore} bind def
/D6 {gsave translate 45 rotate 0 0 S6 stroke grestore} bind def
/D7 {gsave translate 45 rotate 0 0 S7 stroke grestore} bind def
/D8 {gsave translate 45 rotate 0 0 S8 stroke grestore} bind def
/D9 {gsave translate 45 rotate 0 0 S9 stroke grestore} bind def
/D10 {gsave translate 45 rotate 0 0 S10 stroke grestore} bind def
/D11 {gsave translate 45 rotate 0 0 S11 stroke grestore} bind def
/D12 {gsave translate 45 rotate 0 0 S12 stroke grestore} bind def
/D13 {gsave translate 45 rotate 0 0 S13 stroke grestore} bind def
/D14 {gsave translate 45 rotate 0 0 S14 stroke grestore} bind def
/D15 {gsave translate 45 rotate 0 0 S15 stroke grestore} bind def
/DiaE {stroke [] 0 setdash vpt add M
  hpt neg vpt neg V hpt vpt neg V
  hpt vpt V hpt neg vpt V closepath stroke} def
/BoxE {stroke [] 0 setdash exch hpt sub exch vpt add M
  0 vpt2 neg V hpt2 0 V 0 vpt2 V
  hpt2 neg 0 V closepath stroke} def
/TriUE {stroke [] 0 setdash vpt 1.12 mul add M
  hpt neg vpt -1.62 mul V
  hpt 2 mul 0 V
  hpt neg vpt 1.62 mul V closepath stroke} def
/TriDE {stroke [] 0 setdash vpt 1.12 mul sub M
  hpt neg vpt 1.62 mul V
  hpt 2 mul 0 V
  hpt neg vpt -1.62 mul V closepath stroke} def
/PentE {stroke [] 0 setdash gsave
  translate 0 hpt M 4 {72 rotate 0 hpt L} repeat
  closepath stroke grestore} def
/CircE {stroke [] 0 setdash 
  hpt 0 360 arc stroke} def
/Opaque {gsave closepath 1 setgray fill grestore 0 setgray closepath} def
/DiaW {stroke [] 0 setdash vpt add M
  hpt neg vpt neg V hpt vpt neg V
  hpt vpt V hpt neg vpt V Opaque stroke} def
/BoxW {stroke [] 0 setdash exch hpt sub exch vpt add M
  0 vpt2 neg V hpt2 0 V 0 vpt2 V
  hpt2 neg 0 V Opaque stroke} def
/TriUW {stroke [] 0 setdash vpt 1.12 mul add M
  hpt neg vpt -1.62 mul V
  hpt 2 mul 0 V
  hpt neg vpt 1.62 mul V Opaque stroke} def
/TriDW {stroke [] 0 setdash vpt 1.12 mul sub M
  hpt neg vpt 1.62 mul V
  hpt 2 mul 0 V
  hpt neg vpt -1.62 mul V Opaque stroke} def
/PentW {stroke [] 0 setdash gsave
  translate 0 hpt M 4 {72 rotate 0 hpt L} repeat
  Opaque stroke grestore} def
/CircW {stroke [] 0 setdash 
  hpt 0 360 arc Opaque stroke} def
/BoxFill {gsave Rec 1 setgray fill grestore} def
/Density {
  /Fillden exch def
  currentrgbcolor
  /ColB exch def /ColG exch def /ColR exch def
  /ColR ColR Fillden mul Fillden sub 1 add def
  /ColG ColG Fillden mul Fillden sub 1 add def
  /ColB ColB Fillden mul Fillden sub 1 add def
  ColR ColG ColB setrgbcolor} def
/BoxColFill {gsave Rec PolyFill} def
/PolyFill {gsave Density fill grestore grestore} def
/h {rlineto rlineto rlineto gsave closepath fill grestore} bind def
%
% PostScript Level 1 Pattern Fill routine for rectangles
% Usage: x y w h s a XX PatternFill
%	x,y = lower left corner of box to be filled
%	w,h = width and height of box
%	  a = angle in degrees between lines and x-axis
%	 XX = 0/1 for no/yes cross-hatch
%
/PatternFill {gsave /PFa [ 9 2 roll ] def
  PFa 0 get PFa 2 get 2 div add PFa 1 get PFa 3 get 2 div add translate
  PFa 2 get -2 div PFa 3 get -2 div PFa 2 get PFa 3 get Rec
  TransparentPatterns {} {gsave 1 setgray fill grestore} ifelse
  clip
  currentlinewidth 0.5 mul setlinewidth
  /PFs PFa 2 get dup mul PFa 3 get dup mul add sqrt def
  0 0 M PFa 5 get rotate PFs -2 div dup translate
  0 1 PFs PFa 4 get div 1 add floor cvi
	{PFa 4 get mul 0 M 0 PFs V} for
  0 PFa 6 get ne {
	0 1 PFs PFa 4 get div 1 add floor cvi
	{PFa 4 get mul 0 2 1 roll M PFs 0 V} for
 } if
  stroke grestore} def
%
/languagelevel where
 {pop languagelevel} {1} ifelse
dup 2 lt
	{/InterpretLevel1 true def
	 /InterpretLevel3 false def}
	{/InterpretLevel1 Level1 def
	 2 gt
	    {/InterpretLevel3 Level3 def}
	    {/InterpretLevel3 false def}
	 ifelse }
 ifelse
%
% PostScript level 2 pattern fill definitions
%
/Level2PatternFill {
/Tile8x8 {/PaintType 2 /PatternType 1 /TilingType 1 /BBox [0 0 8 8] /XStep 8 /YStep 8}
	bind def
/KeepColor {currentrgbcolor [/Pattern /DeviceRGB] setcolorspace} bind def
<< Tile8x8
 /PaintProc {0.5 setlinewidth pop 0 0 M 8 8 L 0 8 M 8 0 L stroke} 
>> matrix makepattern
/Pat1 exch def
<< Tile8x8
 /PaintProc {0.5 setlinewidth pop 0 0 M 8 8 L 0 8 M 8 0 L stroke
	0 4 M 4 8 L 8 4 L 4 0 L 0 4 L stroke}
>> matrix makepattern
/Pat2 exch def
<< Tile8x8
 /PaintProc {0.5 setlinewidth pop 0 0 M 0 8 L
	8 8 L 8 0 L 0 0 L fill}
>> matrix makepattern
/Pat3 exch def
<< Tile8x8
 /PaintProc {0.5 setlinewidth pop -4 8 M 8 -4 L
	0 12 M 12 0 L stroke}
>> matrix makepattern
/Pat4 exch def
<< Tile8x8
 /PaintProc {0.5 setlinewidth pop -4 0 M 8 12 L
	0 -4 M 12 8 L stroke}
>> matrix makepattern
/Pat5 exch def
<< Tile8x8
 /PaintProc {0.5 setlinewidth pop -2 8 M 4 -4 L
	0 12 M 8 -4 L 4 12 M 10 0 L stroke}
>> matrix makepattern
/Pat6 exch def
<< Tile8x8
 /PaintProc {0.5 setlinewidth pop -2 0 M 4 12 L
	0 -4 M 8 12 L 4 -4 M 10 8 L stroke}
>> matrix makepattern
/Pat7 exch def
<< Tile8x8
 /PaintProc {0.5 setlinewidth pop 8 -2 M -4 4 L
	12 0 M -4 8 L 12 4 M 0 10 L stroke}
>> matrix makepattern
/Pat8 exch def
<< Tile8x8
 /PaintProc {0.5 setlinewidth pop 0 -2 M 12 4 L
	-4 0 M 12 8 L -4 4 M 8 10 L stroke}
>> matrix makepattern
/Pat9 exch def
/Pattern1 {PatternBgnd KeepColor Pat1 setpattern} bind def
/Pattern2 {PatternBgnd KeepColor Pat2 setpattern} bind def
/Pattern3 {PatternBgnd KeepColor Pat3 setpattern} bind def
/Pattern4 {PatternBgnd KeepColor Landscape {Pat5} {Pat4} ifelse setpattern} bind def
/Pattern5 {PatternBgnd KeepColor Landscape {Pat4} {Pat5} ifelse setpattern} bind def
/Pattern6 {PatternBgnd KeepColor Landscape {Pat9} {Pat6} ifelse setpattern} bind def
/Pattern7 {PatternBgnd KeepColor Landscape {Pat8} {Pat7} ifelse setpattern} bind def
} def
%
%
%End of PostScript Level 2 code
%
/PatternBgnd {
  TransparentPatterns {} {gsave 1 setgray fill grestore} ifelse
} def
%
% Substitute for Level 2 pattern fill codes with
% grayscale if Level 2 support is not selected.
%
/Level1PatternFill {
/Pattern1 {0.250 Density} bind def
/Pattern2 {0.500 Density} bind def
/Pattern3 {0.750 Density} bind def
/Pattern4 {0.125 Density} bind def
/Pattern5 {0.375 Density} bind def
/Pattern6 {0.625 Density} bind def
/Pattern7 {0.875 Density} bind def
} def
%
% Now test for support of Level 2 code
%
Level1 {Level1PatternFill} {Level2PatternFill} ifelse
%
/Symbol-Oblique /Symbol findfont [1 0 .167 1 0 0] makefont
dup length dict begin {1 index /FID eq {pop pop} {def} ifelse} forall
currentdict end definefont pop
%
/MFshow {
   { dup 5 get 3 ge
     { 5 get 3 eq {gsave} {grestore} ifelse }
     {dup dup 0 get findfont exch 1 get scalefont setfont
     [ currentpoint ] exch dup 2 get 0 exch R dup 5 get 2 ne {dup dup 6
     get exch 4 get {textshow} {stringwidth pop 0 R} ifelse }if dup 5 get 0 eq
     {dup 3 get {2 get neg 0 exch R pop} {pop aload pop M} ifelse} {dup 5
     get 1 eq {dup 2 get exch dup 3 get exch 6 get stringwidth pop -2 div
     dup 0 R} {dup 6 get stringwidth pop -2 div 0 R 6 get
     textshow 2 index {aload pop M neg 3 -1 roll neg R pop pop} {pop pop pop
     pop aload pop M} ifelse }ifelse }ifelse }
     ifelse }
   forall} def
/Gswidth {dup type /stringtype eq {stringwidth} {pop (n) stringwidth} ifelse} def
/MFwidth {0 exch { dup 5 get 3 ge { 5 get 3 eq { 0 } { pop } ifelse }
 {dup 3 get{dup dup 0 get findfont exch 1 get scalefont setfont
     6 get Gswidth pop add} {pop} ifelse} ifelse} forall} def
/MLshow { currentpoint stroke M
  0 exch R
  Blacktext {gsave 0 setgray MFshow grestore} {MFshow} ifelse } bind def
/MRshow { currentpoint stroke M
  exch dup MFwidth neg 3 -1 roll R
  Blacktext {gsave 0 setgray MFshow grestore} {MFshow} ifelse } bind def
/MCshow { currentpoint stroke M
  exch dup MFwidth -2 div 3 -1 roll R
  Blacktext {gsave 0 setgray MFshow grestore} {MFshow} ifelse } bind def
/XYsave    { [( ) 1 2 true false 3 ()] } bind def
/XYrestore { [( ) 1 2 true false 4 ()] } bind def
Level1 SuppressPDFMark or 
{} {
/SDict 10 dict def
systemdict /pdfmark known not {
  userdict /pdfmark systemdict /cleartomark get put
} if
SDict begin [
  /Title (Plots/Ham_x_VarSpin.eps)
  /Subject (gnuplot plot)
  /Creator (gnuplot 5.0 patchlevel 1)
  /Author (helvi)
%  /Producer (gnuplot)
%  /Keywords ()
  /CreationDate (Thu Jan 12 16:47:54 2017)
  /DOCINFO pdfmark
end
} ifelse
end
%
% Support for boxed text - Ethan A Merritt May 2005
%
/InitTextBox { userdict /TBy2 3 -1 roll put userdict /TBx2 3 -1 roll put
           userdict /TBy1 3 -1 roll put userdict /TBx1 3 -1 roll put
	   /Boxing true def } def
/ExtendTextBox { Boxing
    { gsave dup false charpath pathbbox
      dup TBy2 gt {userdict /TBy2 3 -1 roll put} {pop} ifelse
      dup TBx2 gt {userdict /TBx2 3 -1 roll put} {pop} ifelse
      dup TBy1 lt {userdict /TBy1 3 -1 roll put} {pop} ifelse
      dup TBx1 lt {userdict /TBx1 3 -1 roll put} {pop} ifelse
      grestore } if } def
/PopTextBox { newpath TBx1 TBxmargin sub TBy1 TBymargin sub M
               TBx1 TBxmargin sub TBy2 TBymargin add L
	       TBx2 TBxmargin add TBy2 TBymargin add L
	       TBx2 TBxmargin add TBy1 TBymargin sub L closepath } def
/DrawTextBox { PopTextBox stroke /Boxing false def} def
/FillTextBox { gsave PopTextBox 1 1 1 setrgbcolor fill grestore /Boxing false def} def
0 0 0 0 InitTextBox
/TBxmargin 20 def
/TBymargin 20 def
/Boxing false def
/textshow { ExtendTextBox Gshow } def
%
%%EndProlog
%%Page: 1 1
gnudict begin
gsave
doclip
50 50 translate
0.050 0.050 scale
0 setgray
newpath
(Helvetica) findfont 140 scalefont setfont
BackgroundColor 0 lt 3 1 roll 0 lt exch 0 lt or or not {BackgroundColor C 1.000 0 0 7200.00 5040.00 BoxColFill} if
/Helvetica findfont 140 scalefont setfont
/vshift -46 def
/Helvetica findfont 140 scalefont setfont
/Helvetica findfont 140 scalefont setfont
1.000 UL
LTb
LCb setrgbcolor
686 448 M
63 0 V
6198 0 R
-63 0 V
stroke
602 448 M
[ [(Helvetica) 140.0 0.0 true true 0 (10)]
[(Helvetica) 112.0 70.0 true true 0 (-10)]
] -60.7 MRshow
1.000 UL
LTb
LCb setrgbcolor
686 850 M
31 0 V
6230 0 R
-31 0 V
686 1252 M
63 0 V
6198 0 R
-63 0 V
stroke
602 1252 M
[ [(Helvetica) 140.0 0.0 true true 0 (10)]
[(Helvetica) 112.0 70.0 true true 0 (-8)]
] -60.7 MRshow
1.000 UL
LTb
LCb setrgbcolor
686 1654 M
31 0 V
6230 0 R
-31 0 V
686 2056 M
63 0 V
6198 0 R
-63 0 V
stroke
602 2056 M
[ [(Helvetica) 140.0 0.0 true true 0 (10)]
[(Helvetica) 112.0 70.0 true true 0 (-6)]
] -60.7 MRshow
1.000 UL
LTb
LCb setrgbcolor
686 2458 M
31 0 V
6230 0 R
-31 0 V
686 2861 M
63 0 V
6198 0 R
-63 0 V
stroke
602 2861 M
[ [(Helvetica) 140.0 0.0 true true 0 (10)]
[(Helvetica) 112.0 70.0 true true 0 (-4)]
] -60.7 MRshow
1.000 UL
LTb
LCb setrgbcolor
686 3263 M
31 0 V
6230 0 R
-31 0 V
686 3665 M
63 0 V
6198 0 R
-63 0 V
stroke
602 3665 M
[ [(Helvetica) 140.0 0.0 true true 0 (10)]
[(Helvetica) 112.0 70.0 true true 0 (-2)]
] -60.7 MRshow
1.000 UL
LTb
LCb setrgbcolor
686 4067 M
31 0 V
6230 0 R
-31 0 V
686 4469 M
63 0 V
6198 0 R
-63 0 V
stroke
602 4469 M
[ [(Helvetica) 140.0 0.0 true true 0 (10)]
[(Helvetica) 112.0 70.0 true true 0 (0)]
] -60.7 MRshow
1.000 UL
LTb
LCb setrgbcolor
686 4871 M
31 0 V
6230 0 R
-31 0 V
686 448 M
0 63 V
0 4360 R
0 -63 V
stroke
686 308 M
[ [(Helvetica) 140.0 0.0 true true 0 (10)]
[(Helvetica) 112.0 70.0 true true 0 (-2)]
] -60.7 MCshow
1.000 UL
LTb
LCb setrgbcolor
1314 448 M
0 31 V
0 4392 R
0 -31 V
1682 448 M
0 31 V
0 4392 R
0 -31 V
1942 448 M
0 31 V
0 4392 R
0 -31 V
2145 448 M
0 31 V
0 4392 R
0 -31 V
2310 448 M
0 31 V
0 4392 R
0 -31 V
2450 448 M
0 31 V
0 4392 R
0 -31 V
2571 448 M
0 31 V
0 4392 R
0 -31 V
2678 448 M
0 31 V
0 4392 R
0 -31 V
2773 448 M
0 63 V
0 4360 R
0 -63 V
stroke
2773 308 M
[ [(Helvetica) 140.0 0.0 true true 0 (10)]
[(Helvetica) 112.0 70.0 true true 0 (-1)]
] -60.7 MCshow
1.000 UL
LTb
LCb setrgbcolor
3401 448 M
0 31 V
0 4392 R
0 -31 V
3769 448 M
0 31 V
0 4392 R
0 -31 V
4029 448 M
0 31 V
0 4392 R
0 -31 V
4232 448 M
0 31 V
0 4392 R
0 -31 V
4397 448 M
0 31 V
0 4392 R
0 -31 V
4537 448 M
0 31 V
0 4392 R
0 -31 V
4658 448 M
0 31 V
0 4392 R
0 -31 V
4765 448 M
0 31 V
0 4392 R
0 -31 V
4860 448 M
0 63 V
0 4360 R
0 -63 V
stroke
4860 308 M
[ [(Helvetica) 140.0 0.0 true true 0 (10)]
[(Helvetica) 112.0 70.0 true true 0 (0)]
] -60.7 MCshow
1.000 UL
LTb
LCb setrgbcolor
5488 448 M
0 31 V
0 4392 R
0 -31 V
5856 448 M
0 31 V
0 4392 R
0 -31 V
6116 448 M
0 31 V
0 4392 R
0 -31 V
6319 448 M
0 31 V
0 4392 R
0 -31 V
6484 448 M
0 31 V
0 4392 R
0 -31 V
6624 448 M
0 31 V
0 4392 R
0 -31 V
6745 448 M
0 31 V
0 4392 R
0 -31 V
6852 448 M
0 31 V
0 4392 R
0 -31 V
6947 448 M
0 63 V
0 4360 R
0 -63 V
stroke
6947 308 M
[ [(Helvetica) 140.0 0.0 true true 0 (10)]
[(Helvetica) 112.0 70.0 true true 0 (1)]
] -60.7 MCshow
1.000 UL
LTb
LCb setrgbcolor
1.000 UL
LTb
LCb setrgbcolor
686 4871 N
686 448 L
6261 0 V
0 4423 V
-6261 0 V
Z stroke
1.000 UP
1.000 UL
LTb
LCb setrgbcolor
LCb setrgbcolor
112 2659 M
currentpoint gsave translate -270 rotate 0 0 moveto
[ [(Helvetica) 140.0 0.0 true true 0 (H)]
] -46.7 MCshow
grestore
LTb
LCb setrgbcolor
3816 98 M
[ [(Helvetica) 140.0 0.0 true true 0 (x)]
] -46.7 MCshow
LTb
% Begin plot #1
1.000 UL
LTb
0.58 0.00 0.83 C /Helvetica findfont 140 scalefont setfont
LCb setrgbcolor
6296 4738 M
("KQI_spin09_v1_dx05/FunctionsX/leanbssnmol-ham.x.xg::hc" u 1:\(abs\($2\)\)) Rshow
1.000 UL
LTb
0.58 0.00 0.83 C 6380 4738 M
399 0 V
686 4032 M
405 0 V
628 250 V
367 222 V
261 -410 V
202 -710 V
166 -80 V
139 -107 V
121 -134 V
107 -198 V
96 -298 V
86 261 V
79 55 V
72 17 V
67 1 V
63 -7 V
59 -13 V
54 -16 V
52 -18 V
49 -20 V
47 -20 V
44 -22 V
42 -22 V
40 -22 V
39 -22 V
37 -23 V
36 -23 V
34 -22 V
33 -23 V
32 -22 V
30 -22 V
30 -22 V
29 -22 V
28 -22 V
27 -21 V
26 -22 V
26 -21 V
24 -47 V
25 126 V
23 320 V
23 21 V
22 -22 V
22 -41 V
22 -22 V
20 -12 V
21 -17 V
20 -20 V
19 -18 V
19 -18 V
37 -35 V
36 -35 V
34 -33 V
33 -33 V
32 -32 V
31 -31 V
29 -65 V
29 113 V
28 335 V
27 12 V
26 -36 V
26 -61 V
25 -32 V
24 -13 V
23 -24 V
23 -28 V
23 -25 V
21 -24 V
43 -49 V
40 -46 V
39 -46 V
37 -44 V
35 -43 V
34 -42 V
33 -41 V
32 -40 V
31 -40 V
29 -254 V
29 473 V
28 223 V
27 0 V
26 -74 V
26 -146 V
25 -57 V
24 29 V
24 -22 V
23 -43 V
22 -34 V
22 -30 V
42 -62 V
40 -60 V
39 -58 V
37 -57 V
35 -56 V
35 -54 V
32 -54 V
32 -52 V
31 -52 V
30 140 V
28 401 V
28 55 V
27 -6 V
27 -126 V
25 -452 V
stroke 6223 1838 M
25 140 V
24 -75 V
24 29 V
23 -129 V
22 -63 V
22 -40 V
42 -113 V
40 -131 V
39 -178 V
33 -830 V
9 0 R
31 724 V
34 69 V
33 21 V
32 2 V
30 -7 V
30 500 V
29 362 V
28 -40 V
27 -9 V
26 -175 V
26 -58 V
24 10 V
25 -246 V
23 -124 V
23 76 V
% End plot #1
% Begin plot #2
stroke
LTb
0.00 0.62 0.45 C /Helvetica findfont 140 scalefont setfont
LCb setrgbcolor
6296 4598 M
("KQI_spin0975_v1_dx05/FunctionsX/leanbssnmol-ham.x.xg::hc" u 1:\(abs\($2\)\)) Rshow
1.000 UL
LTb
0.00 0.62 0.45 C 6380 4598 M
399 0 V
686 4115 M
405 0 V
628 236 V
367 17 V
261 -408 V
202 -574 V
166 -773 V
139 633 V
121 59 V
107 11 V
96 -6 V
86 -16 V
79 -20 V
72 -24 V
67 -26 V
63 -27 V
59 -28 V
54 -29 V
52 -29 V
49 -30 V
47 -29 V
44 -30 V
42 -29 V
40 -29 V
39 -30 V
37 -29 V
36 -28 V
34 -29 V
33 -28 V
32 -28 V
30 -27 V
30 -28 V
29 -26 V
28 -27 V
27 -26 V
26 -26 V
26 -25 V
24 -86 V
25 238 V
23 255 V
23 17 V
22 -35 V
22 -62 V
22 -27 V
20 -7 V
21 -20 V
20 -24 V
19 -21 V
19 -20 V
37 -41 V
36 -39 V
34 -39 V
33 -37 V
32 -35 V
31 -35 V
29 -121 V
29 281 V
28 243 V
27 11 V
26 -52 V
26 -94 V
25 -39 V
24 1 V
23 -23 V
23 -32 V
23 -27 V
21 -26 V
43 -51 V
40 -49 V
39 -48 V
37 -46 V
35 -45 V
34 -44 V
33 -42 V
32 -42 V
31 -40 V
29 -458 V
29 754 V
28 177 V
27 1 V
26 -87 V
26 -203 V
25 -78 V
24 76 V
24 -17 V
23 -50 V
22 -35 V
22 -31 V
42 -64 V
40 -62 V
39 -61 V
37 -59 V
35 -58 V
35 -57 V
32 -56 V
32 -56 V
31 -55 V
30 230 V
28 375 V
28 54 V
27 -6 V
27 -136 V
25 -286 V
stroke 6223 2056 M
25 62 V
24 -279 V
24 86 V
23 -221 V
22 -121 V
22 -51 V
42 -392 V
40 206 V
39 81 V
37 21 V
36 -1 V
34 -11 V
33 -17 V
32 -20 V
30 -23 V
30 437 V
29 347 V
28 -19 V
27 -9 V
26 -178 V
26 -48 V
24 8 V
25 -241 V
23 -123 V
23 70 V
% End plot #2
% Begin plot #3
stroke
LTb
0.34 0.71 0.91 C /Helvetica findfont 140 scalefont setfont
LCb setrgbcolor
6296 4458 M
("KQI_spin099_v1_dx05/FunctionsX/leanbssnmol-ham.x.xg::hc" u 1:\(abs\($2\)\)) Rshow
1.000 UL
LTb
0.34 0.71 0.91 C 6380 4458 M
399 0 V
686 4095 M
405 0 V
628 412 V
367 -310 V
261 -371 V
202 -853 V
166 420 V
139 58 V
121 8 V
107 -9 V
96 -19 V
86 -25 V
79 -27 V
72 -30 V
67 -30 V
63 -31 V
59 -31 V
54 -31 V
52 -31 V
49 -31 V
47 -31 V
44 -30 V
42 -31 V
40 -31 V
39 -31 V
37 -31 V
36 -31 V
34 -31 V
33 -30 V
32 -30 V
30 -30 V
30 -30 V
29 -29 V
28 -29 V
27 -28 V
26 -28 V
26 -27 V
24 -116 V
25 302 V
23 232 V
23 15 V
22 -44 V
22 -78 V
22 -31 V
20 -1 V
21 -20 V
20 -26 V
19 -23 V
19 -21 V
37 -43 V
36 -41 V
34 -40 V
33 -38 V
32 -37 V
31 -36 V
29 -152 V
29 344 V
28 222 V
27 11 V
26 -59 V
26 -111 V
25 -42 V
24 10 V
23 -22 V
23 -34 V
23 -28 V
21 -26 V
43 -51 V
40 -50 V
39 -48 V
37 -47 V
35 -46 V
34 -44 V
33 -43 V
32 -42 V
31 -41 V
29 -266 V
29 590 V
28 164 V
27 1 V
26 -92 V
26 -232 V
25 -92 V
24 106 V
24 -15 V
23 -54 V
22 -35 V
22 -31 V
42 -65 V
40 -63 V
39 -62 V
37 -61 V
35 -59 V
35 -59 V
32 -58 V
32 -57 V
31 -57 V
30 271 V
28 367 V
28 52 V
27 -7 V
27 -140 V
25 -247 V
stroke 6223 2110 M
25 49 V
24 -389 V
24 139 V
23 -333 V
22 -478 V
22 -127 V
42 492 V
40 57 V
39 11 V
37 -6 V
36 -15 V
34 -20 V
33 -24 V
32 -25 V
30 -26 V
30 417 V
29 342 V
28 -13 V
27 -10 V
26 -180 V
26 -43 V
24 8 V
25 -238 V
23 -120 V
23 66 V
% End plot #3
stroke
2.000 UL
LTb
LCb setrgbcolor
1.000 UL
LTb
LCb setrgbcolor
686 4871 N
686 448 L
6261 0 V
0 4423 V
-6261 0 V
Z stroke
1.000 UP
1.000 UL
LTb
LCb setrgbcolor
stroke
grestore
end
showpage
%%Trailer
%%DocumentFonts: Helvetica
