0.000000 -3.960332636568722353e-08 5.72758824836806901e-07
0.200000 -3.951274811706613095e-08 5.745524012734026419e-07
0.400000 -3.942206018319422102e-08 5.763365302040050764e-07
0.600000 -3.933125539496793803e-08 5.781110178404393944e-07
0.800000 -3.924032628733082475e-08 5.798756655992718658e-07
1.000000 -3.914926520068335098e-08 5.81630270139280249e-07
1.200000 -3.905806422343155384e-08 5.833746230898884631e-07
1.400000 -3.896671513951760843e-08 5.851085109966712414e-07
1.600000 -3.887520947247225769e-08 5.868317151392571881e-07
1.800000 -3.878353840532371143e-08 5.885440113309058544e-07
2.000000 -3.869169289607210608e-08 5.902451699068699288e-07
2.200000 -3.859966355889125455e-08 5.919349553842967919e-07
2.400000 -3.850744072039832867e-08 5.936131264437986678e-07
2.600000 -3.841501428539318795e-08 5.952794356457828781e-07
2.800000 -3.832237388399372002e-08 5.969336293612561318e-07
3.000000 -3.822950870808027685e-08 5.985754474764316327e-07
3.200000 -3.81364076764386312e-08 6.002046232802691492e-07
3.400000 -3.804305925771614766e-08 6.018208832562694463e-07
3.600000 -3.794945155926434218e-08 6.034239468475437677e-07
3.800000 -3.785557220090294796e-08 6.050135262888300507e-07
4.000000 -3.776140839058052471e-08 6.06589326333099807e-07
4.200000 -3.766694692391830495e-08 6.081510441171948745e-07
4.400000 -3.757217409198380405e-08 6.096983688321450423e-07
4.600000 -3.747707570687666808e-08 6.11230981554586153e-07
4.800000 -3.738163713338181854e-08 6.12748554926111652e-07
5.000000 -3.728584316773804711e-08 6.142507530320682072e-07
5.200000 -3.718967802781050116e-08 6.157372309828338656e-07
5.400000 -3.709312534677993752e-08 6.17207634763770402e-07
5.600000 -3.699616826290138124e-08 6.186616008496116757e-07
5.800000 -3.689878921798784714e-08 6.200987559603988153e-07
6.000000 -3.680097012141511563e-08 6.215187167373049347e-07
6.200000 -3.670269212922856322e-08 6.229210894968177008e-07
6.400000 -3.660393578655717432e-08 6.243054698109504404e-07
6.600000 -3.650468083035843422e-08 6.256714422140451794e-07
6.800000 -3.640490636508271187e-08 6.270185798758890761e-07
7.000000 -3.630459068354095876e-08 6.283464441932531111e-07
7.200000 -3.620371122571529664e-08 6.296545844635684089e-07
7.400000 -3.610224469330786883e-08 6.309425374250664399e-07
7.600000 -3.600016682001514865e-08 6.322098269570955865e-07
7.800000 -3.589745257835138878e-08 6.334559635301155463e-07
8.000000 -3.579407587370593885e-08 6.346804439219072006e-07
8.200000 -3.569000972729448073e-08 6.358827506928208816e-07
8.400000 -3.558522609169448291e-08 6.370623516948603217e-07
8.600000 -3.5479695895751347e-08 6.38218699628886334e-07
8.800000 -3.53733889413499863e-08 6.393512315342300157e-07
9.000000 -3.526627385812322634e-08 6.404593682824487902e-07
9.200000 -3.515831816046175446e-08 6.415425140219525265e-07
9.400000 -3.504948811768981008e-08 6.426000556530910803e-07
9.600000 -3.493974869757698102e-08 6.436313621921381125e-07
9.800000 -3.48290635216033296e-08 6.446357842118015812e-07
10.000000 -3.471739477617147351e-08 6.456126532363043623e-07
10.200000 -3.46047031965136149e-08 6.465612810585679099e-07
10.400000 -3.449094796390887663e-08 6.474809590318315077e-07
10.600000 -3.437608673387904389e-08 6.483709574631707502e-07
10.800000 -3.426007547750484274e-08 6.492305248386630365e-07
11.000000 -3.41428685033811135e-08 6.500588870661653151e-07
11.200000 -3.402441821761102441e-08 6.508552467630978645e-07
11.400000 -3.390467521181693073e-08 6.516187822710839842e-07
11.600000 -3.37835881539303919e-08 6.523486469838651378e-07
11.800000 -3.366110355350486538e-08 6.530439683405829193e-07
12.000000 -3.353716586123808762e-08 6.537038470405777114e-07
12.200000 -3.3411717280533852e-08 6.543273560183664811e-07
12.400000 -3.328469770708256643e-08 6.549135394735262046e-07
12.600000 -3.315604462693503914e-08 6.554614118004697503e-07
12.800000 -3.302569293850497671e-08 6.559699565922892866e-07
13.000000 -3.289357493579141202e-08 6.564381254994063856e-07
13.200000 -3.275962012989685823e-08 6.568648370395679169e-07
13.400000 -3.26237551039585104e-08 6.57248975420240706e-07
13.600000 -3.248590351441902651e-08 6.575893892158933537e-07
13.800000 -3.234598575146613977e-08 6.578848901857035191e-07
14.000000 -3.220391898620871447e-08 6.58134251851847846e-07
14.200000 -3.205961687271752126e-08 6.583362080754772661e-07
14.400000 -3.1912989494012057e-08 6.584894516021462817e-07
14.600000 -3.176394320345298358e-08 6.58592632471421681e-07
14.800000 -3.161238028589948148e-08 6.586443564793969304e-07
15.000000 -3.145819895243095072e-08 6.586431834683950114e-07
15.200000 -3.130129308037940421e-08 6.585876255864553681e-07
15.400000 -3.114155200017671688e-08 6.584761454580021457e-07
15.600000 -3.097886034234187585e-08 6.58307154310224463e-07
15.800000 -3.081309775382099533e-08 6.580790099883185514e-07
16.000000 -3.064413864214715589e-08 6.577900148867479536e-07
16.200000 -3.04718519185258817e-08 6.57438413815522213e-07
16.400000 -3.029610087282629252e-08 6.570223917702278452e-07
16.600000 -3.011674270906789797e-08 6.565400715174862765e-07
16.800000 -2.993362848508179527e-08 6.559895111820349104e-07
17.000000 -2.97466025505719919e-08 6.553687016539426525e-07
17.200000 -2.955550240672057145e-08 6.546755640004728945e-07
17.400000 -2.936015827453952834e-08 6.53907946552533062e-07
17.600000 -2.916039279511411266e-08 6.530636221695388416e-07
17.800000 -2.895602060991269883e-08 6.521402849963556307e-07
18.000000 -2.874684796472208735e-08 6.511355473656283222e-07
18.200000 -2.853267231783382332e-08 6.500469364003201887e-07
18.400000 -2.831328193435927179e-08 6.488718906073358976e-07
18.600000 -2.808845532267015623e-08 6.476077561948950015e-07
18.800000 -2.785796080467375024e-08 6.462517832831644534e-07
19.000000 -2.7621555978931933e-08 6.448011218465836957e-07
19.200000 -2.737898719980378853e-08 6.432528175202305838e-07
19.400000 -2.712998896966696785e-08 6.416038073233603008e-07
19.600000 -2.687428340908941524e-08 6.398509149674833971e-07
19.800000 -2.661157945077386331e-08 6.379908461791943818e-07
20.000000 -2.634157234336720964e-08 6.360201834745747485e-07
20.200000 -2.606394274126297933e-08 6.339353810603045082e-07
20.400000 -2.577835611561912903e-08 6.317327591805374053e-07
20.600000 -2.548446166586178135e-08 6.294084983782143725e-07
20.800000 -2.518189159449634912e-08 6.269586334929228445e-07
21.000000 -2.487025995453283362e-08 6.24379047199944371e-07
21.200000 -2.454916199487624048e-08 6.216654632248308011e-07
21.400000 -2.4218173068742429e-08 6.188134395191251601e-07
21.600000 -2.387684795739385284e-08 6.158183607406502658e-07
21.800000 -2.352472007411782866e-08 6.126754305923004906e-07
22.000000 -2.316130048784957665e-08 6.093796636219038352e-07
22.200000 -2.278607671946874391e-08 6.059258768185946059e-07
22.400000 -2.239851106784240963e-08 6.023086805240007077e-07
22.600000 -2.199803863618331049e-08 5.985224691226015058e-07
22.800000 -2.15840646971224362e-08 5.945614111066090306e-07
23.000000 -2.115596206200311824e-08 5.904194387440981039e-07
23.200000 -2.071306820132708241e-08 5.860902370742157979e-07
23.400000 -2.025468308791991881e-08 5.815672323538889924e-07
23.600000 -1.978006753868738857e-08 5.768435798992148703e-07
23.800000 -1.928844276866610981e-08 5.719121512043860968e-07
24.000000 -1.877899117561536681e-08 5.667655205489890392e-07
24.200000 -1.825085746035777448e-08 5.613959507531100799e-07
24.400000 -1.77031494203764341e-08 5.557953785081044689e-07
24.600000 -1.713493689116981617e-08 5.49955398710162817e-07
24.800000 -1.654524779262186972e-08 5.438672481099078008e-07
25.000000 -1.593306062892493166e-08 5.375217878035421288e-07
25.200000 -1.529729487630013159e-08 5.309094849339515127e-07
25.400000 -1.463680031796836453e-08 5.240203929459531035e-07
25.600000 -1.395034891496783109e-08 5.168441309177153725e-07
25.800000 -1.323663028581779744e-08 5.093698618995256831e-07
26.000000 -1.249425217298608634e-08 5.015862706182753439e-07
26.200000 -1.172174339246080287e-08 4.934815409130154079e-07
26.400000 -1.091755770145308686e-08 4.850433320181970976e-07
26.600000 -1.008007515815504948e-08 4.762587533346230465e-07
26.800000 -9.207600100638502741e-09 4.671143353173654649e-07
27.000000 -8.298356573390955056e-09 4.575959950185923188e-07
27.200000 -7.350483143602893481e-09 4.476889952734319907e-07
27.400000 -6.362027529323757681e-09 4.373778991905287505e-07
27.600000 -5.33093866131466547e-09 4.266465249240340813e-07
27.800000 -4.255050556180091633e-09 4.154779083012623491e-07
28.000000 -3.132052449035192364e-09 4.038542810415809248e-07
28.200000 -1.959443536050258958e-09 3.917570685044677438e-07
28.400000 -7.34480710312714793e-10 3.791669015494090827e-07
28.600000 5.458631426415266776e-10 3.660636261262065407e-07
28.800000 1.884907593492569623e-09 3.524262836326417644e-07
29.000000 3.286220677933770225e-09 3.382330333058618726e-07
29.200000 4.753518099606187742e-09 3.234609977308741074e-07
29.400000 6.290521708982719504e-09 3.08086035352712531e-07
29.600000 7.900810514994551005e-09 2.920824747411677851e-07
29.800000 9.587706560358300884e-09 2.754228746319977089e-07
30.000000 1.135423420605896117e-08 2.580778875351622488e-07
30.200000 1.320317855094634658e-08 2.40016294442427812e-07
30.400000 1.513725400145137447e-08 2.212052389989295038e-07
30.600000 1.715938184638133806e-08 2.016106284217132117e-07
30.800000 1.927306321336153799e-08 1.811976004223606812e-07
31.000000 2.148281337646760288e-08 1.599309004341259177e-07
31.200000 2.379459033658250174e-08 1.377749971079628362e-07
31.400000 2.621611182989135318e-08 1.146938048418217077e-07
31.600000 2.875693830398189117e-08 9.064998308141947931e-08
31.800000 3.14282240890279543e-08 6.560391940046590829e-08
32.000000 3.424208379843454422e-08 3.951259428283839042e-08
32.200000 3.72104800152215207e-08 1.232844004641334661e-08
32.400000 4.034321790284200827e-08 -1.600211649171517309e-08
32.600000 4.364386389647422358e-08 -4.554156765432585393e-08
32.800000 4.710127361787610814e-08 -7.63678761275110556e-08
33.000000 5.067358091748303275e-08 -1.08587425120170918e-07
33.200000 5.426241734408539356e-08 -1.423560357387816888e-07
33.400000 5.76798473291044461e-08 -1.779054757211534021e-07
33.600000 6.062073026524440751e-08 -2.155645908061254712e-07
33.800000 6.266856356447589155e-08 -2.557528679436575635e-07
34.000000 6.337867674924159446e-08 -2.989142533366898694e-07
34.200000 6.248868073852376688e-08 -3.453585663886492653e-07
34.400000 6.028768127157623078e-08 -3.949971481524505854e-07
34.600000 5.811926636383845424e-08 -4.470060340015031032e-07
34.800000 5.889563936441903867e-08 -4.99521449944268231e-07
35.000000 6.738034239489590036e-08 -5.495490080864640601e-07
35.200000 8.990242527735222979e-08 -5.933103500517128001e-07
35.400000 1.331667584700234921e-07 -6.272087172546950457e-07
35.600000 2.019947437181604022e-07 -6.494278462522000176e-07
35.800000 2.961985464808063793e-07 -6.618873919296015784e-07
36.000000 4.073084208568299933e-07 -6.719314612504329817e-07
36.200000 5.163773796333717886e-07 -6.928663793201140566e-07
36.400000 5.943342896429196555e-07 -7.424701338199757072e-07
36.600000 6.060920339890783732e-07 -8.390135583387667867e-07
36.800000 5.187056287873249462e-07 -9.951749281116979364e-07
37.000000 3.124215016994272717e-07 -1.21130333224289725e-06
37.200000 -8.13279919276879663e-09 -1.470396565373549224e-06
37.400000 -4.064667368859531893e-07 -1.737415798032924177e-06
37.600000 -8.142534765767388956e-07 -1.96478089567045756e-06
37.800000 -1.141104460245959574e-06 -2.104039039492317513e-06
38.000000 -1.293439186918601546e-06 -2.121231436896432138e-06
38.200000 -1.198402525294373369e-06 -2.011302589702068432e-06
38.400000 -8.261612330182365202e-07 -1.806059661707126029e-06
38.600000 -2.033157089234568574e-07 -1.571424879025260047e-06
38.800000 5.877803568349993693e-07 -1.392976088833109758e-06
39.000000 1.424719362859267098e-06 -1.35302847612292075e-06
39.200000 2.171661248416435205e-06 -1.506103944574101548e-06
39.400000 2.709003904642283483e-06 -1.860944501515312195e-06
39.600000 2.957321029054761092e-06 -2.375483783617797137e-06
39.800000 2.889185370307137838e-06 -2.966921490484660129e-06
40.000000 2.52719885091066035e-06 -3.533884456071112758e-06
40.200000 1.931533462958799471e-06 -3.983625225464714238e-06
40.400000 1.183441294900349062e-06 -4.255845258160105783e-06
40.600000 3.712484250100386605e-07 -4.336419315541737258e-06
40.800000 -4.175108138288504012e-07 -4.258152888353889033e-06
41.000000 -1.098432226815795164e-06 -4.089992733636468622e-06
41.200000 -1.591166573028228521e-06 -3.919129324743567401e-06
41.400000 -1.823960334185209395e-06 -3.83133240215405885e-06
41.600000 -1.744612413250811135e-06 -3.893917940939752947e-06
41.800000 -1.336272945309448694e-06 -4.143974385948342522e-06
42.000000 -6.32134376805811376e-07 -4.582926928223189844e-06
42.200000 2.789744867232108486e-07 -5.177652676375290081e-06
42.400000 1.262301612309022281e-06 -5.86798773112139596e-06
42.600000 2.163150464489154942e-06 -6.579916710219214817e-06
42.800000 2.843264582730872128e-06 -7.242522227118554923e-06
43.000000 3.216463140988303378e-06 -7.805147034321693129e-06
43.200000 3.271120460559750294e-06 -8.25001663361615663e-06
43.400000 3.071018272030897762e-06 -8.595943662428688807e-06
43.600000 2.733662395210140656e-06 -8.891088678003339108e-06
43.800000 2.393355900982471334e-06 -9.196500516444603069e-06
44.000000 2.161778233859967056e-06 -9.565788632128951677e-06
44.200000 2.099380005865350843e-06 -1.002816564687362139e-05
44.400000 2.206437757730093927e-06 -1.058115327555349159e-05
44.600000 2.435018317942999913e-06 -1.119569066922997553e-05
44.800000 2.715483629841641473e-06 -1.183158389962997533e-05
45.000000 2.986489278344953299e-06 -1.2457173453805719e-05
45.200000 3.217294237313829356e-06 -1.306547905496691874e-05
45.400000 3.415300763408717172e-06 -1.368055114208136423e-05
45.600000 3.618033494205613517e-06 -1.435168037751599683e-05
45.800000 3.87463725604667551e-06 -1.513779647445149382e-05
46.000000 4.225183599502576112e-06 -1.60879699981177204e-05
46.200000 4.685804149199004257e-06 -1.722509302873439637e-05
46.400000 5.244480035213773364e-06 -1.853829859822472994e-05
46.600000 5.867822682128035672e-06 -1.998626510032099627e-05
46.800000 6.515222938398130778e-06 -2.15096871635479636e-05
47.000000 7.154639221463498064e-06 -2.30483051171627708e-05
47.200000 7.774498544008952788e-06 -2.455688803631704835e-05
47.400000 8.388207235250203888e-06 -2.601550846557627113e-05
47.600000 9.030633352763667385e-06 -2.743173871910391891e-05
47.800000 9.748563024821548957e-06 -2.883511732543694397e-05
48.000000 1.058877205861921096e-05 -3.026650722351548591e-05
48.200000 1.158762810301750797e-05 -3.17661868613064647e-05
48.400000 1.276515548756878451e-05 -3.336444661982932325e-05
48.600000 1.412469553915420792e-05 -3.507724695784573716e-05
48.800000 1.56573570022271809e-05 -3.690757514777155576e-05
49.000000 1.734903275777189389e-05 -3.885113996949327578e-05
49.200000 1.918729659478889452e-05 -4.090361392557302839e-05
49.400000 2.116604136524779218e-05 -4.306624634431260157e-05
49.600000 2.328694933105328609e-05 -4.534746025408666498e-05
49.800000 2.555823145728176849e-05 -4.775971877895954394e-05
50.000000 2.799198662351273372e-05 -5.031285644634494363e-05
50.200000 3.060171300324023746e-05 -5.300645650318240354e-05
50.400000 3.340099917632349927e-05 -5.582416336576975042e-05
50.600000 3.64035664419317477e-05 -5.873194451334372095e-05
50.800000 3.962404747875793024e-05 -6.168065986989257929e-05
51.000000 4.307849404268648412e-05 -6.461159066163869478e-05
51.200000 4.678369067496518016e-05 -6.74625536193892495e-05
51.400000 5.075479268116208552e-05 -7.0172279860425773e-05
51.600000 5.50013795876451813e-05 -7.2681763982924955e-05
51.800000 5.952251381305028388e-05 -7.49327562096152518e-05
52.000000 6.430169950101075082e-05 -7.686479958423791958e-05
52.200000 6.930270841230343616e-05 -7.841270635815241017e-05
52.400000 7.446709976727193515e-05 -7.950601306823312157e-05
52.600000 7.971394408431591906e-05 -8.00710188165999027e-05
52.800000 8.49418360379265632e-05 -8.003496559838503598e-05
53.000000 9.003285087952158012e-05 -7.93311965265863626e-05
53.200000 9.485779148386582328e-05 -7.79039510026501128e-05
53.400000 9.928199440260499138e-05 -7.571178763535572084e-05
53.600000 0.0001031711361700054933 -7.27292391229975542e-05
53.800000 0.0001063968078119209007 -6.894692093490893963e-05
54.000000 0.0001088419198058070109 -6.43707233254106983e-05
54.200000 0.0001104060754453196148 -5.902082111557807245e-05
54.400000 0.0001110108303826468491 -5.293106108622430716e-05
54.600000 0.0001106043301681696735 -4.614893089328558451e-05
54.800000 0.0001091644167618196625 -3.87359086245933588e-05
55.000000 0.000106699172882868221 -3.076767200672152181e-05
55.200000 0.0001032441801873298763 -2.233352014995989909e-05
55.400000 9.885645885444679253e-05 -1.353448865813335085e-05
55.600000 9.360590539540441038e-05 -4.480004786676409686e-06
55.800000 8.756574523049060485e-05 4.716569061597610732e-06
56.000000 8.080381013129118539e-05 1.394269077688742364e-05
56.200000 7.337624228371623914e-05 2.309063683831592514e-05
56.400000 6.532460306669044404e-05 3.205979100804781889e-05
56.600000 5.667654328815887682e-05 4.075672773184918154e-05
56.800000 4.744942598838657982e-05 4.90932764596992892e-05
57.000000 3.765578033157437925e-05 5.698343532437800583e-05
57.200000 2.730929820771675203e-05 6.434044399428278359e-05
57.400000 1.643024518678785505e-05 7.107535725781630002e-05
57.600000 5.04954253787748477e-06 7.709805175603345905e-05
57.800000 -6.788757676127746449e-06 8.23208685755635216e-05
58.000000 -1.902648187935072996e-05 8.666427685815803112e-05
58.200000 -3.159147722975202309e-05 9.006330305513486905e-05
58.400000 -4.439851487439050903e-05 9.247321407907737559e-05
58.600000 -5.735072648535790603e-05 9.387314819088848894e-05
58.800000 -7.034154546674782952e-05 9.426697757177647996e-05
59.000000 -8.325724996931330732e-05 9.368145554379355062e-05
59.200000 -9.598017006625080829e-05 9.216238928641536197e-05
59.400000 -0.0001083924277893798087 8.976996531643986104e-05
59.600000 -0.0001203798203678449659 8.657433924587989744e-05
59.800000 -0.0001318352767565622618 8.26522351070168432e-05
60.000000 -0.0001426613321960659925 7.80847606310856434e-05
60.200000 -0.0001527713023916085571 7.295615988267682456e-05
60.400000 -0.0001620892138305320292 6.735297300401386878e-05
60.600000 -0.0001705489050620880942 6.136311530835248133e-05
60.800000 -0.0001780929043654456512 5.507465077732414109e-05
61.000000 -0.0001846716411271103527 4.857435469042663956e-05
61.200000 -0.0001902433016148779178 4.194636924449605069e-05
61.400000 -0.000194774321824246169 3.527126145900410706e-05
61.600000 -0.0001982402670265028509 2.862561480842856429e-05
61.800000 -0.0002006267727050699322 2.208203724635390591e-05
62.000000 -0.0002019303138157924841 1.570928835757615065e-05
62.200000 -0.0002021587435923760667 9.572210380776768578e-06
62.400000 -0.0002013316815974653317 3.731294920559305975e-06
62.600000 -0.0001994808467749767508 -1.75805112312985205e-06
62.800000 -0.0001966503132390675875 -6.84627610742226015e-06
63.000000 -0.0001928964814102362101 -1.149014718027786317e-05
63.200000 -0.0001882874152958004428 -1.565263230298224263e-05
63.400000 -0.0001829011974301446232 -1.930210562289398534e-05
63.600000 -0.0001768231359158463649 -2.241099917446392841e-05
63.800000 -0.0001701419824880357075 -2.495421395848461201e-05
64.000000 -0.0001629456785158366484 -2.690772527127499155e-05
64.200000 -0.0001553174029196670628 -2.824785521598938452e-05
64.400000 -0.0001473327427884774728 -2.895163261071976058e-05
64.600000 -0.0001390586021799481949 -2.899850925993922409e-05
64.800000 -0.0001305540519672349423 -2.837345160256012075e-05
65.000000 -0.000121872822741568343 -2.707110629815128312e-05
65.200000 -0.0001130667082612601515 -2.510041671477548293e-05
65.400000 -0.0001041889158037638774 -2.24888420071141133e-05
65.600000 -9.52964432907433092e-05 -1.92852876644538038e-05
65.800000 -8.645086139838382966e-05 -1.556102620639266939e-05
66.000000 -7.771732924905526733e-05 -1.140822279635199343e-05
66.200000 -6.916212814161578032e-05 -6.936080752799671123e-06
66.400000 -6.08493234795866089e-05 -2.264979924547071832e-06
66.600000 -5.28372835792435724e-05 2.48076363373986987e-06
66.800000 -4.517569810877150181e-05 7.180734052333394696e-06
67.000000 -3.790351842909373475e-05 1.172597916564464857e-05
67.200000 -3.104798619341690377e-05 1.602539970575389745e-05
67.400000 -2.462470965279273704e-05 2.001012122627181518e-05
67.600000 -1.863862932438613163e-05 2.363522606088311695e-05
67.800000 -1.308567753314741386e-05 2.687864593305537065e-05
68.000000 -7.954941280483270928e-06 2.973758817448447255e-05
68.200000 -3.231144317309687107e-06 3.22234242460944041e-05
68.400000 1.10274870400035608e-06 3.435629092545384707e-05
68.600000 5.063030905719981647e-06 3.616058512924902134e-05
68.800000 8.663101586996349338e-06 3.766207662143707959e-05
69.000000 1.191190718137314675e-05 3.888670488440011658e-05
69.200000 1.48131792076351887e-05 3.986055404415682704e-05
69.400000 1.736560582511131333e-05 4.061025440670280927e-05
69.600000 1.956398617316317321e-05 4.116320842186853486e-05
69.800000 2.140131523567861217e-05 4.154744266171013733e-05
70.000000 2.287163057468589663e-05 4.17912821062743151e-05
70.200000 2.39733214066150226e-05 4.192319611094882855e-05
70.400000 2.471246982241368342e-05 4.197200877640406636e-05
70.600000 2.510569919815795712e-05 4.196732921893797251e-05
70.800000 2.51819945393742067e-05 4.193977938816268423e-05
71.000000 2.498307158510500189e-05 4.19205774562655221e-05
71.200000 2.456210578241140461e-05 4.194030737280478869e-05
71.400000 2.398093723663680127e-05 4.202711872380850372e-05
71.600000 2.330615389213338797e-05 4.220491293439617537e-05
71.800000 2.260463332511866935e-05 4.249209702477413933e-05
72.000000 2.193914888318199531e-05 4.29012089400074886e-05
72.200000 2.136454155722679481e-05 4.343930039691259445e-05
72.400000 2.09248013580052169e-05 4.41086438229318622e-05
72.600000 2.065127319923871997e-05 4.490728387237428548e-05
72.800000 2.056213686411131615e-05 4.582919066455704352e-05
73.000000 2.066327148101582448e-05 4.686413661267082572e-05
73.200000 2.095051875266914823e-05 4.799768983496395373e-05
73.400000 2.141314063459572826e-05 4.921173736460615514e-05
73.600000 2.20379433172592724e-05 5.048571450115480386e-05
73.800000 2.281322952258202821e-05 5.179836200905164954e-05
74.000000 2.373161965447486728e-05 5.3129557197216588e-05
74.200000 2.479098261544530771e-05 5.446170878326281404e-05
74.400000 2.599323880269909816e-05 5.578038135215992462e-05
74.600000 2.734147567155099771e-05 5.707411403811130682e-05
74.800000 2.883637876611939353e-05 5.833366189048582573e-05
75.000000 3.047317720991631824e-05 5.955100116874462537e-05
75.200000 3.224003256514124013e-05 6.071838287280663724e-05
75.400000 3.411817755140937369e-05 6.182756523642679916e-05
75.600000 3.608341804637712406e-05 6.286921565499830505e-05
75.800000 3.810816198588831406e-05 6.383242596040764722e-05
76.000000 4.016312184202421699e-05 6.470434286369954502e-05
76.200000 4.221822420225527329e-05 6.547002259177970597e-05
76.400000 4.424282205501656141e-05 6.611269223138142154e-05
76.600000 4.620573789969157442e-05 6.661457638730500046e-05
76.800000 4.807574869104499528e-05 6.695831373755216462e-05
77.000000 4.982283380169362871e-05 6.71287864147548886e-05
77.200000 5.142002267573877452e-05 6.711499357898154908e-05
77.400000 5.284527544164908952e-05 6.69114997608396693e-05
77.600000 5.408272916471131209e-05 6.651903083901144359e-05
77.800000 5.512289553875122006e-05 6.594397914076529526e-05
78.000000 5.596186266680028032e-05 6.519686425399991289e-05
78.200000 5.659998625009148048e-05 6.429008903594353095e-05
78.400000 5.704073432539476474e-05 6.323553329027328319e-05
78.600000 5.729019672693097152e-05 6.204257015105443395e-05
78.800000 5.735738129904989019e-05 6.071695766801386601e-05
79.000000 5.725500162140902089e-05 5.926079908065851331e-05
79.200000 5.700022143405201271e-05 5.767347265451308456e-05
79.400000 5.661485876346897023e-05 5.59532042531354329e-05
79.600000 5.612482151019262245e-05 5.409885704563192178e-05
79.800000 5.555889161431159671e-05 5.211154987058475062e-05
80.000000 5.494722312874985936e-05 4.99958439063664779e-05
80.200000 5.431996558012144004e-05 4.776038786311526579e-05
80.400000 5.370627471761411914e-05 4.541802737626202851e-05
80.600000 5.313372912220977321e-05 4.298544120452432705e-05
80.800000 5.262796661410240899e-05 4.048237754779571005e-05
81.000000 5.221228575498643301e-05 3.793055985790794247e-05
81.200000 5.190704332742068793e-05 3.535234120339457502e-05
81.400000 5.172885988266290015e-05 3.276921919147678835e-05
81.600000 5.168982407330767936e-05 3.020036861048633074e-05
81.800000 5.179697481119536389e-05 2.766138366528071975e-05
82.000000 5.205229905282268249e-05 2.516342426340354254e-05
82.200000 5.245333266152258327e-05 2.271291992052217558e-05
82.400000 5.29942569865735698e-05 2.031190281014600403e-05
82.600000 5.36672223880291341e-05 1.795893281999318833e-05
82.800000 5.446356139141598975e-05 1.565046504422047606e-05
83.000000 5.537459920183572759e-05 1.338241999880675134e-05
83.200000 5.639190606683057531e-05 1.115167204641759563e-05
83.400000 5.750701148921832592e-05 8.957185296321232588e-06
83.600000 5.871075189294482283e-05 6.800596848446662658e-06
83.800000 5.999250217036170799e-05 4.686157434447229675e-06
84.000000 6.133952999992151717e-05 2.620062152275385706e-06
84.200000 6.273662864724994191e-05 6.093118500039378913e-07
84.400000 6.416607437600102646e-05 -1.33967969493931686e-06
84.600000 6.560786919760447312e-05 -3.222482754955920699e-06
84.800000 6.704020089730674701e-05 -5.03780543540044392e-06
85.000000 6.844007938917573669e-05 -6.788193378369568082e-06
85.200000 6.978415898764722008e-05 -8.480133435413710982e-06
85.400000 7.1049783422742657e-05 -1.012351961610272534e-05
85.600000 7.221625887154613514e-05 -1.173056278680985696e-05
85.800000 7.326626616252292939e-05 -1.331434943916314535e-05
86.000000 7.418719971189547183e-05 -1.488734458846371679e-05
86.200000 7.497212451376178194e-05 -1.646015363397703579e-05
86.400000 7.562002914077063187e-05 -1.804078816740823778e-05
86.600000 7.613515107969443831e-05 -1.96345317342553702e-05
86.800000 7.652534856321407562e-05 -2.124431596196587233e-05
87.000000 7.679973901232231949e-05 -2.287135703510229722e-05
87.200000 7.696604464251888354e-05 -2.451572561310681278e-05
87.400000 7.702820949931093346e-05 -2.617656244694721636e-05
87.600000 7.698483415883417653e-05 -2.785180073838839152e-05
87.800000 7.682881122043344201e-05 -2.953747040186508258e-05
88.000000 7.654827739958873208e-05 -3.122687017133542788e-05
88.200000 7.612870001346620612e-05 -3.291002848675224509e-05
88.400000 7.555567004216143451e-05 -3.457387852056901162e-05
88.600000 7.481784566962562026e-05 -3.620342703444664144e-05
88.800000 7.390950342373850054e-05 -3.778392652223421341e-05
89.000000 7.283228471264343185e-05 -3.930373450223973011e-05
89.200000 7.159591414339869524e-05 -4.075726051573502496e-05
89.400000 7.021784604871963054e-05 -4.214725829881033417e-05
89.600000 6.872192502231309604e-05 -4.348578175094557476e-05
89.800000 6.713622431964420161e-05 -4.479339128534908182e-05
90.000000 6.549028573832321861e-05 -4.609660540318553018e-05
90.200000 6.381206300072803897e-05 -4.742402433654000431e-05
90.400000 6.212497397022801284e-05 -4.880188199899435694e-05
90.600000 6.044555404039698358e-05 -5.02499179253211139e-05
90.800000 5.878220058621783616e-05 -5.177837568008546089e-05
91.000000 5.713534469293644647e-05 -5.338666842988791723e-05
91.200000 5.549907881923592641e-05 -5.506388935392752268e-05
91.400000 5.386388599145817361e-05 -5.679097648582011749e-05
91.600000 5.22197945068344913e-05 -5.854404190188329695e-05
91.800000 5.055915677619010834e-05 -6.029818849908135888e-05
92.000000 4.887838586316372929e-05 -6.203108443818608746e-05
92.200000 4.717833323526983061e-05 -6.37256502239711461e-05
92.400000 4.546341768235598882e-05 -6.537142573562209789e-05
92.600000 4.373995115441974815e-05 -6.696449061625918495e-05
92.800000 4.201423669365493183e-05 -6.850614751577112111e-05
93.000000 4.029092433419051666e-05 -7.00008565711600242e-05
93.200000 3.857189005692906585e-05 -7.145404614932495931e-05
93.400000 3.685568166323702465e-05 -7.287037213091839103e-05
93.600000 3.513745412072686848e-05 -7.425277366968785096e-05
93.800000 3.340931489653794752e-05 -7.560236045910838842e-05
94.000000 3.166105662752040888e-05 -7.691888236498257742e-05
94.200000 2.988127881289772734e-05 -7.820137912868023802e-05
94.400000 2.805883416405262237e-05 -7.944862974592434171e-05
94.600000 2.618439450714146811e-05 -8.065918829859142875e-05
94.800000 2.425179694962808116e-05 -8.183102075462972771e-05
95.000000 2.225879990963207866e-05 -8.296094784417865195e-05
95.200000 2.020700120034960178e-05 -8.404418438528703781e-05
95.400000 1.810091641605579918e-05 -8.507422962624949857e-05
95.600000 1.59464861737018687e-05 -8.604323873430665885e-05
95.800000 1.374945855707659946e-05 -8.694284916013680095e-05
96.000000 1.151410483415393635e-05 -8.776530036179845955e-05
96.200000 9.242577576347181233e-06 -8.850460339350647019e-05
96.400000 6.934987144875308223e-06 -8.915749711991508442e-05
96.600000 4.590058201713621652e-06 -8.972396447635162928e-05
96.800000 2.206108448477708458e-06 -9.020716415026033201e-05
97.000000 -2.179164862824374387e-07 -9.061274769186038994e-05
97.200000 -2.681554275465064416e-06 -9.094766279906703614e-05
97.400000 -5.182209752234277376e-06 -9.121866613284580305e-05
97.600000 -7.714890881006304345e-06 -9.143085272258875832e-05
97.800000 -1.027235741963765478e-05 -9.158652481867065925e-05
98.000000 -1.284571888597354441e-05 -9.168465634012913559e-05
98.200000 -1.542545436930707392e-05 -9.172106982106318165e-05
98.400000 -1.800271705357347471e-05 -9.168926685980162688e-05
98.600000 -2.057066634934440365e-05 -9.158169236037851828e-05
98.800000 -2.312550008721442292e-05 -9.139111702208999554e-05
99.000000 -2.566688879281837682e-05 -9.111182029337437974e-05
99.200000 -2.819765370839371916e-05 -9.07403437067524465e-05
99.400000 -3.072273950433714192e-05 -9.027572747113491174e-05
99.600000 -3.324773708635031782e-05 -8.971928949954879027e-05
99.800000 -3.577733671723422722e-05 -8.907410704024866174e-05
100.000000 -3.831409446318921657e-05 -8.83443898375849086e-05
100.200000 -4.085778177729030257e-05 -8.753489377047029164e-05
100.400000 -4.340540662260470954e-05 -8.665044470020913034e-05
100.600000 -4.59518109797950314e-05 -8.569556441455552381e-05
100.800000 -4.849062091985913337e-05 -8.467414754207811965e-05
101.000000 -5.10152806308037567e-05 -8.358914302982664568e-05
101.200000 -5.351993712758854255e-05 -8.24422354543014903e-05
101.400000 -5.600002963559472474e-05 -8.123357326332252665e-05
101.600000 -5.845253915132588837e-05 -7.996162413294254198e-05
101.800000 -6.087593701921626267e-05 -7.862323439107661203e-05
102.000000 -6.326991873787181136e-05 -7.721393046716273109e-05
102.200000 -6.563501971552718878e-05 -7.572844208890796604e-05
102.400000 -6.797219506528364731e-05 -7.416137263802316418e-05
102.600000 -7.028242205995014261e-05 -7.250791029794268535e-05
102.800000 -7.256636407391886296e-05 -7.076447087435232914e-05
103.000000 -7.482412246058819287e-05 -6.892918337898002758e-05
103.200000 -7.705509332834791175e-05 -6.700216003943036376e-05
103.400000 -7.925793233813473236e-05 -6.49855225927038272e-05
103.600000 -8.14306096715825174e-05 -6.28831831371302446e-05
103.800000 -8.3570515048791405e-05 -6.070040376858981619e-05
104.000000 -8.56745614315328896e-05 -5.844318881815824149e-05
104.200000 -8.773924683744487409e-05 -5.611759495250945036e-05
104.400000 -8.976066730294412447e-05 -5.372906780952105981e-05
104.600000 -9.173451716515031715e-05 -5.128191586752440433e-05
104.800000 -9.36561428319164865e-05 -4.877900507303574321e-05
105.000000 -9.552071291284120825e-05 -4.622170640997899795e-05
105.200000 -9.732352576006522097e-05 -4.361007092814212096e-05
105.400000 -9.90604102512958833e-05 -4.094316489937805141e-05
105.600000 -0.0001007281167930036827 -3.821948585462279059e-05
105.800000 -0.0001023245728208737606 -3.543739607451672365e-05
106.000000 -0.0001038489046883438237 -3.259553672182947183e-05
106.200000 -0.0001053011963195184763 -2.969320255303107509e-05
106.400000 -0.0001066820357175919898 -2.673065334678934206e-05
106.600000 -0.0001079919599229003534 -2.37093204934647033e-05
106.800000 -0.0001092309255575699812 -2.063185541033521966e-05
107.000000 -0.000110397905235465831 -1.750198007807572415e-05
107.200000 -0.0001114906587018111455 -1.432414402334025475e-05
107.400000 -0.0001125056779391870281 -1.110305144606274047e-05
107.600000 -0.0001134382770948912019 -7.843168961272369469e-06
107.800000 -0.0001142827946057674705 -4.548333563498228193e-06
108.000000 -0.0001150328850889629828 -1.221544657790741014e-06
108.200000 -0.0001156818855423136238 2.135041366901865007e-06
108.400000 -0.0001162232330984185665 5.519960756882045087e-06
108.600000 -0.0001166508916594689193 8.932219785858229759e-06
108.800000 -0.0001169597251811882005 1.237107978249403594e-05
109.000000 -0.000117145752067466643 1.583589401736023726e-05
109.200000 -0.0001172062367572360787 1.932599588771444956e-05
109.400000 -0.0001171396166077375299 2.284060742257523229e-05
109.600000 -0.000116945308437243383 2.637873336280644997e-05
109.800000 -0.000116623469828377549 2.993902574550401816e-05
110.000000 -0.0001161747922013193173 3.351963287737333295e-05
110.200000 -0.0001156003754579329506 3.711806899573794852e-05
110.400000 -0.0001149016902190870342 4.073114735573642517e-05
110.600000 -0.0001140805921575466491 4.435500959399535527e-05
110.800000 -0.0001131393297138845607 4.798526391115368181e-05
111.000000 -0.0001120804880413916262 5.161722091455434036e-05
111.200000 -0.0001109068340344056649 5.524619346591927557e-05
111.400000 -0.0001096210588390888606 5.886780775681817673e-05
111.600000 -0.0001082254444308890104 6.247825938873815697e-05
111.800000 -0.0001067215035995420423 6.607444509656129714e-05
112.000000 -0.0001051096572631328755 6.96539141781223677e-05
112.200000 -0.0001033890205651124612 7.321461764992557013e-05
112.400000 -0.0001015573683902608592 7.675448453830027457e-05
112.600000 -9.961133650960782293e-05 8.027091114130906419e-05
112.800000 -9.754688029634870478e-05 8.376029155156642909e-05
113.000000 -9.535995770956332592e-05 8.721772774226605493e-05
113.200000 -9.304733620458788387e-05 9.063702555902319327e-05
113.400000 -9.06073642549016134e-05 9.401101384885450908e-05
113.600000 -8.804052163388180463e-05 9.733213634900609679e-05
113.800000 -8.5349586915776422e-05 0.0001005931859980729995
114.000000 -8.253933837049079653e-05 0.0001037880034047036326
114.200000 -7.961581820119791812e-05 0.0001069119599141794819
114.400000 -7.658530706696919552e-05 0.0001099620920283200521
114.600000 -7.345323916147243528e-05 0.0001129368361743363731
114.800000 -7.022331052208393896e-05 0.0001158354107789415064
115.000000 -6.689698708917491494e-05 0.0001186569827050046886
115.200000 -6.347351864646868852e-05 0.0001213998151345237843
115.400000 -5.995044050322920329e-05 0.0001240606073629125421
115.600000 -5.632443187268279603e-05 0.0001266341968643055723
115.800000 -5.25923268911855551e-05 0.0001291137066734891845
116.000000 -4.875205524192858874e-05 0.0001314911069153197154
116.200000 -4.480332243071220009e-05 0.0001337580489770404839
116.400000 -4.074791053995247941e-05 0.0001359067571221511434
116.600000 -3.658956848757264767e-05 0.0001379307488901096771
116.800000 -3.233354654163382612e-05 0.0001398252075989053756
117.000000 -2.798589751231755888e-05 0.0001415869315327466604
117.200000 -2.355270663132028841e-05 0.0001432139028931091814
117.400000 -1.903941866948459098e-05 0.0001447046189502688074
117.600000 -1.445040382824733667e-05 0.0001460573802107998297
117.800000 -9.788847608786560824e-06 0.000147269725081762402
118.000000 -5.056974105683531462e-06 0.000148338145174433647
118.200000 -2.565327084063070516e-07 0.0001492581308863917718
118.400000 4.610585592280718358e-06 0.0001500245086470562629
118.600000 9.541766114407584169e-06 0.0001506319613913353309
118.800000 1.453327237229444516e-05 0.0001510755867469110939
119.000000 1.958012615238918279e-05 0.0001513513482193542658
119.200000 2.467627923171205158e-05 0.00015145631007243803
119.400000 2.981500936447271011e-05 0.000151388606516428384
119.600000 3.498941723911744907e-05 0.0001511471652298665674
119.800000 4.01928855679966029e-05 0.0001507312670548140577
120.000000 4.54193869564002516e-05 0.0001501400626012608678
120.200000 5.066358061022223976e-05 0.000149372173156591732
120.400000 5.592069914665039748e-05 0.0001484254773300529415
120.600000 6.118627726785373004e-05 0.0001472971348608189735
120.800000 6.645580320396499477e-05 0.0001459838394152546462
121.000000 7.172438016607213165e-05 0.0001444822382314482981
121.200000 7.698647315250039971e-05 0.0001427894196286065933
121.400000 8.223579238215929146e-05 0.0001409033552639067015
121.600000 8.746533315014926274e-05 0.0001388231928833434073
121.800000 9.266755680706581272e-05 0.0001365493242986375283
122.000000 9.783466385686716824e-05 0.000134083198011921811
122.200000 0.0001029588853922856642 0.0001314269003387953509
122.400000 0.0001080327117599616499 0.0001285825843637050452
122.600000 0.0001130489928837685487 0.000125551870678489787
122.800000 0.0001180008812515213364 0.0001223353643121158482
123.000000 0.000122881635963364576 0.0001189324183558126719
123.200000 0.0001276843490569024204 0.0001153412246688611712
123.400000 0.0001324016792203023521 0.0001115592352974835579
123.600000 0.0001370256757246631103 0.0001075838344720845072
123.800000 0.000141547749367804224 0.0001034131139494707163
124.000000 0.0001459588075068388353 9.904657357671574575e-05
124.200000 0.0001502495295128132124 9.448558293041975581e-05
124.400000 0.00015441072720769137 8.97334941541331159e-05
124.600000 0.0001584337168425829388 8.479537555817479976e-05
124.800000 0.0001623106252601506309 7.967742037122726485e-05
125.000000 0.0001660345615468671553 7.438615676175566477e-05
125.200000 0.0001695996055610736301 6.892763037178813352e-05
125.400000 0.0001730005954808162176 6.330674142888961732e-05
125.600000 0.0001762327357156940038 5.752689251658706934e-05
125.800000 0.0001792910883114640325 5.15900427415231155e-05
126.000000 0.0001821700455713373386 4.549717769888358385e-05
126.200000 0.0001848628978591073139 3.924910776212085127e-05
126.400000 0.0001873616003667719868 3.284742159733247002e-05
126.600000 0.0001896568052348606575 2.629537128901686377e-05
126.800000 0.0001917381688498607151 1.959846857450382133e-05
127.000000 0.0001935948831241945717 1.276463372213514567e-05
127.200000 0.0001952163304061668183 5.803847157959488519e-06
127.400000 0.0001965927366281035034 -1.272619252130407137e-06
127.600000 0.0001977157008174449293 -8.453205270490452057e-06
127.800000 0.0001985785074075128249 -1.572705406219933498e-05
128.000000 0.0001991761716425902694 -2.308475354334674413e-05
128.200000 0.0001995052171164356919 -3.05186572168526305e-05
128.400000 0.0001995632293908940159 -3.802272405716759194e-05
128.600000 0.0001993482651593981984 -4.559193521641083504e-05
128.800000 0.0001988582194070792012 -5.322144073922614564e-05
129.000000 0.0001980902612097202719 -6.090564052998154014e-05
129.200000 0.000197040440073844008 -6.863740328318226674e-05
129.400000 0.000195703537874401519 -7.640758137061541522e-05
129.600000 0.000194073198249468203 -8.420490440677518766e-05
129.800000 0.000192142312119298578 -9.201624860261507798e-05
130.000000 0.0001899035856811047169 -9.982720119268198556e-05
130.200000 0.0001873501786997212534 -0.0001076227834100304038
130.400000 0.0001844762869826967351 -0.0001153881707940544775
130.600000 0.0001812775582805607028 -0.0001231092595016112427
130.800000 0.0001777512719258432245 -0.0001307729690865876702
131.000000 0.0001738962683713807722 -0.000138367236935807886
131.200000 0.0001697126705814770698 -0.0001458807327104202022
131.400000 0.0001652014809855743057 -0.000153302385331877453
131.600000 0.0001603641563678082668 -0.0001606208541964903864
131.800000 0.0001552022565599016422 -0.0001678240804863349476
132.000000 0.0001497172356361089899 -0.0001748990234115944205
132.200000 0.0001439104052752335889 -0.0001818316299083147188
132.400000 0.0001377830591560454511 -0.0001886070218455520382
132.600000 0.0001313367134672269664 -0.0001952098308480064231
132.800000 0.0001245733977720043823 -0.0002016245815629943961
133.000000 0.0001174959251978204548 -0.0002078360249801780894
133.200000 0.0001101080808543890445 -0.0002138293500356481061
133.400000 0.0001024146896963964965 -0.000219590242973905891
133.600000 9.442155497158111047e-05 -0.0002251048062078825492
133.800000 8.613528975673466622e-05 -0.0002303593804188798228
134.000000 7.756309007839569999e-05 -0.0002353403293234712233
134.200000 6.871251254254074649e-05 -0.0002400338455866516806
134.400000 5.959131827511400656e-05 -0.0002444258226512547802
134.600000 5.020742798281134983e-05 -0.0002485018164615197963
134.800000 4.056900409981153846e-05 -0.0002522470986406175238
135.000000 3.068464291328466175e-05 -0.0002556467828817631589
135.200000 2.056363140724635195e-05 -0.0002586859921054173307
135.400000 1.021620812720629409e-05 -0.000261350027344389702
135.600000 -3.462314263095713602e-07 -0.0002636245014775624469
135.800000 -1.111102766843843357e-05 -0.0002654954116901737915
136.000000 -2.206426424722949281e-05 -0.0002669491419101333789
136.200000 -3.319087737968758528e-05 -0.0002679724064936269009
136.400000 -4.447483175023012698e-05 -0.0002685521638660400673
136.600000 -5.589931521839882906e-05 -0.0002686755386454954607
136.800000 -6.744690482426224582e-05 -0.0002683297899238085323
137.000000 -7.909966805615138285e-05 -0.000267502351960036014
137.200000 -9.083918257859185518e-05 -0.0002661809549036087434
137.400000 -0.0001026464798997505057 -0.0002643538127669867372
137.600000 -0.0001145019386475494506 -0.0002620098494181068204
137.800000 -0.0001263851663334069448 -0.0002591389249818032404
138.000000 -0.0001382749110270877239 -0.0002557320261509501633
138.200000 -0.000150149034904981251 -0.0002517813931518041561
138.400000 -0.0001619845621876958911 -0.0002472805701671448929
138.600000 -0.0001737577900182047687 -0.0002422243809052095857
138.800000 -0.000185444430009828982 -0.0002366088433311008029
139.000000 -0.0001970197378151654821 -0.0002304310454085684154
139.200000 -0.000208458592212916932 -0.0002236890067584076415
139.400000 -0.0002197355028067074121 -0.0002163815504037022437
139.600000 -0.0002308245503235924125 -0.0002085082056836637214
139.800000 -0.0002416992866949625339 -0.0002000691590427769256
140.000000 -0.0002523326352783999494 -0.0001910652639781843106
140.200000 -0.0002626968303811863721 -0.000181498114540991969
140.400000 -0.0002727634208607698763 -0.0001713701781237633867
140.600000 -0.000282503340958397233 -0.0001606849734816223206
140.800000 -0.0002918870307450477895 -0.0001494472710809766026
141.000000 -0.0003008845755370302666 -0.0001376632878806021418
141.200000 -0.0003094658317512514567 -0.0001253408500447308828
141.400000 -0.0003176005150925705067 -0.0001124895054382927818
141.600000 -0.0003252582417661360639 -9.912058089819075529e-05
141.800000 -0.0003324085295305127742 -8.524719282480238195e-05
142.000000 -0.0003390207784948449129 -7.088422878044663492e-05
142.200000 -0.0003450642589108205869 -5.604831950656863213e-05
142.400000 -0.0003505081337729332408 -4.075781537335460551e-05
142.600000 -0.0003553215379817671756 -2.503277225623753473e-05
142.800000 -0.0003594737241803090005 -8.894944152146077847e-06
143.000000 -0.0003629342700738561064 7.63222262250870561e-06
143.200000 -0.0003656733260850688933 2.452359528394279772e-05
143.400000 -0.0003676618694521731562 4.175235528982483238e-05
143.600000 -0.0003688719252855741254 5.92899832981755095e-05
143.800000 -0.0003692767192777526267 7.710621793256280075e-05
144.000000 -0.0003688507407688503882 9.516898494341986814e-05
144.200000 -0.0003675697156830769197 0.0001134443048339079329
144.400000 -0.0003654105110665710476 0.0001318961978873143084
144.600000 -0.0003623510104680578042 0.0001504866105534994366
144.800000 -0.0003583700074103429007 0.0001691753835127733294
145.000000 -0.0003534471607255824802 0.0001879202704222563412
145.200000 -0.0003475630419147177422 0.0002066770017162696774
145.400000 -0.0003406992849587677625 0.0002253993755476086779
145.600000 -0.000332838828484579186 0.0002440393524760614801
145.800000 -0.0003239662238983601603 0.0002625471332577977734
146.000000 -0.0003140679744736433391 0.0002808712081859548321
146.200000 -0.0003031328704998733129 0.0002989583779156633286
146.400000 -0.0002911522931375957199 0.0003167537554791243761
146.600000 -0.0002781204714319878758 0.0003342007646782445447
146.800000 -0.0002640346890698473106 0.0003512411507960590371
147.000000 -0.0002488954464928210225 0.00036781501682184802
147.200000 -0.0002327065880820495603 0.0003838608939331481819
147.400000 -0.0002154754036081043959 0.0003993158502068608275
147.600000 -0.0001972127101330496896 0.000414115637032537291
147.800000 -0.0001779329179099744054 0.0004281948685335606238
148.000000 -0.0001576540837539006979 0.0004414872255560437419
148.200000 -0.0001363979583024647142 0.0004539256729621688347
148.400000 -0.0001141900380770804725 0.0004654426779473039744
148.600000 -9.105963666509843206e-05 0.0004759704187249908089
148.800000 -6.703998928951133323e-05 0.0004854409774642625395
149.000000 -4.216840058567183864e-05 0.0004937865182152339268
149.200000 -1.648643754916814957e-05 0.0005009394582754835836
149.400000 9.959839319073171714e-06 0.0005068326480872198782
149.600000 3.711962118778675066e-05 0.000511399578385816401
149.800000 6.493709155406792105e-05 0.0005145746325544949592
150.000000 9.335118318919443964e-05 0.000516293396580334461
150.200000 0.0001222953716226613484 0.0005164930295315743733
150.400000 0.0001516975234812225433 0.0005151126862417981659
150.600000 0.0001814798147392859265 0.0005120939739232052441
150.800000 0.0002115587286535940148 0.0005073814187915080907
151.000000 0.0002418451351371511703 0.0005009229194839348457
151.200000 0.0002722444428637114055 0.0004926701711587745018
151.400000 0.0003026568042992287236 0.0004825790555893911247
151.600000 0.0003329773451692190334 0.0004706100046986856091
151.800000 0.0003630963867044367365 0.0004567283540837829055
152.000000 0.0003928996332334988876 0.0004409047067377726259
152.200000 0.0004222683090747839985 0.0004231153251579547101
152.400000 0.0004510792448690182461 0.0004033425640916791306
152.600000 0.0004792049307994691323 0.0003815753489460908723
152.800000 0.0005065135686381990214 0.0003578096985074918674
153.000000 0.0005328691630434015305 0.0003320492858568215087
153.200000 0.0005581316931607040871 0.0003043060277572952246
153.400000 0.0005821573981238646351 0.000274600689534598263
153.600000 0.0006047991959414187376 0.0002429634894830480453
153.800000 0.0006259072374836127271 0.0002094346851565259844
154.000000 0.0006453295798835031278 0.0001740651251415391342
154.200000 0.0006629129508317168403 0.0001369167550162786115
154.400000 0.0006785035700815433921 9.806307440726226565e-05
154.600000 0.0006919479979258182003 5.758955074622649052e-05
154.800000 0.0007030939908194670665 1.559400104639473841e-05
155.000000 0.0007117913581035145362 -2.781304682344890931e-05
155.200000 0.0007178928268017688991 -7.250800757329998309e-05
155.400000 0.0007212549306293343943 -0.0001183539100719396662
155.600000 0.0007217389435690610812 -0.0001652000995050027115
155.800000 0.0007192118784037559651 -0.00021288198795191461
156.000000 0.0007135475680315975927 -0.0002612208717995977321
156.200000 0.0007046278434662570046 -0.0003100238314921606431
156.400000 0.0006923438173437327292 -0.0003590837256252065184
156.600000 0.0006765972750299823228 -0.0004081792899697635831
156.800000 0.0006573021667992599675 -0.0004570753533674589211
157.000000 0.0006343861849417846725 -0.000505523184971480642
157.200000 0.0006077924012666500184 -0.0005532609882041427275
157.400000 0.0005774809359695634711 -0.0006000145540130045856
157.600000 0.0005434306299933867965 -0.0006454980798606280851
157.800000 0.0005056406995166614097 -0.0006894151542955651198
158.000000 0.0004641323605080953482 -0.0007314599039455441272
158.200000 0.0004189504195129296763 -0.0007713183031106687296
158.400000 0.0003701648304531261085 -0.0008086696553811757943
158.600000 0.0003178722145001487307 -0.0008431882679885563999
158.800000 0.0002621973317421423121 -0.0008745453473167014505
159.000000 0.0002032944820943576752 -0.0009024111436620344071
159.200000 0.0001413488020428787693 -0.0009264573639948928173
159.400000 7.657741600747263323e-05 -0.00094635985639316615
159.600000 9.230397429381445676e-06 -0.0009618015547890338074
159.800000 -6.040850541015044592e-05 -0.0009724756630020898497
160.000000 -0.0001320214218501259188 -0.00097808905470042856
160.200000 -0.0002052562300973619417 -0.0009783658685385010229
160.400000 -0.0002797267856810818783 -0.0009730512798765144928
160.600000 -0.0003550135438908649061 -0.0009619154268960609629
160.800000 -0.0004306646110908979178 -0.0009447574575316151956
161.000000 -0.0005061972567893031514 -0.0009214096469274855265
161.200000 -0.000581099913596066814 -0.0008917415190388232457
161.400000 -0.0006548346856826345579 -0.0008556638968515395361
161.600000 -0.0007268403786550631154 -0.0008131328067073856185
161.800000 -0.0007965360557557975806 -0.0007641531718038614479
162.000000 -0.0008633251177685293768 -0.0007087822422813925714
162.200000 -0.0009265998969940205743 -0.000647132717410759512
162.400000 -0.0009857467483603947218 -0.0005793755147577220451
162.600000 -0.001040151611824000327 -0.0005057421320379144533
162.800000 -0.001089206008678942012 -0.0004265265345796843272
163.000000 -0.001132313420454831134 -0.0003420864917565639811
163.200000 -0.001168895984572561808 -0.000252844284883310959
163.400000 -0.001198401428946596972 -0.000159286718323098424
163.600000 -0.001220310161415004684 -6.196438197286270079e-05
163.800000 -0.001234142430908664141 3.85098685662862972e-05
164.000000 -0.001239465484741876988 0.000141463232898942845
164.200000 -0.001235900656890058253 0.0002461660970056351065
164.400000 -0.001223130330899212118 0.0003518359784717328318
164.600000 -0.001200904724071645774 0.0004576422854715138529
164.800000 -0.001169048435027666239 0.0005627118840876791771
165.000000 -0.001127466685782669079 0.0006661354624479083001
165.200000 -0.00107615117538184253 0.0007669746754338850571
165.400000 -0.001015185448611537287 0.0008642700532698810098
165.600000 -0.0009447496727748238513 0.0009570496622085509792
165.800000 -0.0008651247081764415264 0.00104433851348313244
166.000000 -0.0007766953521126362383 0.001125168722326386813
166.200000 -0.0006799526293876282214 0.001198590415902843443
166.400000 -0.0005754949930803172692 0.001263683373057624976
166.600000 -0.0004640282876133424404 0.001319569349272647733
166.800000 -0.0003463643141738360822 0.00136542500031072169
167.000000 -0.0002234178295347405191 0.001400495272764546708
167.200000 -9.620180710685195629e-05 0.001424107083273570959
167.400000 3.41792027939540936e-05 0.001435683061862746577
167.600000 0.0001665377547884056811 0.001434755087152358912
167.800000 0.000299614335746833352 0.001420977289725315704
168.000000 0.0004320903845406606444 0.001394138144583755186
168.200000 0.000562603475231201024 0.001354171218993643899
168.400000 0.0006897645399310794925 0.001301164098071190111
168.600000 0.0008121768975090697335 0.001235364990680092728
168.800000 0.0009284567357051592583 0.001157186536019134829
169.000000 0.001037254576856811057 0.001067206396070649165
169.200000 0.001137277153196344839 0.0009661643332463976412
169.400000 0.001227309039064873944 0.0008549556304446643716
169.600000 0.001306233345834155977 0.0007346208994140870007
169.800000 0.001373050789626928088 0.0006063325248808099392
170.000000 0.001426896496864099757 0.0004713781858289608877
170.200000 0.001467054018105242753 0.0003311420611651133745
170.400000 0.001492966170914566005 0.0001870844462589547701
170.600000 0.001504242516302671659 4.072056515189467996e-05
170.800000 0.001500663474301346199 -0.0001064006479506769025
171.000000 0.001482181282280415572 -0.0002527171057250330709
171.200000 0.001448918172957622827 -0.0003966729148607711641
171.400000 0.001401162277157107445 -0.000536736154228566447
171.600000 0.00133936182316156979 -0.0006714149367326666465
171.800000 0.00126411820126470743 -0.000799271814680837492
172.000000 0.001176178389461409683 -0.0009189367653422122117
172.200000 0.001076427104377675366 -0.00102911911905845168
172.400000 0.0009658788690953878714 -0.001128618854076764893
172.600000 0.0008456700002634865787 -0.001216337676560105959
172.800000 0.0007170503359389691347 -0.001291290235819029294
173.000000 0.000581374375498945801 -0.001352615704894116104
173.200000 0.000440091400609308027 -0.001399589800210326515
173.400000 0.0002947341013668059004 -0.001431637137477762174
173.600000 0.0001469052470115345078 -0.001448343640228360501
173.800000 -1.737987020907840017e-06 -0.001449468546590126656
174.000000 -0.0001495023012564051634 -0.001434955411271338728
174.200000 -0.0002946792646742000393 -0.001404941383390320622
174.400000 -0.0004355689215886113068 -0.00135976396547629933
174.600000 -0.0005705056965896264896 -0.001299964432880577978
174.800000 -0.000697886047822378645 -0.00122628712444786906
175.000000 -0.0008161970852122513772 -0.001139673913448190686
175.200000 -0.0009240451529655624918 -0.001041253340584602201
175.400000 -0.001020183196299924476 -0.0009323241430346673351
175.600000 -0.001103535616626821541 -0.0008143332423353780939
175.800000 -0.001173219294664888494 -0.0006888486453345849664
176.000000 -0.001228559551493756206 -0.0005575281378645927403
176.200000 -0.001269100038584489339 -0.0004220850670407243124
176.400000 -0.00129460589940675881 -0.0002842528607096638351
176.600000 -0.001305060007829365008 -0.000145750163332487257
176.800000 -0.001300652621842211419 -8.248524409051080129e-06
177.000000 -0.001281765336921189113 0.0001266555761359871842
177.200000 -0.001248950712583815062 0.0002574629488773529074
177.400000 -0.001202909308765107935 0.0003827873034941958047
177.600000 -0.001144466047172883021 0.0005013640760669758716
177.800000 -0.001074547770332771445 0.000612053041335419018
178.000000 -0.0009941636011466185429 0.0007138359562341590331
178.200000 -0.0009043892351199566164 0.0008058110063626237798
178.400000 -0.0008063556835085400505 0.0008871861166589098402
178.600000 -0.0007012423091115658038 0.0009572731937492673024
178.800000 -0.0005902733490783403352 0.001015485084985762567
179.000000 -0.0004747165896107947308 0.001061336506910034961
179.200000 -0.0003558825176469647541 0.001094449490280774255
179.400000 -0.0002351221685735178728 0.001114563110984637768
179.600000 -0.0001138220270687454068 0.001121546534961192273
179.800000 6.605303134219597348e-06 0.001115413799934089883
180.000000 0.0001247354172333460759 0.001096338362374819041
180.200000 0.0002391515459147345885 0.001064665296539349295
180.400000 0.0003484685950472609208 0.001020919149266597686
180.600000 0.0004513606807179724296 0.0009658058022992521263
180.800000 0.0005465905754839607339 0.0009002072210049073906
181.000000 0.0006330391661925062171 0.0008251686077517954342
181.200000 0.0007097328946537427184 0.0007418781588816755713
181.400000 0.0007758672171746102894 0.0006516402795675428237
181.600000 0.0008308243687865781791 0.0005558436839524849094
181.800000 0.0008741841306335638257 0.0004559262538525533969
182.000000 0.0009057268404795092674 0.0003533388147282756457
182.200000 0.0009254285122977100623 0.0002495100900507336763
182.400000 0.0009334485877978092577 0.0001458150023271484962
182.600000 0.0009301114695921489789 4.354820017846466922e-05
182.800000 0.0009158835178978854243 -5.609578031716692443e-05
183.000000 0.0008913475679390662348 -0.0001520349336166659663
183.200000 0.0008571771915868653868 -0.0002433047161830948033
183.400000 0.0008141128516367344145 -0.0003290561736616220176
183.600000 0.0007629417753333651636 -0.0004085486366734398861
183.800000 0.0007044828327952877903 -0.0004811389029976999299
184.000000 0.0006395770061308742429 -0.0005462691446022367031
184.200000 0.0005690832635172922557 -0.0006034558205584508598
184.400000 0.0004938789119643576583 -0.0006522816235775656668
184.600000 0.0004148628953038885347 -0.0006923919634238713799
184.800000 0.0003329601155568937356 -0.0007234967607987461725
185.000000 0.0002491247401468543233 -0.0007453774889470552367
185.200000 0.0001643406277196959267 -0.0007578985731856863195
185.400000 7.961743233624394699e-05 -0.0007610215558471774937
185.600000 -4.018436523700524162e-06 -0.0007548199517341656504
185.800000 -8.553810323546559298e-05 -0.0007394925194037954867
186.000000 -0.0001639291525797165433 -0.0007153727767231572894
186.200000 -0.0002382179585010028107 -0.0006829329723602498535
186.400000 -0.0003074937249089550661 -0.0006427813283073897759
186.600000 -0.0003709323070180575482 -0.0005956521065014819044
186.800000 -0.0004278178688976613819 -0.000542388827815789426
187.000000 -0.000477560634516302322 -0.000483921689492867969
187.200000 -0.0005197093686644822233 -0.0004212408074237567867
187.400000 -0.0005539577287137629385 -0.0003553672952279429372
187.600000 -0.0005801441990791162502 -0.0002873243519968136299
187.800000 -0.0005982458979170640146 -0.0002181104602411232992
188.000000 -0.000608367074849184967 -0.0001486765136905937351
188.200000 -0.00061072355174291988 -7.990823856871095054e-05
188.400000 -0.0006056246577810718264 -1.261469315208790364e-05
188.600000 -0.0005934543485005663909 5.247701051083286487e-05
188.800000 -0.0005746531627353004433 0.0001147212563666855317
189.000000 -0.0005497024635184986517 0.0001735488075651657664
189.200000 -0.0005191120484129526421 0.0002284585234946080279
189.400000 -0.0004834117387577202508 0.0002790076701999528335
189.600000 -0.0004431470192015564327 0.0003248026320127361029
189.800000 -0.0003988782628605216777 0.0003654916613813572477
190.000000 -0.00035118261076873714 0.0004007609324243447172
190.200000 -0.0003006572376718128587 0.0004303346365572871773
190.400000 -0.0002479225740733955667 0.0004539792424049783311
190.600000 -0.0001936240874171495433 0.0004715114170597206676
190.800000 -0.0001384314464832425793 0.0004828085534417070031
191.000000 -8.303426912346600322e-05 0.0004878204408139191414
191.200000 -2.813413007095920694e-05 0.0004865804035924468094
191.400000 2.556698351023570457e-05 0.0004792142410453812968
191.600000 7.738110359397696691e-05 0.0004659455207883813851
191.800000 0.0001266505502304530128 0.0004470961778357410502
192.000000 0.0001727647397735138785 0.000423081892485258342
192.200000 0.0002151761453041722328 0.0003944022959528027065
192.400000 0.0002534140942523441936 0.0003616266110202639365
192.600000 0.0002870953041318364835 0.0003253758109046793771
192.800000 0.0003159303849138717915 0.0002863027215865157431
193.000000 0.0003397259342523266824 0.0002450716678027145198
193.200000 0.0003583822738169747078 0.0002023392581126779615
193.400000 0.0003718872764031386029 0.0001587377273119120532
193.600000 0.0003803070739526676959 0.0001148619303546004442
193.800000 0.0003837746835097997325 7.126065063805401883e-05
194.000000 0.0003824777187193300265 2.843239682080130057e-05
194.200000 0.0003766463575802958433 -1.317462876463745728e-05
194.400000 0.0003665426142264276155 -5.315914583515704431e-05
194.600000 0.0003524517279610130203 -9.116108912489430361e-05
194.800000 0.0003346761634270649637 -0.0001268548695628634215
195.000000 0.0003135323488186295723 -0.0001599429305060666429
195.200000 0.00028934990833390272 -0.000190150796315015217
195.400000 0.0002624728162067081001 -0.000217224532408674567
195.600000 0.0002332616538387082342 -0.0002409311450768620102
195.800000 0.0002020960196920044266 -0.0002610619966629563072
196.000000 0.0001693761394837070815 -0.000277438856694445441
196.200000 0.0001355228499785342874 -0.0002899218120239696085
196.400000 0.0001009753639953037889 -0.0002984179709093826081
196.600000 6.618653348252040002e-05 -0.0003028897536264663873
196.800000 3.161566899123168238e-05 -0.000303361581550114581
197.000000 -2.280697648724478687e-06 -0.0002999239511361714589
197.200000 -3.505944647880263694e-05 -0.0002927341815956930791
197.400000 -6.630204963513076618e-05 -0.0002820135119375059081
197.600000 -9.56253678175032686e-05 -0.0002680406419423215537
197.800000 -0.0001226911610193698158 -0.0002511422085190939614
198.000000 -0.0001472135430202465678 -0.0002316810155480258048
198.200000 -0.0001689638236821455763 -0.0002100430550319641555
198.400000 -0.0001877724529802274962 -0.00018662444861614256
198.600000 -0.0002035280737274948871 -0.0001618193962949177837
198.800000 -0.0002161739730437482287 -0.0001360100542509814407
199.000000 -0.0002257024651071056496 -0.0001095590006392861899
199.200000 -0.0002321479141871741342 -8.280462115634783585e-05
199.400000 -0.0002355791994533310777 -5.605939570247137944e-05
199.600000 -0.0002360924227661324881 -2.961073496958090557e-05
199.800000 -0.0002338045688676203813 -3.72373981690111858e-06
200.000000 -0.0002288486555802480757 2.13549320406247254e-05
200.200000 -0.0002213706806637118934 4.539298783871337781e-05
200.400000 -0.0002115284101291000588 6.816907092479260015e-05
200.600000 -0.0001994917926515585305 8.947069864765751722e-05
200.800000 -0.0001854445592004567956 0.0001090940523985083256
201.000000 -0.0001695864050440200788 0.0001268458158353751367
201.200000 -0.0001521350736842061631 0.000142546948639364965
201.400000 -0.0001333276785624269299 0.000156037995528412023
201.600000 -0.0001134207052748147679 0.0001671853009112917398
201.800000 -9.268831885748679154e-05 0.0001758873575445830029
202.000000 -7.141883167657648364e-05 0.0001820804797793637445
202.200000 -4.990943559864174434e-05 0.0001857430610308181084
202.400000 -2.845953394370709887e-05 0.0001868978390899627643
202.600000 -7.363194083914011972e-06 0.0001856118275083482982
202.800000 1.309864231954085524e-05 0.000181993843581971154
203.000000 3.266552014689068064e-05 0.000176189836817413557
203.200000 5.110378027219008922e-05 0.0001683764611141349145
203.400000 6.82113177747852603e-05 0.0001587535104387777013
203.600000 8.382046715998804176e-05 0.0001475359324284440427
203.800000 9.779890240195471653e-05 0.0001349461396364039938
204.000000 0.0001100486540416043506 0.0001212072581742256166
204.200000 0.0001205035390671165961 0.0001065378026415686333
204.400000 0.0001291254498163199962 9.114806640881071718e-05
204.600000 0.0001359000395856626252 7.523829384752106367e-05
204.800000 0.0001408323663565754435 5.89984833776104807e-05
205.000000 0.0001439430114948728439 4.260948258918906061e-05
205.200000 0.0001452650847891623711 2.624489999910132861e-05
205.400000 0.000144842375121501224 1.007328647573966044e-05
205.600000 0.0001427287271101141764 -5.739960549932232638e-06
205.800000 0.0001389885410442858891 -2.103144723801774065e-05
206.000000 0.0001336981295904437832 -3.563973577413784006e-05
206.200000 0.0001269475408791104101 -4.940657551176418842e-05
206.400000 0.0001188423893277977279 -6.217939791063125884e-05
206.600000 0.0001095052312374380815 -7.381487402041745055e-05
206.800000 9.907608157813313564e-05 -8.418317605507145811e-05
207.000000 8.771178258316270255e-05 -9.317247673166489529e-05
207.200000 7.558408750110640398e-05 -0.0001006931750212178078
207.400000 6.287649271457169703e-05 -0.0001066813597273888584
207.600000 4.978001502532440349e-05 -0.0001111011086093726405
207.800000 3.648824623709906369e-05 -0.0001139453577933404545
208.000000 2.31921067527307677e-05 -0.0001152352445179353628
208.200000 1.007475313742713862e-05 -0.000115018002592356372
208.400000 -2.692931003211153455e-06 -0.0001133636506394962922
208.600000 -1.495591028234713449e-05 -0.0001103608375339992467
208.800000 -2.657740778874712598e-05 -0.0001061122825166341813
209.000000 -3.744006178301999169e-05 -0.0001007302620696004969
209.200000 -4.744588639488962729e-05 -9.433255292953966948e-05
209.400000 -5.651522450369641886e-05 -8.703914946867574948e-05
209.600000 -6.458498015908120812e-05 -7.896994891022269159e-05
209.800000 -7.160647469846646688e-05 -7.024345772576066687e-05
210.000000 -7.754328031100700359e-05 -6.097643602656199741e-05
210.200000 -8.236934868444428413e-05 -5.128428085162302374e-05
210.400000 -8.606767775936900104e-05 -4.12818671139790285e-05
210.600000 -8.862965815206836164e-05 -3.108452456511061693e-05
210.800000 -9.005512685468298518e-05 -2.080883279895808522e-05
211.000000 -9.035304453798853879e-05 -1.057296092649481141e-05
211.200000 -8.954261823632138058e-05 -4.963563329056855462e-07
211.400000 -8.765462469995600125e-05 9.301313364998678082e-06
211.600000 -8.473265856631892489e-05 1.870195267117031015e-05
211.800000 -8.083403626614636879e-05 2.759144900833096088e-05
212.000000 -7.603012887365537471e-05 3.586250019883233543e-05
212.200000 -7.040596810506249287e-05 4.341759831063182729e-05
212.400000 -6.405905913544650341e-05 5.017188449796018283e-05
212.600000 -5.70974296687806835e-05 5.605559975080984491e-05
212.800000 -4.96370343543920924e-05 6.10158995243052191e-05
213.000000 -4.179870621945224352e-05 6.501786959283642334e-05
213.200000 -3.370489409587136998e-05 6.804466678404635374e-05
213.400000 -2.547644254048531037e-05 7.009680050404205561e-05
213.600000 -1.722965791445941371e-05 7.119065799265164465e-05
213.800000 -9.073864214595052984e-06 7.135644805217756636e-05
214.000000 -1.109591028965809832e-06 7.063578686418577838e-05
214.200000 6.572538253543501151e-06 6.907917077962491895e-05
214.400000 1.389222802321644515e-05 6.674357334743851735e-05
214.600000 2.077932488986679869e-05 6.369036937816241071e-05
214.800000 2.717316779527486928e-05 5.998373251178731582e-05
215.000000 3.3021656608150258e-05 5.568958186449235383e-05
215.200000 3.828023811634117857e-05 5.087507663486312478e-05
215.400000 4.291099912986703072e-05 4.560858435503895416e-05
215.600000 4.688202343566703824e-05 3.995998759303335493e-05
215.800000 5.016711701520164881e-05 3.400115270102080915e-05
216.000000 5.274594112706329529e-05 2.78063676362652223e-05
216.200000 5.460452416202933335e-05 2.145256587678651044e-05
216.400000 5.573605985131809139e-05 1.501918850659495143e-05
216.600000 5.614185012763950512e-05 8.587591792304499484e-06
216.800000 5.583222254393891467e-05 2.239975334964912232e-06
217.000000 5.482724857791966382e-05 -3.942123320995118676e-06
217.200000 5.315711071464878593e-05 -9.879657853313056535e-06
217.400000 5.08620094795803442e-05 -1.5498068261033273e-05
217.600000 4.799155987417430633e-05 -2.072925829064297762e-05
217.800000 4.460369101142516994e-05 -2.551337117094254416e-05
218.000000 4.076312347571787987e-05 -2.980020374627636692e-05
218.200000 3.653954725210898226e-05 -3.355014322859494125e-05
218.400000 3.200565255985865043e-05 -3.673456766224941181e-05
218.600000 2.723517352848088373e-05 -3.933571207497172268e-05
218.800000 2.230109099693338941e-05 -4.134605852844679201e-05
219.000000 1.727410972388552311e-05 -4.276735272148235115e-05
219.200000 1.222148316463802262e-05 -4.360937777953485681e-05
219.400000 7.206212843168999837e-06 -4.388862564378279076e-05
219.600000 2.286605942224260029e-06 -4.362699906590908187e-05
219.800000 -2.483860719026210557e-06 -4.285065573792206929e-05
220.000000 -7.056446502543804705e-06 -4.158907486517061979e-05
220.200000 -1.138691098405807535e-05 -3.987439017328540226e-05
220.400000 -1.543522548110379673e-05 -3.774099620628508164e-05
220.600000 -1.916531272075465691e-05 -3.522540037566948307e-05
220.800000 -2.254487951617549564e-05 -3.23662643058641837e-05
221.000000 -2.554538676047802439e-05 -2.920455664993034335e-05
221.200000 -2.814217779763664894e-05 -2.578372724296837092e-05
221.400000 -3.03147621187728666e-05 -2.21498102665931135e-05
221.600000 -3.204722807852096082e-05 -1.835137248203358071e-05
221.800000 -3.332873770130191746e-05 -1.443924120681803344e-05
222.000000 -3.415404056588467504e-05 -1.046597413509025742e-05
222.200000 -3.452393416042590188e-05 -6.485066660488780934e-06
222.400000 -3.444559667363734429e-05 -2.549928204786975943e-06
222.600000 -3.393272592856312402e-05 1.28730747805828091e-06
222.800000 -3.300543496827228359e-05 4.9770467755673629e-06
223.000000 -3.168987918404610942e-05 8.473469277508648893e-06
223.200000 -3.001761896620837344e-05 1.173562226084214789e-05
223.400000 -2.802475173029123003e-05 1.472828296386882479e-05
223.600000 -2.575087346342912743e-05 1.742252122432590055e-05
223.800000 -2.323794863857028307e-05 1.979593001932921059e-05
224.000000 -2.052917559089199818e-05 2.183252981219824712e-05
224.200000 -1.766793108717993656e-05 2.352238859062600541e-05
224.400000 -1.469686364092755961e-05 2.486102790155685636e-05
224.600000 -1.165718268807195783e-05 2.584870239765392941e-05
224.800000 -8.588163827059724678e-06 2.648964480846995118e-05
225.000000 -5.526863185551015412e-06 2.679136037693046748e-05
225.200000 -2.508010514816967283e-06 2.676403699409764177e-05
225.400000 4.359662569138463535e-07 2.642011301770175896e-05
225.600000 3.274841024749552713e-06 2.577401797840241503e-05
225.800000 5.98047058395215511e-06 2.484207570166112656e-05
226.000000 8.526706681910125912e-06 2.36425377044026894e-05
226.200000 1.088937705174148519e-05 2.219569900143080352e-05
226.400000 1.304635844061381444e-05 2.052403965990030486e-05
226.600000 1.497774861210544578e-05 1.865233374507740868e-05
226.800000 1.666612891694294318e-05 1.660767227261128974e-05
227.000000 1.809689554988563325e-05 1.441935756059224772e-05
227.200000 1.925862692541126741e-05 1.21186417604572201e-05
227.400000 2.014344735487002964e-05 9.738300855585167452e-06
227.600000 2.074734391396044719e-05 7.312055270212992786e-06
227.800000 2.107039446791828392e-05 4.873867402808771787e-06
228.000000 2.111687050390851191e-05 2.457162709519098736e-06
228.200000 2.089518858438912138e-05 9.403231965169747192e-08
228.400000 2.041769821488444625e-05 -2.185520147195678589e-06
228.600000 1.970031040693388509e-05 -4.35422785318547638e-06
228.800000 1.876198827979237862e-05 -6.388056961387343855e-06
229.000000 1.762413635987045661e-05 -8.266517632292047618e-06
229.200000 1.630993644860329199e-05 -9.972778734762804609e-06
229.400000 1.484368312721965953e-05 -1.149359743130953893e-05
229.600000 1.325017010160682506e-05 -1.28190948938522132e-05
229.800000 1.155416977589102149e-05 -1.394242449134010885e-05
230.000000 9.780034002292693776e-06 -1.485938687063122293e-05
230.200000 7.951426215462436498e-06 -1.556804664581020096e-05
230.400000 6.091177012485603413e-06 -1.606839841817950338e-05
230.600000 4.221239572566115636e-06 -1.636211714099883939e-05
230.800000 2.36271044728292652e-06 -1.645241167495049126e-05
231.000000 5.358765241663390549e-07 -1.634398321890116558e-05
231.200000 -1.239749463377185603e-06 -1.604307441108889887e-05
231.400000 -2.945435577239263924e-06 -1.555758205098817725e-05
231.600000 -4.563299585422248971e-06 -1.489719775422222287e-05
231.800000 -6.076448093184527647e-06 -1.407353698476721823e-05
232.000000 -7.469182025412277946e-06 -1.310021787215249895e-05
232.200000 -8.727254608209998048e-06 -1.199285668255561314e-05
232.400000 -9.838160701345229189e-06 -1.076895612433970279e-05
232.600000 -1.079143199582570873e-05 -9.447674902460479292e-06
232.800000 -1.157891104505875311e-05 -8.049480887122298416e-06
233.000000 -1.219497799603884275e-05 -6.595704470940150379e-06
233.200000 -1.263670689180575891e-05 -5.108021508361319414e-06
233.400000 -1.290393330535944376e-05 -3.607904977956132017e-06
233.600000 -1.29992216959302044e-05 -2.116089692202624508e-06
233.800000 -1.292772905574690514e-05 -6.520939757095036266e-07
234.000000 -1.269697070569988265e-05 7.661640505442299979e-07
234.200000 -1.231650371448126408e-05 2.122629496190148806e-06
234.400000 -1.179755219534658284e-05 3.403242244090778017e-06
234.600000 -1.11526052936088729e-05 4.59594295450681208e-06
234.800000 -1.039502169623063048e-05 5.69057501343813042e-06
235.000000 -9.538673046340605176e-06 6.678715707579003364e-06
235.200000 -8.597652530670030414e-06 7.553476066229988902e-06
235.400000 -7.586064793492878908e-06 8.30930847030849006e-06
235.600000 -6.517900736819123226e-06 8.941854646203607987e-06
235.800000 -5.406987788560022849e-06 9.447855535278405285e-06
236.000000 -4.266995118419238373e-06 9.825131029040209469e-06
236.200000 -3.111465993196215154e-06 1.007262421150237839e-05
236.400000 -1.953847179442686497e-06 1.0190493794223971e-05
236.600000 -8.074882313848619944e-07 1.018023137189660972e-05
236.800000 3.144091629465818694e-07 1.004477752222890509e-05
237.000000 1.398901434726633964e-06 9.788612261227694399e-06
237.200000 2.433471636901879281e-06 9.417799917670169373e-06
237.400000 3.406244927122703011e-06 8.939974805770033352e-06
237.600000 4.306232437405832318e-06 8.364260911073414766e-06
237.800000 5.12358101570834635e-06 7.701125284396185763e-06
238.000000 5.849805899730636852e-06 6.962170492696626283e-06
238.200000 6.477985918665098333e-06 6.159876224552819686e-06
238.400000 7.002905427229410192e-06 5.307304061643008338e-06
238.600000 7.421132873680168416e-06 4.417782547957383319e-06
238.800000 7.731031861794912923e-06 3.504591863925070621e-06
239.000000 7.932706199241838516e-06 2.580668276652771691e-06
239.200000 8.027885433753931141e-06 1.658347611789793306e-06
239.400000 8.019761610556507567e-06 7.491638631737597599e-07
239.600000 7.912791351363725623e-06 -1.362863810788164018e-07
239.800000 7.712479667136812228e-06 -9.88410392960164296e-07
240.000000 7.425162907917500041e-06 -1.798621749570583667e-06
240.200000 7.057807590101079201e-06 -2.559292022630714145e-06
240.400000 6.617839311465850718e-06 -3.26367136385208568e-06
240.600000 6.113011558777627449e-06 -3.905800994376203702e-06
240.800000 5.551318316181783919e-06 -4.480440127659468401e-06
241.000000 4.940947719576101393e-06 -4.983025494429641289e-06
241.200000 4.290267605649561976e-06 -5.409674152442342946e-06
241.400000 3.607828779528829667e-06 -5.757231073500776968e-06
241.600000 2.902369107783326546e-06 -6.02335385663096089e-06
241.800000 2.182801692140979192e-06 -6.206619529634506463e-06
242.000000 1.458173404037803663e-06 -6.306634037097582867e-06
242.200000 7.375854293189820378e-07 -6.324124255579910668e-06
242.400000 3.007418858472302533e-08 -6.260995038076803721e-06
242.600000 -6.555421323940984473e-07 -6.120339046865862547e-06
242.800000 -1.310840379992973815e-06 -5.906393773813172877e-06
243.000000 -1.927977598003015284e-06 -5.624446900364282798e-06
243.200000 -2.499868140305856007e-06 -5.280696936586601663e-06
243.400000 -3.020337279441503571e-06 -4.882080228747354195e-06
243.600000 -3.484238875319889741e-06 -4.436077687260991844e-06
243.800000 -3.887529036016811408e-06 -3.950515102929200709e-06
244.000000 -4.227292665775006483e-06 -3.433370036566381461e-06
244.200000 -4.50172460688518599e-06 -2.892596396813403308e-06
244.400000 -4.710071189292369947e-06 -2.335975335882194717e-06
244.600000 -4.852541044533196165e-06 -1.770998222356476753e-06
244.800000 -4.930195872596954189e-06 -1.204784331802704649e-06
245.000000 -4.944832452710742013e-06 -6.44032622178610409e-07
245.200000 -4.898866682196600437e-06 -9.500366943872329445e-08
245.400000 -4.795228906066693562e-06 4.364751944458176184e-07
245.600000 -4.637277442059644423e-06 9.449908940092984702e-07
245.800000 -4.428734237408744269e-06 1.425522451481767531e-06
246.000000 -4.173643229268616332e-06 1.873426196320385427e-06
246.200000 -3.876348578321971076e-06 2.28443709654506823e-06
246.400000 -3.541486927212512103e-06 2.654691662315149412e-06
246.600000 -3.17398559552633692e-06 2.980773511592998509e-06
246.800000 -2.779057568421649637e-06 3.25977801425480676e-06
247.000000 -2.362184482748699462e-06 3.489388298970706223e-06
247.200000 -1.929080567171343124e-06 3.667952104380399295e-06
247.400000 -1.485633437625865097e-06 3.794548006495407674e-06
247.600000 -1.03782129164079089e-06 3.869030595228429385e-06
247.800000 -5.91609800969380349e-07 3.892046932770472771e-06
248.000000 -1.528352624832455603e-07 3.865020518427292066e-06
248.200000 2.729172124669460591e-07 3.790103218536619894e-06
248.400000 6.804308178694255979e-07 3.670099437962958503e-06
248.600000 1.064960341893144569e-06 3.508369609277628098e-06
248.800000 1.422314239545930741e-06 3.30872152956281468e-06
249.000000 1.748910732597986907e-06 3.075298172673155032e-06
249.200000 2.041806212725403848e-06 2.812469592870348363e-06
249.400000 2.298697201433379346e-06 2.524734818671484135e-06
249.600000 2.517899639408255191e-06 2.216637639850407884e-06
249.800000 2.698311053569645573e-06 1.892698275437681502e-06
250.000000 2.839362056320724237e-06 1.55736126728312384e-06
250.200000 2.940963644458050988e-06 1.214958625383686824e-06
250.400000 3.003456018971655247e-06 8.696861849219557399e-07
250.600000 3.02756335274962974e-06 5.255902264712123787e-07
250.800000 3.014357285184452276e-06 1.865606395623068847e-07
251.000000 2.965230171298806405e-06 -1.436736608598883439e-07
251.200000 2.881877475878482878e-06 -4.615515639182947876e-07
251.400000 2.766287310004556627e-06 -7.636929818383682687e-07
251.600000 2.620734082534477287e-06 -1.046921551215851545e-06
251.800000 2.447772649838905118e-06 -1.308298185957467954e-06
252.000000 2.250229211692368381e-06 -1.545164662613055737e-06
252.200000 2.031185525903729559e-06 -1.755194151034664193e-06
252.400000 1.793953751803469985e-06 -1.936443719239125115e-06
252.600000 1.542040281462688276e-06 -2.087402761282754289e-06
252.800000 1.279098167337517834e-06 -2.207031284073156313e-06
253.000000 1.008869087384839444e-06 -2.294783069398871548e-06
253.200000 7.351170201869795293e-07 -2.350610657145604121e-06
253.400000 4.615568258233431121e-07 -2.374951453719955663e-06
253.600000 1.917816460222330293e-07 -2.368696561065648435e-06
253.800000 -7.080661361631016461e-08 -2.333145708605094449e-06
254.000000 -3.230594994550994385e-07 -2.269952681807203398e-06
254.200000 -5.621331419347856966e-07 -2.181065827893772634e-06
254.400000 -7.855253524383149806e-07 -2.068667738390518037e-06
254.600000 -9.910969129487380419e-07 -1.935117345370772192e-06
254.800000 -1.177076722135761776e-06 -1.782896751506030906e-06
255.000000 -1.342052058045582421e-06 -1.614564357684091074e-06
255.200000 -1.484946787964140927e-06 -1.432715344035707976e-06
255.400000 -1.604991661438157244e-06 -1.239950228230707279e-06
255.600000 -1.701691637252947115e-06 -1.038851885557606207e-06
255.800000 -1.77479532069965885e-06 -8.319708720219776906e-07
256.000000 -1.824270918113413911e-06 -6.218180410494749096e-07
256.200000 -1.850291700439266052e-06 -4.10862337666343371e-07
256.400000 -1.853232005555763568e-06 -2.015305195197087201e-07
256.600000 -1.833672610259273687e-06 3.79524563451494728e-09
256.800000 -1.792412280274704702e-06 2.027860665156338755e-07
257.000000 -1.730480873211164637e-06 3.931846496518032421e-07
257.200000 -1.64914880482771469e-06 5.728348641813755788e-07
257.400000 -1.549928125843337803e-06 7.397217598251757226e-07
257.600000 -1.43456182020373661e-06 8.920187001698403353e-07
257.800000 -1.304999936885267358e-06 1.028136191848642568e-06
258.000000 -1.163363389567077991e-06 1.146765928835874602e-06
258.200000 -1.01189823916838874e-06 1.246913858603057977e-06
258.400000 -8.529246168589047023e-07 1.327917700377708366e-06
258.600000 -6.887848888236537797e-07 1.389446937593295861e-06
258.800000 -5.217952088971661886e-07 1.431486261521256669e-06
259.000000 -3.542034575230776548e-07 1.454306056778414534e-06
259.200000 -1.881550543797933645e-07 1.45842519007501153e-06
259.400000 -2.566668853681331493e-08 1.444571761781584041e-06
259.600000 1.313930264068564265e-07 1.413646632855201172e-06
259.800000 2.813174145534820558e-07 1.366692786491019771e-06
260.000000 4.225714226060486605e-07 1.304871492316019439e-06
260.200000 5.537979113490080029e-07 1.22944440830145117e-06
260.400000 6.738207393671714865e-07 1.141759633737832633e-06
260.600000 7.816444664001689674e-07 1.043239502690540603e-06
260.800000 8.764505625268348166e-07 9.353684814664585952e-07
261.000000 9.575905060701932196e-07 8.196805434240993409e-07
261.200000 1.024576920706497718e-06 6.977463742166708029e-07
261.400000 1.07707463151176652e-06 5.711612983293709162e-07
261.600000 1.114893880799256205e-06 4.415346927068516255e-07
261.800000 1.137987708410754478e-06 3.104809074230713771e-07
262.000000 1.14645459230517854e-06 1.796106467600089071e-07
262.200000 1.140546017193461779e-06 5.052082023750027788e-08
262.400000 1.120677034426590185e-06 -7.521951672189885004e-08
262.600000 1.08743653696593301e-06 -1.960890815537714061e-07
262.800000 1.04159329743672727e-06 -3.106408283416615061e-07
263.000000 9.840940658103545098e-07 -4.175338356136183499e-07
263.200000 9.160512120957139319e-07 -5.155676384733302812e-07
263.400000 8.387192862665132916e-07 -6.037146682891060991e-07
263.600000 7.53462015429212587e-07 -6.811460555042110967e-07
263.800000 6.617131465521941101e-07 -7.472467890019940444e-07
264.000000 5.649356995896305307e-07 -8.016179783395934797e-07
264.200000 4.645843335269403511e-07 -8.440663146109098971e-07
264.400000 3.620746356313332981e-07 -8.745831759801776492e-07
264.600000 2.587614686472825675e-07 -8.93317580435195699e-07
264.800000 1.559265069624983332e-07 -9.00547917319235986e-07
265.000000 5.477327842934341787e-08 -8.966569525275071764e-07
265.200000 -4.357315103333246797e-08 -8.821131784289819962e-07
265.400000 -1.380650203591051822e-07 -8.574596015847329279e-07
265.600000 -2.27731856465360746e-07 -8.233090889699529447e-07
265.800000 -3.116830484331783017e-07 -7.803439382436264778e-07
266.000000 -3.891131023584350125e-07 -7.293167212038757868e-07
266.200000 -4.593085392743309915e-07 -6.710497231420152029e-07
266.400000 -5.216548225928465499e-07 -6.064312537401752977e-07
266.600000 -5.756417992881408615e-07 -5.364083454309853476e-07
266.800000 -6.208668011869973623e-07 -4.619764536079922647e-07
267.000000 -6.570354950335282399e-07 -3.841673918548688925e-07
267.200000 -6.83961420472661809e-07 -3.04036744033653581e-07
267.400000 -7.015655921406604081e-07 -2.226514805292123621e-07
267.600000 -7.098773828975335616e-07 -1.410777409314098407e-07
267.800000 -7.090371801163931161e-07 -6.036808129739844692e-08
268.000000 -6.993002430324089131e-07 1.845278283473292691e-08
268.200000 -6.810401334463314335e-07 9.440442884864299172e-08
268.400000 -6.547494212121861743e-07 1.665693004735890022e-07
268.600000 -6.210353376856616634e-07 2.341123195676020104e-07
268.800000 -5.80608748565173278e-07 2.962995448694087121e-07
269.000000 -5.342660960817666897e-07 3.525134108856668675e-07
269.200000 -4.828654982923154736e-07 4.022622469804296231e-07
269.400000 -4.272995666530784252e-07 4.451825966545004661e-07
269.600000 -3.684683426349844272e-07 4.810341415226909027e-07
269.800000 -3.0725579101277796e-07 5.096884422807628012e-07
270.000000 -2.445125251637330152e-07 5.311138602583783699e-07
270.200000 -1.810460490372887042e-07 5.453596044887598222e-07
270.400000 -1.176181602898881848e-07 5.52541716713536347e-07
270.600000 -5.494768636638004741e-08 5.52833014956802947e-07
270.800000 6.284211929780357357e-09 5.464578102259713779e-07
271.000000 6.5429128888884181e-08 5.336909300035452516e-07
271.200000 1.218693099612051272e-07 5.148595726307846171e-07
271.400000 1.750196857282061465e-07 4.903460156520880402e-07
271.600000 2.243340800733744421e-07 4.60589283241914744e-07
271.800000 2.693144848198672052e-07 4.260844369369694884e-07
272.000000 3.095215868229161896e-07 3.873789596490499553e-07
272.200000 3.445845993393753832e-07 3.450664744656983172e-07
272.400000 3.742088545356158173e-07 2.99778544025752039e-07
272.600000 3.981803663042596215e-07 2.521754212049804761e-07
272.800000 4.163674015234347143e-07 2.029363969521241847e-07
273.000000 4.287197445453952648e-07 1.527499714949362952e-07
273.200000 4.35266615435481511e-07 1.023036734106458269e-07
273.400000 4.361140726361967652e-07 5.227316202352372587e-08
273.600000 4.314422791289066745e-07 3.31037167537340394e-09
273.800000 4.215024426869387703e-07 -4.396913158086997639e-08
274.000000 4.066127743057842576e-07 -8.899885453065878436e-08
274.200000 3.871526333329442379e-07 -1.312729266903669607e-07
274.400000 3.635542191643280458e-07 -1.703550588425500165e-07
274.600000 3.362916824658553254e-07 -2.058836474606500895e-07
274.800000 3.058682040178421354e-07 -2.37572327885235827e-07
275.000000 2.728022129044935825e-07 -2.652061069421191056e-07
275.200000 2.376142848226500424e-07 -2.886340731156495003e-07
275.400000 2.00816248465148953e-07 -3.077603463658724227e-07
275.600000 1.629036238283787106e-07 -3.22535198384401524e-07
275.800000 1.243518218324219862e-07 -3.329480711260254967e-07
276.000000 8.561573811606023574e-08 -3.390236044377806392e-07
276.200000 4.713168428012057851e-08 -3.408209276711341993e-07
276.400000 9.320188703629836289e-09 -3.384356129797861671e-07
276.600000 -2.741184267608336832e-08 -3.32003055591857098e-07
276.800000 -6.267080469150140223e-08 -3.217017926486018913e-07
277.000000 -9.607855248120410156e-08 -3.077554255807413248e-07
277.200000 -1.272770386566397543e-07 -2.904322896069983476e-07
277.400000 -1.559348579179265713e-07 -2.70042642390537196e-07
277.600000 -1.81754761848908419e-07 -2.469337208872363036e-07
277.800000 -2.044810967079389875e-07 -2.214833799882423364e-07
278.000000 -2.239062426383987774e-07 -1.940930987994454198e-07
278.200000 -2.398754150562725202e-07 -1.65180945394084581e-07
278.400000 -2.522895221276994856e-07 -1.351747458749450842e-07
278.600000 -2.611060587292634261e-07 -1.045053630910415513e-07
278.800000 -2.663381982166268392e-07 -7.359980024185514357e-08
279.000000 -2.680523080880073346e-07 -4.287388200937627033e-08
279.200000 -2.663640999198742376e-07 -1.272452178484022904e-08
279.400000 -2.614335867791541263e-07 1.647804175148809755e-08
279.600000 -2.534590205241220044e-07 4.439730802704184715e-08
279.800000 -2.42670043347824854e-07 7.073597595516238824e-08
280.000000 -2.293204087971951324e-07 9.523899532940521547e-08
280.200000 -2.136807562212089881e-07 1.176937681829778576e-07
280.400000 -1.9603200345447913e-07 1.379276132795287755e-07
280.600000 -1.766598973909834918e-07 1.558031916688790356e-07
280.800000 -1.558511102268675434e-07 1.712130387972386776e-07
281.000000 -1.338910087879401373e-07 1.840745217363091661e-07
281.200000 -1.11062911578478294e-07 1.943263833247170176e-07
281.400000 -8.764836221478685076e-08 2.019275858848301349e-07
281.600000 -6.392776297899930269e-08 2.068585474717788864e-07
281.800000 -4.018067321209803526e-08 2.091242424544239562e-07
282.000000 -1.668519317675026137e-08 2.087581771496767858e-07
282.200000 6.283911161449995361e-09 2.058260653148355857e-07
282.400000 2.845839776204991323e-08 2.00428146671808512e-07
282.600000 4.958083314935386076e-08 1.926994602750057618e-07
282.800000 6.940955570463427919e-08 1.828078834987462911e-07
283.000000 8.77238090928711612e-08 1.709502296731345312e-07
283.200000 1.043285539042637479e-07 1.573470376579836782e-07
283.400000 1.190585596928477211e-07 1.422368093315592421e-07
283.600000 1.317815106507783029e-07 1.258703572737049586e-07
283.800000 1.423999860290037913e-07 1.085056769029594308e-07
284.000000 1.508522719023711021e-07 9.040345932529605806e-08
284.200000 1.571120210488739675e-07 7.182311965777635463e-08
284.400000 1.611868096792216597e-07 5.30191056452108538e-08
284.600000 1.631156725201028905e-07 3.423729333913759406e-08
284.800000 1.629657477474949958e-07 1.571143607658761154e-08
285.000000 1.6082823973955149e-07 -2.340166544592426616e-09
285.200000 1.56814000528302566e-07 -1.971745915814915551e-08
285.400000 1.510491115920438136e-07 -3.624052042830001204e-08
285.600000 1.436708817766019807e-07 -5.175029404204120111e-08
285.800000 1.348246376640155687e-07 -6.610812155572808707e-08
286.000000 1.246615599289622057e-07 -7.919430753998791394e-08
286.200000 1.133376283143342504e-07 -9.090618520945487922e-08
286.400000 1.010135175900340342e-07 -1.011562767231659374e-07
286.600000 8.785509011085837226e-08 -1.098711155624474118e-07
286.800000 7.403400587682454325e-08 -1.169911191251028886e-07
287.000000 5.972795224194444143e-08 -1.224716162687754885e-07
287.200000 4.512008768858648865e-08 -1.262848223423834344e-07
287.400000 3.039747243816868353e-08 -1.284222982280207193e-07
287.600000 1.57484772586393098e-08 -1.288972914183537445e-07
287.800000 1.359368442628116288e-09 -1.277463702278076351e-07
288.000000 -1.258958626829787393e-08 -1.250299124722720345e-07
288.200000 -2.592808185496790721e-08 -1.208312506478746287e-07
288.400000 -3.849942371147217841e-08 -1.152545398166947854e-07
288.600000 -5.016356112276036668e-08 -1.084216357262821827e-07
288.800000 -6.079933130889646189e-08 -1.004683981876050373e-07
289.000000 -7.030586408466094708e-08 -9.15408544192695418e-08
289.200000 -7.860319406072464708e-08 -8.179158041908091337e-08
289.400000 -8.563218801570507855e-08 -7.137652042310131864e-08
289.600000 -9.135391881075134212e-08 -6.045231986458468428e-08
289.800000 -9.574861708466249781e-08 -4.91741304803493429e-08
290.000000 -9.881432044734983344e-08 -3.769378476787232234e-08
290.200000 -1.005653320082303685e-07 -2.615823431355719439e-08
290.400000 -1.010305939540447133e-07 -1.470818815291457883e-08
290.600000 -1.002520833471548784e-07 -3.476940298446513743e-09
290.800000 -9.828332888219695693e-08 7.410583703508330857e-09
291.000000 -9.518812696679219495e-08 1.783852214980752914e-08
291.200000 -9.103949560281028786e-08 2.770050060589454925e-08
291.400000 -8.591885453882565258e-08 3.689982350227169723e-08
291.600000 -7.991536879710225697e-08 4.534952768214889555e-08
291.800000 -7.312535389523298459e-08 5.297243323679510321e-08
292.000000 -6.56516320572874187e-08 5.970133114767357294e-08
292.200000 -5.760274635735148903e-08 6.547941307990032958e-08
292.400000 -4.909198376928837726e-08 7.026098060203092038e-08
292.600000 -4.023620832338985101e-08 7.401238328274607058e-08
292.800000 -3.115454382966872547e-08 7.67130588519615594e-08
293.000000 -2.196695894057029992e-08 7.83564916327170263e-08
293.200000 -1.279279243698527423e-08 7.895089070630178608e-08
293.400000 -3.74922116462607065e-09 7.85194144869165815e-08
293.600000 5.050359449881485027e-09 7.709983155902196358e-08
293.800000 1.349808356248179694e-08 7.47435895473174349e-08
294.000000 2.14935057662089193e-08 7.151434912803106459e-08
294.200000 2.894558331989927664e-08 6.748611032959838845e-08
294.400000 3.577461312742731906e-08 6.274110023734052233e-08
294.600000 4.191390944525058607e-08 5.736759987533756811e-08
294.800000 4.731097166785444304e-08 5.145786621362857183e-08
295.000000 5.192792016750566338e-08 4.510626605816956989e-08
295.200000 5.574107706929373787e-08 3.840768652682897107e-08
295.400000 5.873972326817496845e-08 3.145623881552581341e-08
295.600000 6.092423369739787526e-08 2.434423448220026745e-08
295.800000 6.230393431216934599e-08 1.716139561106357145e-08
296.000000 6.289509474596351211e-08 9.994249451387148104e-09
296.200000 6.271943911290403741e-08 2.925660835332486596e-09
296.400000 6.180342837766147653e-08 -3.965541226294232755e-09
296.600000 6.017836481463643329e-08 -1.060488187485417267e-08
296.800000 5.788114813197160585e-08 -1.692254340567128471e-08
297.000000 5.495533024673080849e-08 -2.285369352709463574e-08
297.200000 5.145202519320590689e-08 -2.833887777542172829e-08
297.400000 4.74302603761266333e-08 -3.332450740821368587e-08
297.600000 4.295649896214171806e-08 -3.776345893670927083e-08
297.800000 3.810328204185362279e-08 -4.161577538562821142e-08
298.000000 3.294717181106403931e-08 -4.484942888947993635e-08
298.200000 2.756635652733254185e-08 -4.744107604073181482e-08
298.400000 2.203835403243291361e-08 -4.937671209583428724e-08
298.600000 1.643820088893816417e-08 -5.065212347820749715e-08
298.800000 1.083735770346067841e-08 -5.127304613121858552e-08
299.000000 5.303343755946902482e-09 -5.125496447619041503e-08
299.200000 -1.000942364611496787e-10 -5.06225288692230775e-08
299.400000 -5.312613818665023113e-09 -4.940861909167853518e-08
299.600000 -1.027707212474244596e-08 -4.765312953556700266e-08
299.800000 -1.493975913155526061e-08 -4.540158874506212443e-08
300.000000 -1.925116777947950389e-08 -4.270374163357669055e-08
