%!PS-Adobe-2.0 EPSF-2.0
%%Title: Plots/Plot_Ham_x_VarNA.eps
%%Creator: gnuplot 4.2 patchlevel 3 
%%CreationDate: Fri Jan 20 11:14:44 2017
%%DocumentFonts: (atend)
%%BoundingBox: 50 50 410 302
%%EndComments
%%BeginProlog
/gnudict 256 dict def
gnudict begin
%
% The following 6 true/false flags may be edited by hand if required
% The unit line width may also be changed
%
/Color true def
/Blacktext false def
/Solid false def
/Dashlength 1 def
/Landscape false def
/Level1 false def
/Rounded false def
/TransparentPatterns false def
/gnulinewidth 5.000 def
/userlinewidth gnulinewidth def
%
/vshift -46 def
/dl1 {
  10.0 Dashlength mul mul
  Rounded { currentlinewidth 0.75 mul sub dup 0 le { pop 0.01 } if } if
} def
/dl2 {
  10.0 Dashlength mul mul
  Rounded { currentlinewidth 0.75 mul add } if
} def
/hpt_ 31.5 def
/vpt_ 31.5 def
/hpt hpt_ def
/vpt vpt_ def
Level1 {} {
/SDict 10 dict def
systemdict /pdfmark known not {
  userdict /pdfmark systemdict /cleartomark get put
} if
SDict begin [
  /Title (Plots/Plot_Ham_x_VarNA.eps)
  /Subject (gnuplot plot)
  /Creator (gnuplot 4.2 patchlevel 3 )
  /Author (Helvi Witek)
%  /Producer (gnuplot)
%  /Keywords ()
  /CreationDate (Fri Jan 20 11:14:44 2017)
  /DOCINFO pdfmark
end
} ifelse
%
% Gnuplot Prolog Version 4.2 (November 2007)
%
/M {moveto} bind def
/L {lineto} bind def
/R {rmoveto} bind def
/V {rlineto} bind def
/N {newpath moveto} bind def
/Z {closepath} bind def
/C {setrgbcolor} bind def
/f {rlineto fill} bind def
/Gshow {show} def   % May be redefined later in the file to support UTF-8
/vpt2 vpt 2 mul def
/hpt2 hpt 2 mul def
/Lshow {currentpoint stroke M 0 vshift R 
	Blacktext {gsave 0 setgray show grestore} {show} ifelse} def
/Rshow {currentpoint stroke M dup stringwidth pop neg vshift R
	Blacktext {gsave 0 setgray show grestore} {show} ifelse} def
/Cshow {currentpoint stroke M dup stringwidth pop -2 div vshift R 
	Blacktext {gsave 0 setgray show grestore} {show} ifelse} def
/UP {dup vpt_ mul /vpt exch def hpt_ mul /hpt exch def
  /hpt2 hpt 2 mul def /vpt2 vpt 2 mul def} def
/DL {Color {setrgbcolor Solid {pop []} if 0 setdash}
 {pop pop pop 0 setgray Solid {pop []} if 0 setdash} ifelse} def
/BL {stroke userlinewidth 2 mul setlinewidth
	Rounded {1 setlinejoin 1 setlinecap} if} def
/AL {stroke userlinewidth 2 div setlinewidth
	Rounded {1 setlinejoin 1 setlinecap} if} def
/UL {dup gnulinewidth mul /userlinewidth exch def
	dup 1 lt {pop 1} if 10 mul /udl exch def} def
/PL {stroke userlinewidth setlinewidth
	Rounded {1 setlinejoin 1 setlinecap} if} def
% Default Line colors
/LCw {1 1 1} def
/LCb {0 0 0} def
/LCa {0 0 0} def
/LC0 {1 0 0} def
/LC1 {0 1 0} def
/LC2 {0 0 1} def
/LC3 {1 0 1} def
/LC4 {0 1 1} def
/LC5 {1 1 0} def
/LC6 {0 0 0} def
/LC7 {1 0.3 0} def
/LC8 {0.5 0.5 0.5} def
% Default Line Types
/LTw {PL [] 1 setgray} def
/LTb {BL [] LCb DL} def
/LTa {AL [1 udl mul 2 udl mul] 0 setdash LCa setrgbcolor} def
/LT0 {PL [] LC0 DL} def
/LT1 {PL [4 dl1 2 dl2] LC1 DL} def
/LT2 {PL [2 dl1 3 dl2] LC2 DL} def
/LT3 {PL [1 dl1 1.5 dl2] LC3 DL} def
/LT4 {PL [6 dl1 2 dl2 1 dl1 2 dl2] LC4 DL} def
/LT5 {PL [3 dl1 3 dl2 1 dl1 3 dl2] LC5 DL} def
/LT6 {PL [2 dl1 2 dl2 2 dl1 6 dl2] LC6 DL} def
/LT7 {PL [1 dl1 2 dl2 6 dl1 2 dl2 1 dl1 2 dl2] LC7 DL} def
/LT8 {PL [2 dl1 2 dl2 2 dl1 2 dl2 2 dl1 2 dl2 2 dl1 4 dl2] LC8 DL} def
/Pnt {stroke [] 0 setdash gsave 1 setlinecap M 0 0 V stroke grestore} def
/Dia {stroke [] 0 setdash 2 copy vpt add M
  hpt neg vpt neg V hpt vpt neg V
  hpt vpt V hpt neg vpt V closepath stroke
  Pnt} def
/Pls {stroke [] 0 setdash vpt sub M 0 vpt2 V
  currentpoint stroke M
  hpt neg vpt neg R hpt2 0 V stroke
 } def
/Box {stroke [] 0 setdash 2 copy exch hpt sub exch vpt add M
  0 vpt2 neg V hpt2 0 V 0 vpt2 V
  hpt2 neg 0 V closepath stroke
  Pnt} def
/Crs {stroke [] 0 setdash exch hpt sub exch vpt add M
  hpt2 vpt2 neg V currentpoint stroke M
  hpt2 neg 0 R hpt2 vpt2 V stroke} def
/TriU {stroke [] 0 setdash 2 copy vpt 1.12 mul add M
  hpt neg vpt -1.62 mul V
  hpt 2 mul 0 V
  hpt neg vpt 1.62 mul V closepath stroke
  Pnt} def
/Star {2 copy Pls Crs} def
/BoxF {stroke [] 0 setdash exch hpt sub exch vpt add M
  0 vpt2 neg V hpt2 0 V 0 vpt2 V
  hpt2 neg 0 V closepath fill} def
/TriUF {stroke [] 0 setdash vpt 1.12 mul add M
  hpt neg vpt -1.62 mul V
  hpt 2 mul 0 V
  hpt neg vpt 1.62 mul V closepath fill} def
/TriD {stroke [] 0 setdash 2 copy vpt 1.12 mul sub M
  hpt neg vpt 1.62 mul V
  hpt 2 mul 0 V
  hpt neg vpt -1.62 mul V closepath stroke
  Pnt} def
/TriDF {stroke [] 0 setdash vpt 1.12 mul sub M
  hpt neg vpt 1.62 mul V
  hpt 2 mul 0 V
  hpt neg vpt -1.62 mul V closepath fill} def
/DiaF {stroke [] 0 setdash vpt add M
  hpt neg vpt neg V hpt vpt neg V
  hpt vpt V hpt neg vpt V closepath fill} def
/Pent {stroke [] 0 setdash 2 copy gsave
  translate 0 hpt M 4 {72 rotate 0 hpt L} repeat
  closepath stroke grestore Pnt} def
/PentF {stroke [] 0 setdash gsave
  translate 0 hpt M 4 {72 rotate 0 hpt L} repeat
  closepath fill grestore} def
/Circle {stroke [] 0 setdash 2 copy
  hpt 0 360 arc stroke Pnt} def
/CircleF {stroke [] 0 setdash hpt 0 360 arc fill} def
/C0 {BL [] 0 setdash 2 copy moveto vpt 90 450 arc} bind def
/C1 {BL [] 0 setdash 2 copy moveto
	2 copy vpt 0 90 arc closepath fill
	vpt 0 360 arc closepath} bind def
/C2 {BL [] 0 setdash 2 copy moveto
	2 copy vpt 90 180 arc closepath fill
	vpt 0 360 arc closepath} bind def
/C3 {BL [] 0 setdash 2 copy moveto
	2 copy vpt 0 180 arc closepath fill
	vpt 0 360 arc closepath} bind def
/C4 {BL [] 0 setdash 2 copy moveto
	2 copy vpt 180 270 arc closepath fill
	vpt 0 360 arc closepath} bind def
/C5 {BL [] 0 setdash 2 copy moveto
	2 copy vpt 0 90 arc
	2 copy moveto
	2 copy vpt 180 270 arc closepath fill
	vpt 0 360 arc} bind def
/C6 {BL [] 0 setdash 2 copy moveto
	2 copy vpt 90 270 arc closepath fill
	vpt 0 360 arc closepath} bind def
/C7 {BL [] 0 setdash 2 copy moveto
	2 copy vpt 0 270 arc closepath fill
	vpt 0 360 arc closepath} bind def
/C8 {BL [] 0 setdash 2 copy moveto
	2 copy vpt 270 360 arc closepath fill
	vpt 0 360 arc closepath} bind def
/C9 {BL [] 0 setdash 2 copy moveto
	2 copy vpt 270 450 arc closepath fill
	vpt 0 360 arc closepath} bind def
/C10 {BL [] 0 setdash 2 copy 2 copy moveto vpt 270 360 arc closepath fill
	2 copy moveto
	2 copy vpt 90 180 arc closepath fill
	vpt 0 360 arc closepath} bind def
/C11 {BL [] 0 setdash 2 copy moveto
	2 copy vpt 0 180 arc closepath fill
	2 copy moveto
	2 copy vpt 270 360 arc closepath fill
	vpt 0 360 arc closepath} bind def
/C12 {BL [] 0 setdash 2 copy moveto
	2 copy vpt 180 360 arc closepath fill
	vpt 0 360 arc closepath} bind def
/C13 {BL [] 0 setdash 2 copy moveto
	2 copy vpt 0 90 arc closepath fill
	2 copy moveto
	2 copy vpt 180 360 arc closepath fill
	vpt 0 360 arc closepath} bind def
/C14 {BL [] 0 setdash 2 copy moveto
	2 copy vpt 90 360 arc closepath fill
	vpt 0 360 arc} bind def
/C15 {BL [] 0 setdash 2 copy vpt 0 360 arc closepath fill
	vpt 0 360 arc closepath} bind def
/Rec {newpath 4 2 roll moveto 1 index 0 rlineto 0 exch rlineto
	neg 0 rlineto closepath} bind def
/Square {dup Rec} bind def
/Bsquare {vpt sub exch vpt sub exch vpt2 Square} bind def
/S0 {BL [] 0 setdash 2 copy moveto 0 vpt rlineto BL Bsquare} bind def
/S1 {BL [] 0 setdash 2 copy vpt Square fill Bsquare} bind def
/S2 {BL [] 0 setdash 2 copy exch vpt sub exch vpt Square fill Bsquare} bind def
/S3 {BL [] 0 setdash 2 copy exch vpt sub exch vpt2 vpt Rec fill Bsquare} bind def
/S4 {BL [] 0 setdash 2 copy exch vpt sub exch vpt sub vpt Square fill Bsquare} bind def
/S5 {BL [] 0 setdash 2 copy 2 copy vpt Square fill
	exch vpt sub exch vpt sub vpt Square fill Bsquare} bind def
/S6 {BL [] 0 setdash 2 copy exch vpt sub exch vpt sub vpt vpt2 Rec fill Bsquare} bind def
/S7 {BL [] 0 setdash 2 copy exch vpt sub exch vpt sub vpt vpt2 Rec fill
	2 copy vpt Square fill Bsquare} bind def
/S8 {BL [] 0 setdash 2 copy vpt sub vpt Square fill Bsquare} bind def
/S9 {BL [] 0 setdash 2 copy vpt sub vpt vpt2 Rec fill Bsquare} bind def
/S10 {BL [] 0 setdash 2 copy vpt sub vpt Square fill 2 copy exch vpt sub exch vpt Square fill
	Bsquare} bind def
/S11 {BL [] 0 setdash 2 copy vpt sub vpt Square fill 2 copy exch vpt sub exch vpt2 vpt Rec fill
	Bsquare} bind def
/S12 {BL [] 0 setdash 2 copy exch vpt sub exch vpt sub vpt2 vpt Rec fill Bsquare} bind def
/S13 {BL [] 0 setdash 2 copy exch vpt sub exch vpt sub vpt2 vpt Rec fill
	2 copy vpt Square fill Bsquare} bind def
/S14 {BL [] 0 setdash 2 copy exch vpt sub exch vpt sub vpt2 vpt Rec fill
	2 copy exch vpt sub exch vpt Square fill Bsquare} bind def
/S15 {BL [] 0 setdash 2 copy Bsquare fill Bsquare} bind def
/D0 {gsave translate 45 rotate 0 0 S0 stroke grestore} bind def
/D1 {gsave translate 45 rotate 0 0 S1 stroke grestore} bind def
/D2 {gsave translate 45 rotate 0 0 S2 stroke grestore} bind def
/D3 {gsave translate 45 rotate 0 0 S3 stroke grestore} bind def
/D4 {gsave translate 45 rotate 0 0 S4 stroke grestore} bind def
/D5 {gsave translate 45 rotate 0 0 S5 stroke grestore} bind def
/D6 {gsave translate 45 rotate 0 0 S6 stroke grestore} bind def
/D7 {gsave translate 45 rotate 0 0 S7 stroke grestore} bind def
/D8 {gsave translate 45 rotate 0 0 S8 stroke grestore} bind def
/D9 {gsave translate 45 rotate 0 0 S9 stroke grestore} bind def
/D10 {gsave translate 45 rotate 0 0 S10 stroke grestore} bind def
/D11 {gsave translate 45 rotate 0 0 S11 stroke grestore} bind def
/D12 {gsave translate 45 rotate 0 0 S12 stroke grestore} bind def
/D13 {gsave translate 45 rotate 0 0 S13 stroke grestore} bind def
/D14 {gsave translate 45 rotate 0 0 S14 stroke grestore} bind def
/D15 {gsave translate 45 rotate 0 0 S15 stroke grestore} bind def
/DiaE {stroke [] 0 setdash vpt add M
  hpt neg vpt neg V hpt vpt neg V
  hpt vpt V hpt neg vpt V closepath stroke} def
/BoxE {stroke [] 0 setdash exch hpt sub exch vpt add M
  0 vpt2 neg V hpt2 0 V 0 vpt2 V
  hpt2 neg 0 V closepath stroke} def
/TriUE {stroke [] 0 setdash vpt 1.12 mul add M
  hpt neg vpt -1.62 mul V
  hpt 2 mul 0 V
  hpt neg vpt 1.62 mul V closepath stroke} def
/TriDE {stroke [] 0 setdash vpt 1.12 mul sub M
  hpt neg vpt 1.62 mul V
  hpt 2 mul 0 V
  hpt neg vpt -1.62 mul V closepath stroke} def
/PentE {stroke [] 0 setdash gsave
  translate 0 hpt M 4 {72 rotate 0 hpt L} repeat
  closepath stroke grestore} def
/CircE {stroke [] 0 setdash 
  hpt 0 360 arc stroke} def
/Opaque {gsave closepath 1 setgray fill grestore 0 setgray closepath} def
/DiaW {stroke [] 0 setdash vpt add M
  hpt neg vpt neg V hpt vpt neg V
  hpt vpt V hpt neg vpt V Opaque stroke} def
/BoxW {stroke [] 0 setdash exch hpt sub exch vpt add M
  0 vpt2 neg V hpt2 0 V 0 vpt2 V
  hpt2 neg 0 V Opaque stroke} def
/TriUW {stroke [] 0 setdash vpt 1.12 mul add M
  hpt neg vpt -1.62 mul V
  hpt 2 mul 0 V
  hpt neg vpt 1.62 mul V Opaque stroke} def
/TriDW {stroke [] 0 setdash vpt 1.12 mul sub M
  hpt neg vpt 1.62 mul V
  hpt 2 mul 0 V
  hpt neg vpt -1.62 mul V Opaque stroke} def
/PentW {stroke [] 0 setdash gsave
  translate 0 hpt M 4 {72 rotate 0 hpt L} repeat
  Opaque stroke grestore} def
/CircW {stroke [] 0 setdash 
  hpt 0 360 arc Opaque stroke} def
/BoxFill {gsave Rec 1 setgray fill grestore} def
/Density {
  /Fillden exch def
  currentrgbcolor
  /ColB exch def /ColG exch def /ColR exch def
  /ColR ColR Fillden mul Fillden sub 1 add def
  /ColG ColG Fillden mul Fillden sub 1 add def
  /ColB ColB Fillden mul Fillden sub 1 add def
  ColR ColG ColB setrgbcolor} def
/BoxColFill {gsave Rec PolyFill} def
/PolyFill {gsave Density fill grestore grestore} def
/h {rlineto rlineto rlineto gsave closepath fill grestore} bind def
%
% PostScript Level 1 Pattern Fill routine for rectangles
% Usage: x y w h s a XX PatternFill
%	x,y = lower left corner of box to be filled
%	w,h = width and height of box
%	  a = angle in degrees between lines and x-axis
%	 XX = 0/1 for no/yes cross-hatch
%
/PatternFill {gsave /PFa [ 9 2 roll ] def
  PFa 0 get PFa 2 get 2 div add PFa 1 get PFa 3 get 2 div add translate
  PFa 2 get -2 div PFa 3 get -2 div PFa 2 get PFa 3 get Rec
  gsave 1 setgray fill grestore clip
  currentlinewidth 0.5 mul setlinewidth
  /PFs PFa 2 get dup mul PFa 3 get dup mul add sqrt def
  0 0 M PFa 5 get rotate PFs -2 div dup translate
  0 1 PFs PFa 4 get div 1 add floor cvi
	{PFa 4 get mul 0 M 0 PFs V} for
  0 PFa 6 get ne {
	0 1 PFs PFa 4 get div 1 add floor cvi
	{PFa 4 get mul 0 2 1 roll M PFs 0 V} for
 } if
  stroke grestore} def
%
/languagelevel where
 {pop languagelevel} {1} ifelse
 2 lt
	{/InterpretLevel1 true def}
	{/InterpretLevel1 Level1 def}
 ifelse
%
% PostScript level 2 pattern fill definitions
%
/Level2PatternFill {
/Tile8x8 {/PaintType 2 /PatternType 1 /TilingType 1 /BBox [0 0 8 8] /XStep 8 /YStep 8}
	bind def
/KeepColor {currentrgbcolor [/Pattern /DeviceRGB] setcolorspace} bind def
<< Tile8x8
 /PaintProc {0.5 setlinewidth pop 0 0 M 8 8 L 0 8 M 8 0 L stroke} 
>> matrix makepattern
/Pat1 exch def
<< Tile8x8
 /PaintProc {0.5 setlinewidth pop 0 0 M 8 8 L 0 8 M 8 0 L stroke
	0 4 M 4 8 L 8 4 L 4 0 L 0 4 L stroke}
>> matrix makepattern
/Pat2 exch def
<< Tile8x8
 /PaintProc {0.5 setlinewidth pop 0 0 M 0 8 L
	8 8 L 8 0 L 0 0 L fill}
>> matrix makepattern
/Pat3 exch def
<< Tile8x8
 /PaintProc {0.5 setlinewidth pop -4 8 M 8 -4 L
	0 12 M 12 0 L stroke}
>> matrix makepattern
/Pat4 exch def
<< Tile8x8
 /PaintProc {0.5 setlinewidth pop -4 0 M 8 12 L
	0 -4 M 12 8 L stroke}
>> matrix makepattern
/Pat5 exch def
<< Tile8x8
 /PaintProc {0.5 setlinewidth pop -2 8 M 4 -4 L
	0 12 M 8 -4 L 4 12 M 10 0 L stroke}
>> matrix makepattern
/Pat6 exch def
<< Tile8x8
 /PaintProc {0.5 setlinewidth pop -2 0 M 4 12 L
	0 -4 M 8 12 L 4 -4 M 10 8 L stroke}
>> matrix makepattern
/Pat7 exch def
<< Tile8x8
 /PaintProc {0.5 setlinewidth pop 8 -2 M -4 4 L
	12 0 M -4 8 L 12 4 M 0 10 L stroke}
>> matrix makepattern
/Pat8 exch def
<< Tile8x8
 /PaintProc {0.5 setlinewidth pop 0 -2 M 12 4 L
	-4 0 M 12 8 L -4 4 M 8 10 L stroke}
>> matrix makepattern
/Pat9 exch def
/Pattern1 {PatternBgnd KeepColor Pat1 setpattern} bind def
/Pattern2 {PatternBgnd KeepColor Pat2 setpattern} bind def
/Pattern3 {PatternBgnd KeepColor Pat3 setpattern} bind def
/Pattern4 {PatternBgnd KeepColor Landscape {Pat5} {Pat4} ifelse setpattern} bind def
/Pattern5 {PatternBgnd KeepColor Landscape {Pat4} {Pat5} ifelse setpattern} bind def
/Pattern6 {PatternBgnd KeepColor Landscape {Pat9} {Pat6} ifelse setpattern} bind def
/Pattern7 {PatternBgnd KeepColor Landscape {Pat8} {Pat7} ifelse setpattern} bind def
} def
%
%
%End of PostScript Level 2 code
%
/PatternBgnd {
  TransparentPatterns {} {gsave 1 setgray fill grestore} ifelse
} def
%
% Substitute for Level 2 pattern fill codes with
% grayscale if Level 2 support is not selected.
%
/Level1PatternFill {
/Pattern1 {0.250 Density} bind def
/Pattern2 {0.500 Density} bind def
/Pattern3 {0.750 Density} bind def
/Pattern4 {0.125 Density} bind def
/Pattern5 {0.375 Density} bind def
/Pattern6 {0.625 Density} bind def
/Pattern7 {0.875 Density} bind def
} def
%
% Now test for support of Level 2 code
%
Level1 {Level1PatternFill} {Level2PatternFill} ifelse
%
/Symbol-Oblique /Symbol findfont [1 0 .167 1 0 0] makefont
dup length dict begin {1 index /FID eq {pop pop} {def} ifelse} forall
currentdict end definefont pop
end
%%EndProlog
gnudict begin
gsave
50 50 translate
0.050 0.050 scale
0 setgray
newpath
(Helvetica) findfont 140 scalefont setfont
/Helvetica findfont 140 scalefont setfont
/Helvetica findfont 140 scalefont setfont
/Helvetica findfont 140 scalefont setfont
/Helvetica findfont 140 scalefont setfont
1.000 UL
LTb
966 420 M
63 0 V
5933 0 R
-63 0 V
882 420 M
( 1e-12) Rshow
1.000 UL
LTb
966 791 M
31 0 V
5965 0 R
-31 0 V
966 1162 M
63 0 V
5933 0 R
-63 0 V
-6017 0 R
( 1e-10) Rshow
1.000 UL
LTb
966 1533 M
31 0 V
5965 0 R
-31 0 V
966 1904 M
63 0 V
5933 0 R
-63 0 V
-6017 0 R
( 1e-08) Rshow
1.000 UL
LTb
966 2275 M
31 0 V
5965 0 R
-31 0 V
966 2646 M
63 0 V
5933 0 R
-63 0 V
-6017 0 R
( 1e-06) Rshow
1.000 UL
LTb
966 3017 M
31 0 V
5965 0 R
-31 0 V
966 3388 M
63 0 V
5933 0 R
-63 0 V
-6017 0 R
( 0.0001) Rshow
1.000 UL
LTb
966 3759 M
31 0 V
5965 0 R
-31 0 V
966 4130 M
63 0 V
5933 0 R
-63 0 V
-6017 0 R
( 0.01) Rshow
1.000 UL
LTb
966 4501 M
31 0 V
5965 0 R
-31 0 V
966 4872 M
63 0 V
5933 0 R
-63 0 V
-6017 0 R
( 1) Rshow
1.000 UL
LTb
966 420 M
0 63 V
0 4389 R
0 -63 V
966 280 M
(-20) Cshow
1.000 UL
LTb
1716 420 M
0 63 V
0 4389 R
0 -63 V
0 -4529 R
(-15) Cshow
1.000 UL
LTb
2465 420 M
0 63 V
0 4389 R
0 -63 V
0 -4529 R
(-10) Cshow
1.000 UL
LTb
3215 420 M
0 63 V
0 4389 R
0 -63 V
0 -4529 R
(-5) Cshow
1.000 UL
LTb
3964 420 M
0 63 V
0 4389 R
0 -63 V
0 -4529 R
( 0) Cshow
1.000 UL
LTb
4714 420 M
0 63 V
0 4389 R
0 -63 V
0 -4529 R
( 5) Cshow
1.000 UL
LTb
5463 420 M
0 63 V
0 4389 R
0 -63 V
0 -4529 R
( 10) Cshow
1.000 UL
LTb
6213 420 M
0 63 V
0 4389 R
0 -63 V
0 -4529 R
( 15) Cshow
1.000 UL
LTb
6962 420 M
0 63 V
0 4389 R
0 -63 V
0 -4529 R
( 20) Cshow
1.000 UL
LTb
1.000 UL
LTb
966 4872 N
966 420 L
5996 0 V
0 4452 V
-5996 0 V
Z stroke
LCb setrgbcolor
140 2646 M
currentpoint gsave translate 90 rotate 0 0 M
(H) Cshow
grestore
LTb
LCb setrgbcolor
3964 70 M
(x) Cshow
LTb
1.000 UP
1.000 UL
LTb
1.000 UL
LT0
/Helvetica findfont 140 scalefont setfont
LTb
6311 4739 M
("TP_a0975_c1101_w1r6_mu033_dx025_nA192np16/leanbssnmol-ham.x.xg::hc" u 1:\(abs\($2\)\)) Rshow
LT0
6395 4739 M
399 0 V
1753 420 M
0 1724 V
37 -176 V
38 -531 V
37 18 V
38 18 V
37 19 V
38 18 V
37 20 V
38 19 V
37 20 V
38 20 V
37 20 V
38 21 V
37 21 V
38 21 V
37 21 V
38 22 V
37 22 V
38 23 V
37 23 V
37 23 V
38 23 V
37 23 V
19 20 V
19 4 V
19 -165 V
18 189 V
19 265 V
19 -17 V
19 97 V
18 155 V
19 19 V
19 -19 V
19 -307 V
18 -552 V
19 12 V
19 12 V
18 13 V
19 14 V
19 13 V
19 12 V
18 10 V
19 8 V
19 2 V
19 -4 V
18 -11 V
19 -20 V
19 -31 V
19 -51 V
18 -94 V
19 -680 V
19 720 V
19 140 V
18 96 V
19 79 V
19 69 V
19 63 V
18 59 V
19 55 V
19 53 V
9 16 V
9 36 V
10 112 V
9 -61 V
10 172 V
9 -53 V
9 272 V
10 128 V
9 15 V
9 -54 V
10 -313 V
9 -410 V
10 25 V
9 25 V
9 25 V
10 25 V
9 26 V
9 25 V
10 26 V
9 26 V
9 26 V
10 27 V
9 26 V
10 27 V
9 28 V
9 27 V
10 28 V
9 28 V
9 29 V
10 29 V
9 29 V
10 30 V
9 30 V
9 31 V
10 31 V
9 31 V
9 32 V
5 15 V
5 18 V
4 31 V
5 2 V
5 -106 V
3645 2649 L
5 216 V
5 87 V
5 6 V
4 -117 V
5 -357 V
5 -92 V
4 18 V
5 19 V
5 18 V
4 19 V
5 19 V
5 20 V
4 19 V
5 20 V
5 20 V
4 21 V
5 20 V
5 21 V
4 22 V
5 21 V
5 22 V
5 22 V
4 23 V
5 23 V
5 24 V
4 24 V
5 24 V
5 25 V
4 25 V
5 26 V
5 26 V
2 13 V
2 14 V
3 19 V
2 9 V
2 -19 V
3 23 V
2 92 V
2 52 V
3 -8 V
2 -166 V
2 -763 V
3 461 V
2 16 V
2 16 V
3 16 V
2 16 V
2 17 V
3 16 V
2 18 V
3 17 V
2 17 V
2 18 V
3 18 V
2 19 V
2 18 V
3 19 V
2 19 V
2 20 V
3 20 V
2 20 V
2 21 V
3 20 V
2 22 V
2 21 V
3 22 V
2 22 V
2 23 V
3 23 V
2 23 V
2 24 V
3 24 V
2 25 V
2 24 V
3 25 V
2 26 V
2 26 V
3 26 V
2 26 V
2 26 V
3 27 V
2 27 V
2 27 V
3 27 V
2 28 V
2 27 V
3 27 V
2 27 V
3 26 V
2 26 V
2 25 V
3 24 V
2 22 V
2 19 V
3 14 V
2 6 V
2 -10 V
3 -55 V
2 -583 V
2 713 V
3 529 V
2 377 V
2 -16 V
3 -217 V
3964 4707 L
2 -161 V
3 217 V
2 16 V
2 -377 V
3 -529 V
2 -713 V
2 583 V
3 55 V
2 10 V
2 -6 V
3 -14 V
2 -19 V
2 -22 V
3 -24 V
2 -25 V
2 -26 V
3 -26 V
2 -27 V
3 -27 V
2 -27 V
2 -28 V
3 -27 V
2 -27 V
2 -27 V
3 -27 V
2 -26 V
2 -26 V
3 -26 V
2 -26 V
2 -26 V
3 -25 V
2 -24 V
2 -25 V
3 -24 V
2 -24 V
2 -23 V
3 -23 V
2 -23 V
2 -22 V
3 -22 V
2 -21 V
2 -22 V
3 -20 V
2 -21 V
2 -20 V
3 -20 V
2 -20 V
2 -19 V
3 -19 V
2 -18 V
2 -19 V
3 -18 V
2 -18 V
2 -17 V
3 -17 V
2 -18 V
3 -16 V
2 -17 V
2 -16 V
3 -16 V
2 -16 V
2 -16 V
3 -461 V
2 763 V
2 166 V
3 8 V
2 -52 V
2 -92 V
3 -23 V
2 19 V
2 -9 V
3 -19 V
2 -14 V
2 -13 V
5 -26 V
5 -26 V
4 -25 V
5 -25 V
5 -24 V
4 -24 V
5 -24 V
5 -23 V
4 -23 V
5 -22 V
5 -22 V
5 -21 V
4 -22 V
5 -21 V
5 -20 V
4 -21 V
5 -20 V
5 -20 V
4 -19 V
5 -20 V
5 -19 V
4 -19 V
5 -18 V
5 -19 V
4 -18 V
5 92 V
5 357 V
4 117 V
5 -6 V
5 -87 V
4283 2649 L
4 -57 V
5 106 V
5 -2 V
4 -31 V
5 -18 V
5 -15 V
9 -32 V
9 -31 V
10 -31 V
9 -31 V
9 -30 V
10 -30 V
9 -29 V
10 -29 V
9 -29 V
9 -28 V
10 -28 V
9 -27 V
9 -28 V
10 -27 V
9 -26 V
10 -27 V
9 -26 V
9 -26 V
10 -26 V
9 -25 V
9 -26 V
10 -25 V
9 -25 V
9 -25 V
10 -25 V
9 410 V
10 313 V
9 54 V
9 -15 V
10 -128 V
9 -272 V
9 53 V
10 -172 V
9 61 V
10 -112 V
9 -36 V
9 -16 V
19 -53 V
19 -55 V
19 -59 V
18 -63 V
19 -69 V
19 -79 V
18 -96 V
19 -140 V
19 -707 V
19 667 V
18 94 V
19 51 V
19 31 V
19 22 V
18 8 V
19 5 V
19 -2 V
19 -7 V
18 -11 V
19 -12 V
19 -13 V
19 -14 V
18 -13 V
19 -12 V
19 -12 V
18 552 V
19 307 V
19 19 V
19 -19 V
18 -155 V
19 -97 V
19 17 V
19 -265 V
18 -189 V
19 165 V
19 -4 V
19 -20 V
37 -23 V
38 -23 V
37 -23 V
37 -23 V
38 -23 V
37 -22 V
38 -22 V
37 -21 V
38 -21 V
37 -21 V
38 -21 V
37 -20 V
38 -20 V
37 -20 V
38 -19 V
37 -20 V
38 -18 V
37 -19 V
38 -18 V
37 -18 V
38 531 V
37 176 V
0 -1724 V
stroke
LT1
/Helvetica findfont 140 scalefont setfont
LTb
6311 4599 M
("TP_a0975_c1101_w1r6_mu033_dx025_nA160np16/leanbssnmol-ham.x.xg::hc" u 1:\(abs\($2\)\)) Rshow
LT1
6395 4599 M
399 0 V
1753 420 M
0 1724 V
37 -176 V
38 -531 V
37 18 V
38 18 V
37 19 V
38 18 V
37 20 V
38 19 V
37 20 V
38 20 V
37 20 V
38 21 V
37 21 V
38 21 V
37 21 V
38 22 V
37 22 V
38 23 V
37 23 V
37 23 V
38 23 V
37 23 V
19 20 V
19 4 V
19 -165 V
18 189 V
19 265 V
19 -17 V
19 97 V
18 155 V
19 19 V
19 -19 V
19 -307 V
18 -553 V
19 12 V
19 13 V
18 13 V
19 14 V
19 13 V
19 12 V
18 10 V
19 7 V
19 3 V
19 -3 V
18 -11 V
19 -20 V
19 -32 V
19 -51 V
18 -94 V
19 -567 V
19 618 V
19 124 V
18 102 V
19 78 V
19 69 V
19 63 V
18 59 V
19 55 V
19 53 V
9 16 V
9 36 V
10 112 V
9 -61 V
10 172 V
9 -53 V
9 272 V
10 128 V
9 15 V
9 -54 V
10 -313 V
9 -410 V
10 25 V
9 25 V
9 25 V
10 25 V
9 26 V
9 25 V
10 26 V
9 26 V
9 26 V
10 27 V
9 26 V
10 27 V
9 28 V
9 27 V
10 28 V
9 28 V
9 29 V
10 29 V
9 29 V
10 30 V
9 30 V
9 31 V
10 31 V
9 31 V
9 32 V
5 15 V
5 18 V
4 31 V
5 2 V
5 -106 V
3645 2649 L
5 216 V
5 87 V
5 6 V
4 -116 V
5 -359 V
5 -91 V
4 18 V
5 19 V
5 18 V
4 19 V
5 20 V
5 19 V
4 19 V
5 20 V
5 20 V
4 21 V
5 20 V
5 21 V
4 22 V
5 21 V
5 22 V
5 22 V
4 23 V
5 23 V
5 24 V
4 24 V
5 24 V
5 25 V
4 25 V
5 26 V
5 26 V
2 13 V
2 14 V
3 19 V
2 9 V
2 -19 V
3 23 V
2 92 V
2 52 V
3 -8 V
2 -166 V
2 -762 V
3 460 V
2 16 V
2 16 V
3 16 V
2 16 V
2 17 V
3 16 V
2 18 V
3 17 V
2 17 V
2 18 V
3 18 V
2 19 V
2 18 V
3 19 V
2 19 V
2 20 V
3 20 V
2 20 V
2 21 V
3 20 V
2 22 V
2 21 V
3 22 V
2 22 V
2 23 V
3 23 V
2 23 V
2 24 V
3 24 V
2 25 V
2 24 V
3 25 V
2 26 V
2 26 V
3 26 V
2 26 V
2 26 V
3 27 V
2 27 V
2 27 V
3 27 V
2 28 V
2 27 V
3 27 V
2 27 V
3 26 V
2 26 V
2 25 V
3 24 V
2 22 V
2 19 V
3 14 V
2 6 V
2 -10 V
3 -55 V
2 -583 V
2 713 V
3 529 V
2 377 V
2 -16 V
3 -217 V
3964 4707 L
2 -161 V
3 217 V
2 16 V
2 -377 V
3 -529 V
2 -713 V
2 583 V
3 55 V
2 10 V
2 -6 V
3 -14 V
2 -19 V
2 -22 V
3 -24 V
2 -25 V
2 -26 V
3 -26 V
2 -27 V
3 -27 V
2 -27 V
2 -28 V
3 -27 V
2 -27 V
2 -27 V
3 -27 V
2 -26 V
2 -26 V
3 -26 V
2 -26 V
2 -26 V
3 -25 V
2 -24 V
2 -25 V
3 -24 V
2 -24 V
2 -23 V
3 -23 V
2 -23 V
2 -22 V
3 -22 V
2 -21 V
2 -22 V
3 -20 V
2 -21 V
2 -20 V
3 -20 V
2 -20 V
2 -19 V
3 -19 V
2 -18 V
2 -19 V
3 -18 V
2 -18 V
2 -17 V
3 -17 V
2 -18 V
3 -16 V
2 -17 V
2 -16 V
3 -16 V
2 -16 V
2 -16 V
3 -461 V
2 763 V
2 166 V
3 8 V
2 -52 V
2 -92 V
3 -23 V
2 19 V
2 -9 V
3 -19 V
2 -14 V
2 -13 V
5 -26 V
5 -26 V
4 -25 V
5 -25 V
5 -24 V
4 -24 V
5 -24 V
5 -23 V
4 -23 V
5 -22 V
5 -22 V
5 -21 V
4 -22 V
5 -21 V
5 -20 V
4 -21 V
5 -20 V
5 -20 V
4 -19 V
5 -19 V
5 -20 V
4 -19 V
5 -18 V
5 -19 V
4 -18 V
5 91 V
5 358 V
4 117 V
5 -6 V
5 -87 V
4283 2649 L
4 -57 V
5 106 V
5 -2 V
4 -31 V
5 -18 V
5 -15 V
9 -32 V
9 -31 V
10 -31 V
9 -31 V
9 -30 V
10 -30 V
9 -29 V
10 -29 V
9 -29 V
9 -28 V
10 -28 V
9 -27 V
9 -28 V
10 -27 V
9 -26 V
10 -27 V
9 -26 V
9 -26 V
10 -26 V
9 -25 V
9 -26 V
10 -25 V
9 -25 V
9 -25 V
10 -25 V
9 410 V
10 313 V
9 54 V
9 -15 V
10 -128 V
9 -272 V
9 53 V
10 -172 V
9 61 V
10 -112 V
9 -36 V
9 -16 V
19 -53 V
19 -55 V
19 -59 V
18 -63 V
19 -69 V
19 -79 V
18 -96 V
19 -142 V
19 -648 V
19 610 V
18 94 V
19 50 V
19 33 V
19 20 V
18 11 V
19 3 V
19 -3 V
19 -7 V
18 -10 V
19 -12 V
19 -13 V
19 -14 V
18 -13 V
19 -13 V
19 -12 V
18 553 V
19 307 V
19 19 V
19 -19 V
18 -155 V
19 -97 V
19 17 V
19 -265 V
18 -189 V
19 165 V
19 -4 V
19 -20 V
37 -23 V
38 -23 V
37 -23 V
37 -23 V
38 -23 V
37 -22 V
38 -22 V
37 -21 V
38 -21 V
37 -21 V
38 -21 V
37 -20 V
38 -20 V
37 -20 V
38 -19 V
37 -20 V
38 -18 V
37 -19 V
38 -18 V
37 -18 V
38 531 V
37 176 V
0 -1724 V
stroke
LT2
/Helvetica findfont 140 scalefont setfont
LTb
6311 4459 M
("TP_a0975_c1101_w1r6_mu033_dx025_nA128np16/leanbssnmol-ham.x.xg::hc" u 1:\(abs\($2\)\)) Rshow
LT2
6395 4459 M
399 0 V
1753 420 M
0 1724 V
37 -176 V
38 -533 V
37 20 V
38 19 V
37 19 V
38 19 V
37 18 V
38 18 V
37 19 V
38 20 V
37 21 V
38 21 V
37 22 V
38 22 V
37 21 V
38 21 V
37 22 V
38 22 V
37 23 V
37 24 V
38 23 V
37 24 V
19 19 V
19 4 V
19 -167 V
18 190 V
19 266 V
19 -17 V
19 97 V
18 155 V
19 19 V
19 -19 V
19 -306 V
18 -543 V
19 7 V
19 5 V
18 6 V
19 10 V
19 13 V
19 17 V
18 17 V
19 13 V
19 7 V
19 -3 V
18 -16 V
19 -31 V
19 -46 V
19 -59 V
18 -80 V
19 -231 V
19 238 V
19 181 V
18 111 V
19 78 V
19 63 V
19 59 V
18 60 V
19 58 V
19 54 V
9 14 V
9 36 V
10 112 V
9 -62 V
10 173 V
9 -53 V
9 272 V
10 128 V
9 15 V
9 -54 V
10 -313 V
9 -417 V
10 29 V
9 31 V
9 27 V
10 23 V
9 22 V
9 23 V
10 27 V
9 28 V
9 28 V
10 26 V
9 25 V
10 26 V
9 28 V
9 29 V
10 28 V
9 27 V
9 28 V
10 30 V
9 29 V
10 30 V
9 30 V
9 30 V
10 32 V
9 31 V
9 32 V
5 15 V
5 18 V
4 31 V
5 2 V
5 -106 V
3645 2649 L
5 216 V
5 87 V
5 6 V
4 -117 V
5 -358 V
5 -91 V
4 19 V
5 18 V
5 19 V
4 18 V
5 19 V
5 20 V
4 19 V
5 21 V
5 20 V
4 20 V
5 20 V
5 21 V
4 22 V
5 22 V
5 21 V
5 22 V
4 23 V
5 23 V
5 24 V
4 24 V
5 24 V
5 25 V
4 25 V
5 26 V
5 26 V
2 13 V
2 14 V
3 19 V
2 9 V
2 -19 V
3 23 V
2 92 V
2 52 V
3 -8 V
2 -166 V
2 -796 V
3 496 V
2 15 V
2 14 V
3 15 V
2 17 V
2 18 V
3 18 V
2 17 V
3 16 V
2 17 V
2 17 V
3 19 V
2 19 V
2 19 V
3 18 V
2 19 V
2 19 V
3 21 V
2 20 V
2 21 V
3 20 V
2 21 V
2 22 V
3 22 V
2 23 V
2 22 V
3 23 V
2 23 V
2 24 V
3 24 V
2 25 V
2 24 V
3 25 V
2 26 V
2 26 V
3 26 V
2 26 V
2 26 V
3 27 V
2 27 V
2 27 V
3 27 V
2 28 V
2 27 V
3 27 V
2 27 V
3 26 V
2 26 V
2 25 V
3 24 V
2 22 V
2 19 V
3 14 V
2 6 V
2 -10 V
3 -55 V
2 -583 V
2 713 V
3 529 V
2 377 V
2 -16 V
3 -217 V
3964 4707 L
2 -161 V
3 217 V
2 16 V
2 -377 V
3 -529 V
2 -713 V
2 583 V
3 55 V
2 10 V
2 -6 V
3 -14 V
2 -19 V
2 -22 V
3 -24 V
2 -25 V
2 -26 V
3 -26 V
2 -27 V
3 -27 V
2 -27 V
2 -28 V
3 -27 V
2 -27 V
2 -27 V
3 -27 V
2 -26 V
2 -26 V
3 -26 V
2 -26 V
2 -26 V
3 -25 V
2 -24 V
2 -25 V
3 -24 V
2 -24 V
2 -23 V
3 -23 V
2 -22 V
2 -23 V
3 -22 V
2 -22 V
2 -21 V
3 -20 V
2 -21 V
2 -20 V
3 -21 V
2 -19 V
2 -19 V
3 -18 V
2 -19 V
2 -19 V
3 -19 V
2 -17 V
2 -17 V
3 -16 V
2 -17 V
3 -18 V
2 -18 V
2 -17 V
3 -15 V
2 -14 V
2 -15 V
3 -496 V
2 796 V
2 166 V
3 8 V
2 -52 V
2 -92 V
3 -23 V
2 19 V
2 -9 V
3 -19 V
2 -14 V
2 -13 V
5 -26 V
5 -26 V
4 -25 V
5 -25 V
5 -24 V
4 -24 V
5 -24 V
5 -23 V
4 -23 V
5 -22 V
5 -21 V
5 -22 V
4 -22 V
5 -21 V
5 -20 V
4 -20 V
5 -20 V
5 -21 V
4 -19 V
5 -20 V
5 -19 V
4 -18 V
5 -19 V
5 -18 V
4 -19 V
5 91 V
5 358 V
4 117 V
5 -6 V
5 -87 V
4283 2649 L
4 -57 V
5 106 V
5 -2 V
4 -31 V
5 -18 V
5 -15 V
9 -32 V
9 -31 V
10 -32 V
9 -30 V
9 -30 V
10 -30 V
9 -29 V
10 -30 V
9 -28 V
9 -27 V
10 -28 V
9 -29 V
9 -28 V
10 -26 V
9 -25 V
10 -26 V
9 -28 V
9 -28 V
10 -27 V
9 -23 V
9 -22 V
10 -23 V
9 -27 V
9 -31 V
10 -29 V
9 417 V
10 313 V
9 54 V
9 -15 V
10 -128 V
9 -272 V
9 53 V
10 -173 V
9 62 V
10 -112 V
9 -36 V
9 -14 V
19 -54 V
19 -58 V
19 -60 V
18 -59 V
19 -63 V
19 -79 V
18 -110 V
19 -180 V
19 -240 V
19 233 V
18 79 V
19 59 V
19 46 V
19 31 V
18 16 V
19 3 V
19 -7 V
19 -13 V
18 -17 V
19 -17 V
19 -13 V
19 -10 V
18 -6 V
19 -5 V
19 -7 V
18 543 V
19 306 V
19 19 V
19 -19 V
18 -155 V
19 -97 V
19 17 V
19 -266 V
18 -190 V
19 167 V
19 -4 V
19 -19 V
37 -24 V
38 -23 V
37 -24 V
37 -23 V
38 -22 V
37 -22 V
38 -21 V
37 -21 V
38 -22 V
37 -22 V
38 -21 V
37 -21 V
38 -20 V
37 -19 V
38 -18 V
37 -18 V
38 -19 V
37 -19 V
38 -19 V
37 -20 V
38 533 V
37 176 V
0 -1724 V
stroke
LT3
/Helvetica findfont 140 scalefont setfont
LTb
6311 4319 M
("TP_a0975_c1101_w1r6_mu033_dx025_nA96np16/leanbssnmol-ham.x.xg::hc" u 1:\(abs\($2\)\)) Rshow
LT3
6395 4319 M
399 0 V
1753 420 M
0 1725 V
37 -182 V
38 -849 V
37 -14 V
38 -110 V
37 -105 V
38 220 V
37 51 V
38 -57 V
37 -86 V
38 289 V
37 127 V
38 80 V
37 54 V
38 35 V
37 19 V
38 8 V
37 5 V
38 13 V
37 31 V
37 48 V
38 52 V
37 46 V
19 27 V
19 6 V
19 -228 V
18 247 V
19 287 V
19 -21 V
19 113 V
18 152 V
19 19 V
19 -16 V
19 -352 V
18 -284 V
19 -127 V
19 -171 V
18 245 V
19 69 V
19 12 V
19 -41 V
18 -177 V
19 87 V
19 157 V
19 64 V
18 22 V
19 -11 V
19 -43 V
19 -82 V
18 -127 V
19 -78 V
19 117 V
19 130 V
18 86 V
19 54 V
19 32 V
19 18 V
18 17 V
19 28 V
19 46 V
9 17 V
9 38 V
10 106 V
9 -50 V
10 136 V
9 -58 V
9 290 V
10 127 V
9 14 V
9 -53 V
10 -318 V
9 -329 V
10 60 V
9 46 V
9 27 V
10 8 V
9 -10 V
9 -20 V
10 -11 V
9 21 V
9 49 V
10 52 V
9 39 V
10 21 V
9 6 V
9 2 V
10 15 V
9 36 V
9 45 V
10 37 V
9 25 V
10 16 V
9 21 V
9 32 V
10 40 V
9 36 V
9 28 V
5 11 V
5 14 V
4 30 V
5 2 V
5 -105 V
3645 2651 L
5 215 V
5 88 V
5 5 V
4 -116 V
5 -348 V
5 -152 V
4 33 V
5 55 V
5 48 V
4 32 V
5 13 V
5 -2 V
4 -5 V
5 7 V
5 27 V
4 37 V
5 35 V
5 23 V
4 13 V
5 9 V
5 15 V
5 25 V
4 31 V
5 28 V
5 23 V
4 18 V
5 20 V
5 26 V
4 28 V
5 28 V
5 26 V
2 11 V
2 13 V
3 18 V
2 9 V
2 -18 V
3 24 V
2 92 V
2 52 V
3 -8 V
2 -163 V
2 -983 V
3 681 V
2 11 V
2 17 V
3 20 V
2 20 V
2 19 V
3 16 V
2 15 V
3 15 V
2 16 V
2 18 V
3 18 V
2 18 V
2 18 V
3 18 V
2 19 V
2 20 V
3 21 V
2 20 V
2 20 V
3 20 V
2 20 V
2 21 V
3 23 V
2 23 V
2 23 V
3 22 V
2 23 V
2 23 V
3 24 V
2 25 V
2 25 V
3 25 V
2 25 V
2 25 V
3 27 V
2 26 V
2 27 V
3 26 V
2 27 V
2 27 V
3 27 V
2 28 V
2 27 V
3 27 V
2 27 V
3 26 V
2 26 V
2 25 V
3 24 V
2 22 V
2 19 V
3 14 V
2 6 V
2 -10 V
3 -55 V
2 -581 V
2 711 V
3 530 V
2 376 V
2 -16 V
3 -217 V
3964 4707 L
2 -161 V
3 217 V
2 16 V
2 -376 V
3 -530 V
2 -711 V
2 581 V
3 55 V
2 10 V
2 -6 V
3 -14 V
2 -19 V
2 -22 V
3 -24 V
2 -25 V
2 -26 V
3 -26 V
2 -27 V
3 -27 V
2 -27 V
2 -28 V
3 -27 V
2 -27 V
2 -27 V
3 -26 V
2 -27 V
2 -26 V
3 -27 V
2 -25 V
2 -25 V
3 -25 V
2 -25 V
2 -25 V
3 -24 V
2 -23 V
2 -23 V
3 -22 V
2 -23 V
2 -23 V
3 -23 V
2 -21 V
2 -20 V
3 -20 V
2 -20 V
2 -20 V
3 -21 V
2 -20 V
2 -19 V
3 -18 V
2 -18 V
2 -18 V
3 -18 V
2 -18 V
2 -16 V
3 -15 V
2 -15 V
3 -16 V
2 -19 V
2 -20 V
3 -20 V
2 -17 V
2 -11 V
3 -702 V
2 1003 V
2 164 V
3 8 V
2 -52 V
2 -92 V
3 -24 V
2 18 V
2 -8 V
3 -19 V
2 -13 V
2 -11 V
5 -26 V
5 -28 V
4 -28 V
5 -26 V
5 -20 V
4 -18 V
5 -23 V
5 -28 V
4 -31 V
5 -25 V
5 -15 V
5 -9 V
4 -13 V
5 -24 V
5 -34 V
4 -37 V
5 -27 V
5 -7 V
4 5 V
5 1 V
5 -13 V
4 -31 V
5 -49 V
5 -54 V
4 -34 V
5 153 V
5 348 V
4 116 V
5 -5 V
5 -88 V
4283 2651 L
4 -61 V
5 105 V
5 -1 V
4 -31 V
5 -14 V
5 -11 V
9 -28 V
9 -36 V
10 -40 V
9 -32 V
9 -21 V
10 -16 V
9 -25 V
10 -37 V
9 -45 V
9 -36 V
10 -15 V
9 -2 V
9 -6 V
10 -21 V
9 -39 V
10 -53 V
9 -49 V
9 -21 V
10 11 V
9 20 V
9 10 V
10 -7 V
9 -28 V
9 -46 V
10 -60 V
9 330 V
10 318 V
9 53 V
9 -14 V
10 -127 V
9 -290 V
9 58 V
10 -136 V
9 50 V
10 -105 V
9 -39 V
9 -18 V
19 -45 V
19 -28 V
19 -17 V
18 -19 V
19 -31 V
19 -54 V
18 -87 V
19 -130 V
19 -120 V
19 80 V
18 128 V
19 83 V
19 43 V
19 10 V
18 -22 V
19 -64 V
19 -157 V
19 -83 V
18 174 V
19 42 V
19 -12 V
19 -69 V
18 -241 V
19 164 V
19 128 V
18 285 V
19 352 V
19 16 V
19 -19 V
18 -152 V
19 -113 V
19 21 V
19 -287 V
18 -248 V
19 229 V
19 -6 V
19 -28 V
37 -45 V
38 -53 V
37 -47 V
37 -32 V
38 -13 V
37 -5 V
38 -8 V
37 -19 V
38 -34 V
37 -54 V
38 -81 V
37 -128 V
38 -302 V
37 109 V
38 54 V
37 -49 V
38 -201 V
37 64 V
38 118 V
37 15 V
38 855 V
37 182 V
0 -1725 V
stroke
LTb
966 4872 N
966 420 L
5996 0 V
0 4452 V
-5996 0 V
Z stroke
1.000 UP
1.000 UL
LTb
stroke
grestore
end
showpage
%%Trailer
%%DocumentFonts: Helvetica
