%!PS-Adobe-2.0 EPSF-2.0
%%Title: Plots/Plot_Ham_x_Convergence.eps
%%Creator: gnuplot 5.0 patchlevel 1
%%CreationDate: Fri Jan 20 12:54:33 2017
%%DocumentFonts: (atend)
%%BoundingBox: 50 50 410 302
%%EndComments
%%BeginProlog
/gnudict 256 dict def
gnudict begin
%
% The following true/false flags may be edited by hand if desired.
% The unit line width and grayscale image gamma correction may also be changed.
%
/Color true def
/Blacktext false def
/Solid false def
/Dashlength 1 def
/Landscape false def
/Level1 false def
/Level3 false def
/Rounded false def
/ClipToBoundingBox false def
/SuppressPDFMark false def
/TransparentPatterns false def
/gnulinewidth 5.000 def
/userlinewidth gnulinewidth def
/Gamma 1.0 def
/BackgroundColor {-1.000 -1.000 -1.000} def
%
/vshift -46 def
/dl1 {
  10.0 Dashlength userlinewidth gnulinewidth div mul mul mul
  Rounded { currentlinewidth 0.75 mul sub dup 0 le { pop 0.01 } if } if
} def
/dl2 {
  10.0 Dashlength userlinewidth gnulinewidth div mul mul mul
  Rounded { currentlinewidth 0.75 mul add } if
} def
/hpt_ 31.5 def
/vpt_ 31.5 def
/hpt hpt_ def
/vpt vpt_ def
/doclip {
  ClipToBoundingBox {
    newpath 50 50 moveto 410 50 lineto 410 302 lineto 50 302 lineto closepath
    clip
  } if
} def
%
% Gnuplot Prolog Version 5.0 (Dec 2014)
%
%/SuppressPDFMark true def
%
/M {moveto} bind def
/L {lineto} bind def
/R {rmoveto} bind def
/V {rlineto} bind def
/N {newpath moveto} bind def
/Z {closepath} bind def
/C {setrgbcolor} bind def
/f {rlineto fill} bind def
/g {setgray} bind def
/Gshow {show} def   % May be redefined later in the file to support UTF-8
/vpt2 vpt 2 mul def
/hpt2 hpt 2 mul def
/Lshow {currentpoint stroke M 0 vshift R 
	Blacktext {gsave 0 setgray textshow grestore} {textshow} ifelse} def
/Rshow {currentpoint stroke M dup stringwidth pop neg vshift R
	Blacktext {gsave 0 setgray textshow grestore} {textshow} ifelse} def
/Cshow {currentpoint stroke M dup stringwidth pop -2 div vshift R 
	Blacktext {gsave 0 setgray textshow grestore} {textshow} ifelse} def
/UP {dup vpt_ mul /vpt exch def hpt_ mul /hpt exch def
  /hpt2 hpt 2 mul def /vpt2 vpt 2 mul def} def
/DL {Color {setrgbcolor Solid {pop []} if 0 setdash}
 {pop pop pop 0 setgray Solid {pop []} if 0 setdash} ifelse} def
/BL {stroke userlinewidth 2 mul setlinewidth
	Rounded {1 setlinejoin 1 setlinecap} if} def
/AL {stroke userlinewidth 2 div setlinewidth
	Rounded {1 setlinejoin 1 setlinecap} if} def
/UL {dup gnulinewidth mul /userlinewidth exch def
	dup 1 lt {pop 1} if 10 mul /udl exch def} def
/PL {stroke userlinewidth setlinewidth
	Rounded {1 setlinejoin 1 setlinecap} if} def
3.8 setmiterlimit
% Classic Line colors (version 5.0)
/LCw {1 1 1} def
/LCb {0 0 0} def
/LCa {0 0 0} def
/LC0 {1 0 0} def
/LC1 {0 1 0} def
/LC2 {0 0 1} def
/LC3 {1 0 1} def
/LC4 {0 1 1} def
/LC5 {1 1 0} def
/LC6 {0 0 0} def
/LC7 {1 0.3 0} def
/LC8 {0.5 0.5 0.5} def
% Default dash patterns (version 5.0)
/LTw {PL [] 1 setgray} def
/LTb {BL [] LCb DL} def
/LTa {AL [1 udl mul 2 udl mul] 0 setdash LCa setrgbcolor} def
/LT0 {PL [] LC0 DL} def
/LT1 {PL [2 dl1 3 dl2] LC1 DL} def
/LT2 {PL [1 dl1 1.5 dl2] LC2 DL} def
/LT3 {PL [6 dl1 2 dl2 1 dl1 2 dl2] LC3 DL} def
/LT4 {PL [1 dl1 2 dl2 6 dl1 2 dl2 1 dl1 2 dl2] LC4 DL} def
/LT5 {PL [4 dl1 2 dl2] LC5 DL} def
/LT6 {PL [1.5 dl1 1.5 dl2 1.5 dl1 1.5 dl2 1.5 dl1 6 dl2] LC6 DL} def
/LT7 {PL [3 dl1 3 dl2 1 dl1 3 dl2] LC7 DL} def
/LT8 {PL [2 dl1 2 dl2 2 dl1 6 dl2] LC8 DL} def
/SL {[] 0 setdash} def
/Pnt {stroke [] 0 setdash gsave 1 setlinecap M 0 0 V stroke grestore} def
/Dia {stroke [] 0 setdash 2 copy vpt add M
  hpt neg vpt neg V hpt vpt neg V
  hpt vpt V hpt neg vpt V closepath stroke
  Pnt} def
/Pls {stroke [] 0 setdash vpt sub M 0 vpt2 V
  currentpoint stroke M
  hpt neg vpt neg R hpt2 0 V stroke
 } def
/Box {stroke [] 0 setdash 2 copy exch hpt sub exch vpt add M
  0 vpt2 neg V hpt2 0 V 0 vpt2 V
  hpt2 neg 0 V closepath stroke
  Pnt} def
/Crs {stroke [] 0 setdash exch hpt sub exch vpt add M
  hpt2 vpt2 neg V currentpoint stroke M
  hpt2 neg 0 R hpt2 vpt2 V stroke} def
/TriU {stroke [] 0 setdash 2 copy vpt 1.12 mul add M
  hpt neg vpt -1.62 mul V
  hpt 2 mul 0 V
  hpt neg vpt 1.62 mul V closepath stroke
  Pnt} def
/Star {2 copy Pls Crs} def
/BoxF {stroke [] 0 setdash exch hpt sub exch vpt add M
  0 vpt2 neg V hpt2 0 V 0 vpt2 V
  hpt2 neg 0 V closepath fill} def
/TriUF {stroke [] 0 setdash vpt 1.12 mul add M
  hpt neg vpt -1.62 mul V
  hpt 2 mul 0 V
  hpt neg vpt 1.62 mul V closepath fill} def
/TriD {stroke [] 0 setdash 2 copy vpt 1.12 mul sub M
  hpt neg vpt 1.62 mul V
  hpt 2 mul 0 V
  hpt neg vpt -1.62 mul V closepath stroke
  Pnt} def
/TriDF {stroke [] 0 setdash vpt 1.12 mul sub M
  hpt neg vpt 1.62 mul V
  hpt 2 mul 0 V
  hpt neg vpt -1.62 mul V closepath fill} def
/DiaF {stroke [] 0 setdash vpt add M
  hpt neg vpt neg V hpt vpt neg V
  hpt vpt V hpt neg vpt V closepath fill} def
/Pent {stroke [] 0 setdash 2 copy gsave
  translate 0 hpt M 4 {72 rotate 0 hpt L} repeat
  closepath stroke grestore Pnt} def
/PentF {stroke [] 0 setdash gsave
  translate 0 hpt M 4 {72 rotate 0 hpt L} repeat
  closepath fill grestore} def
/Circle {stroke [] 0 setdash 2 copy
  hpt 0 360 arc stroke Pnt} def
/CircleF {stroke [] 0 setdash hpt 0 360 arc fill} def
/C0 {BL [] 0 setdash 2 copy moveto vpt 90 450 arc} bind def
/C1 {BL [] 0 setdash 2 copy moveto
	2 copy vpt 0 90 arc closepath fill
	vpt 0 360 arc closepath} bind def
/C2 {BL [] 0 setdash 2 copy moveto
	2 copy vpt 90 180 arc closepath fill
	vpt 0 360 arc closepath} bind def
/C3 {BL [] 0 setdash 2 copy moveto
	2 copy vpt 0 180 arc closepath fill
	vpt 0 360 arc closepath} bind def
/C4 {BL [] 0 setdash 2 copy moveto
	2 copy vpt 180 270 arc closepath fill
	vpt 0 360 arc closepath} bind def
/C5 {BL [] 0 setdash 2 copy moveto
	2 copy vpt 0 90 arc
	2 copy moveto
	2 copy vpt 180 270 arc closepath fill
	vpt 0 360 arc} bind def
/C6 {BL [] 0 setdash 2 copy moveto
	2 copy vpt 90 270 arc closepath fill
	vpt 0 360 arc closepath} bind def
/C7 {BL [] 0 setdash 2 copy moveto
	2 copy vpt 0 270 arc closepath fill
	vpt 0 360 arc closepath} bind def
/C8 {BL [] 0 setdash 2 copy moveto
	2 copy vpt 270 360 arc closepath fill
	vpt 0 360 arc closepath} bind def
/C9 {BL [] 0 setdash 2 copy moveto
	2 copy vpt 270 450 arc closepath fill
	vpt 0 360 arc closepath} bind def
/C10 {BL [] 0 setdash 2 copy 2 copy moveto vpt 270 360 arc closepath fill
	2 copy moveto
	2 copy vpt 90 180 arc closepath fill
	vpt 0 360 arc closepath} bind def
/C11 {BL [] 0 setdash 2 copy moveto
	2 copy vpt 0 180 arc closepath fill
	2 copy moveto
	2 copy vpt 270 360 arc closepath fill
	vpt 0 360 arc closepath} bind def
/C12 {BL [] 0 setdash 2 copy moveto
	2 copy vpt 180 360 arc closepath fill
	vpt 0 360 arc closepath} bind def
/C13 {BL [] 0 setdash 2 copy moveto
	2 copy vpt 0 90 arc closepath fill
	2 copy moveto
	2 copy vpt 180 360 arc closepath fill
	vpt 0 360 arc closepath} bind def
/C14 {BL [] 0 setdash 2 copy moveto
	2 copy vpt 90 360 arc closepath fill
	vpt 0 360 arc} bind def
/C15 {BL [] 0 setdash 2 copy vpt 0 360 arc closepath fill
	vpt 0 360 arc closepath} bind def
/Rec {newpath 4 2 roll moveto 1 index 0 rlineto 0 exch rlineto
	neg 0 rlineto closepath} bind def
/Square {dup Rec} bind def
/Bsquare {vpt sub exch vpt sub exch vpt2 Square} bind def
/S0 {BL [] 0 setdash 2 copy moveto 0 vpt rlineto BL Bsquare} bind def
/S1 {BL [] 0 setdash 2 copy vpt Square fill Bsquare} bind def
/S2 {BL [] 0 setdash 2 copy exch vpt sub exch vpt Square fill Bsquare} bind def
/S3 {BL [] 0 setdash 2 copy exch vpt sub exch vpt2 vpt Rec fill Bsquare} bind def
/S4 {BL [] 0 setdash 2 copy exch vpt sub exch vpt sub vpt Square fill Bsquare} bind def
/S5 {BL [] 0 setdash 2 copy 2 copy vpt Square fill
	exch vpt sub exch vpt sub vpt Square fill Bsquare} bind def
/S6 {BL [] 0 setdash 2 copy exch vpt sub exch vpt sub vpt vpt2 Rec fill Bsquare} bind def
/S7 {BL [] 0 setdash 2 copy exch vpt sub exch vpt sub vpt vpt2 Rec fill
	2 copy vpt Square fill Bsquare} bind def
/S8 {BL [] 0 setdash 2 copy vpt sub vpt Square fill Bsquare} bind def
/S9 {BL [] 0 setdash 2 copy vpt sub vpt vpt2 Rec fill Bsquare} bind def
/S10 {BL [] 0 setdash 2 copy vpt sub vpt Square fill 2 copy exch vpt sub exch vpt Square fill
	Bsquare} bind def
/S11 {BL [] 0 setdash 2 copy vpt sub vpt Square fill 2 copy exch vpt sub exch vpt2 vpt Rec fill
	Bsquare} bind def
/S12 {BL [] 0 setdash 2 copy exch vpt sub exch vpt sub vpt2 vpt Rec fill Bsquare} bind def
/S13 {BL [] 0 setdash 2 copy exch vpt sub exch vpt sub vpt2 vpt Rec fill
	2 copy vpt Square fill Bsquare} bind def
/S14 {BL [] 0 setdash 2 copy exch vpt sub exch vpt sub vpt2 vpt Rec fill
	2 copy exch vpt sub exch vpt Square fill Bsquare} bind def
/S15 {BL [] 0 setdash 2 copy Bsquare fill Bsquare} bind def
/D0 {gsave translate 45 rotate 0 0 S0 stroke grestore} bind def
/D1 {gsave translate 45 rotate 0 0 S1 stroke grestore} bind def
/D2 {gsave translate 45 rotate 0 0 S2 stroke grestore} bind def
/D3 {gsave translate 45 rotate 0 0 S3 stroke grestore} bind def
/D4 {gsave translate 45 rotate 0 0 S4 stroke grestore} bind def
/D5 {gsave translate 45 rotate 0 0 S5 stroke grestore} bind def
/D6 {gsave translate 45 rotate 0 0 S6 stroke grestore} bind def
/D7 {gsave translate 45 rotate 0 0 S7 stroke grestore} bind def
/D8 {gsave translate 45 rotate 0 0 S8 stroke grestore} bind def
/D9 {gsave translate 45 rotate 0 0 S9 stroke grestore} bind def
/D10 {gsave translate 45 rotate 0 0 S10 stroke grestore} bind def
/D11 {gsave translate 45 rotate 0 0 S11 stroke grestore} bind def
/D12 {gsave translate 45 rotate 0 0 S12 stroke grestore} bind def
/D13 {gsave translate 45 rotate 0 0 S13 stroke grestore} bind def
/D14 {gsave translate 45 rotate 0 0 S14 stroke grestore} bind def
/D15 {gsave translate 45 rotate 0 0 S15 stroke grestore} bind def
/DiaE {stroke [] 0 setdash vpt add M
  hpt neg vpt neg V hpt vpt neg V
  hpt vpt V hpt neg vpt V closepath stroke} def
/BoxE {stroke [] 0 setdash exch hpt sub exch vpt add M
  0 vpt2 neg V hpt2 0 V 0 vpt2 V
  hpt2 neg 0 V closepath stroke} def
/TriUE {stroke [] 0 setdash vpt 1.12 mul add M
  hpt neg vpt -1.62 mul V
  hpt 2 mul 0 V
  hpt neg vpt 1.62 mul V closepath stroke} def
/TriDE {stroke [] 0 setdash vpt 1.12 mul sub M
  hpt neg vpt 1.62 mul V
  hpt 2 mul 0 V
  hpt neg vpt -1.62 mul V closepath stroke} def
/PentE {stroke [] 0 setdash gsave
  translate 0 hpt M 4 {72 rotate 0 hpt L} repeat
  closepath stroke grestore} def
/CircE {stroke [] 0 setdash 
  hpt 0 360 arc stroke} def
/Opaque {gsave closepath 1 setgray fill grestore 0 setgray closepath} def
/DiaW {stroke [] 0 setdash vpt add M
  hpt neg vpt neg V hpt vpt neg V
  hpt vpt V hpt neg vpt V Opaque stroke} def
/BoxW {stroke [] 0 setdash exch hpt sub exch vpt add M
  0 vpt2 neg V hpt2 0 V 0 vpt2 V
  hpt2 neg 0 V Opaque stroke} def
/TriUW {stroke [] 0 setdash vpt 1.12 mul add M
  hpt neg vpt -1.62 mul V
  hpt 2 mul 0 V
  hpt neg vpt 1.62 mul V Opaque stroke} def
/TriDW {stroke [] 0 setdash vpt 1.12 mul sub M
  hpt neg vpt 1.62 mul V
  hpt 2 mul 0 V
  hpt neg vpt -1.62 mul V Opaque stroke} def
/PentW {stroke [] 0 setdash gsave
  translate 0 hpt M 4 {72 rotate 0 hpt L} repeat
  Opaque stroke grestore} def
/CircW {stroke [] 0 setdash 
  hpt 0 360 arc Opaque stroke} def
/BoxFill {gsave Rec 1 setgray fill grestore} def
/Density {
  /Fillden exch def
  currentrgbcolor
  /ColB exch def /ColG exch def /ColR exch def
  /ColR ColR Fillden mul Fillden sub 1 add def
  /ColG ColG Fillden mul Fillden sub 1 add def
  /ColB ColB Fillden mul Fillden sub 1 add def
  ColR ColG ColB setrgbcolor} def
/BoxColFill {gsave Rec PolyFill} def
/PolyFill {gsave Density fill grestore grestore} def
/h {rlineto rlineto rlineto gsave closepath fill grestore} bind def
%
% PostScript Level 1 Pattern Fill routine for rectangles
% Usage: x y w h s a XX PatternFill
%	x,y = lower left corner of box to be filled
%	w,h = width and height of box
%	  a = angle in degrees between lines and x-axis
%	 XX = 0/1 for no/yes cross-hatch
%
/PatternFill {gsave /PFa [ 9 2 roll ] def
  PFa 0 get PFa 2 get 2 div add PFa 1 get PFa 3 get 2 div add translate
  PFa 2 get -2 div PFa 3 get -2 div PFa 2 get PFa 3 get Rec
  TransparentPatterns {} {gsave 1 setgray fill grestore} ifelse
  clip
  currentlinewidth 0.5 mul setlinewidth
  /PFs PFa 2 get dup mul PFa 3 get dup mul add sqrt def
  0 0 M PFa 5 get rotate PFs -2 div dup translate
  0 1 PFs PFa 4 get div 1 add floor cvi
	{PFa 4 get mul 0 M 0 PFs V} for
  0 PFa 6 get ne {
	0 1 PFs PFa 4 get div 1 add floor cvi
	{PFa 4 get mul 0 2 1 roll M PFs 0 V} for
 } if
  stroke grestore} def
%
/languagelevel where
 {pop languagelevel} {1} ifelse
dup 2 lt
	{/InterpretLevel1 true def
	 /InterpretLevel3 false def}
	{/InterpretLevel1 Level1 def
	 2 gt
	    {/InterpretLevel3 Level3 def}
	    {/InterpretLevel3 false def}
	 ifelse }
 ifelse
%
% PostScript level 2 pattern fill definitions
%
/Level2PatternFill {
/Tile8x8 {/PaintType 2 /PatternType 1 /TilingType 1 /BBox [0 0 8 8] /XStep 8 /YStep 8}
	bind def
/KeepColor {currentrgbcolor [/Pattern /DeviceRGB] setcolorspace} bind def
<< Tile8x8
 /PaintProc {0.5 setlinewidth pop 0 0 M 8 8 L 0 8 M 8 0 L stroke} 
>> matrix makepattern
/Pat1 exch def
<< Tile8x8
 /PaintProc {0.5 setlinewidth pop 0 0 M 8 8 L 0 8 M 8 0 L stroke
	0 4 M 4 8 L 8 4 L 4 0 L 0 4 L stroke}
>> matrix makepattern
/Pat2 exch def
<< Tile8x8
 /PaintProc {0.5 setlinewidth pop 0 0 M 0 8 L
	8 8 L 8 0 L 0 0 L fill}
>> matrix makepattern
/Pat3 exch def
<< Tile8x8
 /PaintProc {0.5 setlinewidth pop -4 8 M 8 -4 L
	0 12 M 12 0 L stroke}
>> matrix makepattern
/Pat4 exch def
<< Tile8x8
 /PaintProc {0.5 setlinewidth pop -4 0 M 8 12 L
	0 -4 M 12 8 L stroke}
>> matrix makepattern
/Pat5 exch def
<< Tile8x8
 /PaintProc {0.5 setlinewidth pop -2 8 M 4 -4 L
	0 12 M 8 -4 L 4 12 M 10 0 L stroke}
>> matrix makepattern
/Pat6 exch def
<< Tile8x8
 /PaintProc {0.5 setlinewidth pop -2 0 M 4 12 L
	0 -4 M 8 12 L 4 -4 M 10 8 L stroke}
>> matrix makepattern
/Pat7 exch def
<< Tile8x8
 /PaintProc {0.5 setlinewidth pop 8 -2 M -4 4 L
	12 0 M -4 8 L 12 4 M 0 10 L stroke}
>> matrix makepattern
/Pat8 exch def
<< Tile8x8
 /PaintProc {0.5 setlinewidth pop 0 -2 M 12 4 L
	-4 0 M 12 8 L -4 4 M 8 10 L stroke}
>> matrix makepattern
/Pat9 exch def
/Pattern1 {PatternBgnd KeepColor Pat1 setpattern} bind def
/Pattern2 {PatternBgnd KeepColor Pat2 setpattern} bind def
/Pattern3 {PatternBgnd KeepColor Pat3 setpattern} bind def
/Pattern4 {PatternBgnd KeepColor Landscape {Pat5} {Pat4} ifelse setpattern} bind def
/Pattern5 {PatternBgnd KeepColor Landscape {Pat4} {Pat5} ifelse setpattern} bind def
/Pattern6 {PatternBgnd KeepColor Landscape {Pat9} {Pat6} ifelse setpattern} bind def
/Pattern7 {PatternBgnd KeepColor Landscape {Pat8} {Pat7} ifelse setpattern} bind def
} def
%
%
%End of PostScript Level 2 code
%
/PatternBgnd {
  TransparentPatterns {} {gsave 1 setgray fill grestore} ifelse
} def
%
% Substitute for Level 2 pattern fill codes with
% grayscale if Level 2 support is not selected.
%
/Level1PatternFill {
/Pattern1 {0.250 Density} bind def
/Pattern2 {0.500 Density} bind def
/Pattern3 {0.750 Density} bind def
/Pattern4 {0.125 Density} bind def
/Pattern5 {0.375 Density} bind def
/Pattern6 {0.625 Density} bind def
/Pattern7 {0.875 Density} bind def
} def
%
% Now test for support of Level 2 code
%
Level1 {Level1PatternFill} {Level2PatternFill} ifelse
%
/Symbol-Oblique /Symbol findfont [1 0 .167 1 0 0] makefont
dup length dict begin {1 index /FID eq {pop pop} {def} ifelse} forall
currentdict end definefont pop
%
/MFshow {
   { dup 5 get 3 ge
     { 5 get 3 eq {gsave} {grestore} ifelse }
     {dup dup 0 get findfont exch 1 get scalefont setfont
     [ currentpoint ] exch dup 2 get 0 exch R dup 5 get 2 ne {dup dup 6
     get exch 4 get {textshow} {stringwidth pop 0 R} ifelse }if dup 5 get 0 eq
     {dup 3 get {2 get neg 0 exch R pop} {pop aload pop M} ifelse} {dup 5
     get 1 eq {dup 2 get exch dup 3 get exch 6 get stringwidth pop -2 div
     dup 0 R} {dup 6 get stringwidth pop -2 div 0 R 6 get
     textshow 2 index {aload pop M neg 3 -1 roll neg R pop pop} {pop pop pop
     pop aload pop M} ifelse }ifelse }ifelse }
     ifelse }
   forall} def
/Gswidth {dup type /stringtype eq {stringwidth} {pop (n) stringwidth} ifelse} def
/MFwidth {0 exch { dup 5 get 3 ge { 5 get 3 eq { 0 } { pop } ifelse }
 {dup 3 get{dup dup 0 get findfont exch 1 get scalefont setfont
     6 get Gswidth pop add} {pop} ifelse} ifelse} forall} def
/MLshow { currentpoint stroke M
  0 exch R
  Blacktext {gsave 0 setgray MFshow grestore} {MFshow} ifelse } bind def
/MRshow { currentpoint stroke M
  exch dup MFwidth neg 3 -1 roll R
  Blacktext {gsave 0 setgray MFshow grestore} {MFshow} ifelse } bind def
/MCshow { currentpoint stroke M
  exch dup MFwidth -2 div 3 -1 roll R
  Blacktext {gsave 0 setgray MFshow grestore} {MFshow} ifelse } bind def
/XYsave    { [( ) 1 2 true false 3 ()] } bind def
/XYrestore { [( ) 1 2 true false 4 ()] } bind def
Level1 SuppressPDFMark or 
{} {
/SDict 10 dict def
systemdict /pdfmark known not {
  userdict /pdfmark systemdict /cleartomark get put
} if
SDict begin [
  /Title (Plots/Plot_Ham_x_Convergence.eps)
  /Subject (gnuplot plot)
  /Creator (gnuplot 5.0 patchlevel 1)
  /Author (helvi)
%  /Producer (gnuplot)
%  /Keywords ()
  /CreationDate (Fri Jan 20 12:54:33 2017)
  /DOCINFO pdfmark
end
} ifelse
end
%
% Support for boxed text - Ethan A Merritt May 2005
%
/InitTextBox { userdict /TBy2 3 -1 roll put userdict /TBx2 3 -1 roll put
           userdict /TBy1 3 -1 roll put userdict /TBx1 3 -1 roll put
	   /Boxing true def } def
/ExtendTextBox { Boxing
    { gsave dup false charpath pathbbox
      dup TBy2 gt {userdict /TBy2 3 -1 roll put} {pop} ifelse
      dup TBx2 gt {userdict /TBx2 3 -1 roll put} {pop} ifelse
      dup TBy1 lt {userdict /TBy1 3 -1 roll put} {pop} ifelse
      dup TBx1 lt {userdict /TBx1 3 -1 roll put} {pop} ifelse
      grestore } if } def
/PopTextBox { newpath TBx1 TBxmargin sub TBy1 TBymargin sub M
               TBx1 TBxmargin sub TBy2 TBymargin add L
	       TBx2 TBxmargin add TBy2 TBymargin add L
	       TBx2 TBxmargin add TBy1 TBymargin sub L closepath } def
/DrawTextBox { PopTextBox stroke /Boxing false def} def
/FillTextBox { gsave PopTextBox 1 1 1 setrgbcolor fill grestore /Boxing false def} def
0 0 0 0 InitTextBox
/TBxmargin 20 def
/TBymargin 20 def
/Boxing false def
/textshow { ExtendTextBox Gshow } def
%
%%EndProlog
%%Page: 1 1
gnudict begin
gsave
doclip
50 50 translate
0.050 0.050 scale
0 setgray
newpath
(Helvetica) findfont 140 scalefont setfont
BackgroundColor 0 lt 3 1 roll 0 lt exch 0 lt or or not {BackgroundColor C 1.000 0 0 7200.00 5040.00 BoxColFill} if
/Helvetica findfont 140 scalefont setfont
/vshift -46 def
/Helvetica findfont 140 scalefont setfont
1.000 UL
LTb
LCb setrgbcolor
686 448 M
63 0 V
6198 0 R
-63 0 V
stroke
602 448 M
[ [(Helvetica) 140.0 0.0 true true 0 (10)]
[(Helvetica) 112.0 70.0 true true 0 (-12)]
] -60.7 MRshow
1.000 UL
LTb
LCb setrgbcolor
686 764 M
31 0 V
6230 0 R
-31 0 V
686 1080 M
63 0 V
6198 0 R
-63 0 V
stroke
602 1080 M
[ [(Helvetica) 140.0 0.0 true true 0 (10)]
[(Helvetica) 112.0 70.0 true true 0 (-10)]
] -60.7 MRshow
1.000 UL
LTb
LCb setrgbcolor
686 1396 M
31 0 V
6230 0 R
-31 0 V
686 1712 M
63 0 V
6198 0 R
-63 0 V
stroke
602 1712 M
[ [(Helvetica) 140.0 0.0 true true 0 (10)]
[(Helvetica) 112.0 70.0 true true 0 (-8)]
] -60.7 MRshow
1.000 UL
LTb
LCb setrgbcolor
686 2028 M
31 0 V
6230 0 R
-31 0 V
686 2344 M
63 0 V
6198 0 R
-63 0 V
stroke
602 2344 M
[ [(Helvetica) 140.0 0.0 true true 0 (10)]
[(Helvetica) 112.0 70.0 true true 0 (-6)]
] -60.7 MRshow
1.000 UL
LTb
LCb setrgbcolor
686 2660 M
31 0 V
6230 0 R
-31 0 V
686 2975 M
63 0 V
6198 0 R
-63 0 V
stroke
602 2975 M
[ [(Helvetica) 140.0 0.0 true true 0 (10)]
[(Helvetica) 112.0 70.0 true true 0 (-4)]
] -60.7 MRshow
1.000 UL
LTb
LCb setrgbcolor
686 3291 M
31 0 V
6230 0 R
-31 0 V
686 3607 M
63 0 V
6198 0 R
-63 0 V
stroke
602 3607 M
[ [(Helvetica) 140.0 0.0 true true 0 (10)]
[(Helvetica) 112.0 70.0 true true 0 (-2)]
] -60.7 MRshow
1.000 UL
LTb
LCb setrgbcolor
686 3923 M
31 0 V
6230 0 R
-31 0 V
686 4239 M
63 0 V
6198 0 R
-63 0 V
stroke
602 4239 M
[ [(Helvetica) 140.0 0.0 true true 0 (10)]
[(Helvetica) 112.0 70.0 true true 0 (0)]
] -60.7 MRshow
1.000 UL
LTb
LCb setrgbcolor
686 4555 M
31 0 V
6230 0 R
-31 0 V
686 4871 M
63 0 V
6198 0 R
-63 0 V
stroke
602 4871 M
[ [(Helvetica) 140.0 0.0 true true 0 (10)]
[(Helvetica) 112.0 70.0 true true 0 (2)]
] -60.7 MRshow
1.000 UL
LTb
LCb setrgbcolor
686 448 M
0 63 V
0 4360 R
0 -63 V
stroke
686 308 M
[ [(Helvetica) 140.0 0.0 true true 0 (-20)]
] -46.7 MCshow
1.000 UL
LTb
LCb setrgbcolor
1469 448 M
0 63 V
0 4360 R
0 -63 V
stroke
1469 308 M
[ [(Helvetica) 140.0 0.0 true true 0 (-15)]
] -46.7 MCshow
1.000 UL
LTb
LCb setrgbcolor
2251 448 M
0 63 V
0 4360 R
0 -63 V
stroke
2251 308 M
[ [(Helvetica) 140.0 0.0 true true 0 (-10)]
] -46.7 MCshow
1.000 UL
LTb
LCb setrgbcolor
3034 448 M
0 63 V
0 4360 R
0 -63 V
stroke
3034 308 M
[ [(Helvetica) 140.0 0.0 true true 0 (-5)]
] -46.7 MCshow
1.000 UL
LTb
LCb setrgbcolor
3817 448 M
0 63 V
0 4360 R
0 -63 V
stroke
3817 308 M
[ [(Helvetica) 140.0 0.0 true true 0 ( 0)]
] -46.7 MCshow
1.000 UL
LTb
LCb setrgbcolor
4599 448 M
0 63 V
0 4360 R
0 -63 V
stroke
4599 308 M
[ [(Helvetica) 140.0 0.0 true true 0 ( 5)]
] -46.7 MCshow
1.000 UL
LTb
LCb setrgbcolor
5382 448 M
0 63 V
0 4360 R
0 -63 V
stroke
5382 308 M
[ [(Helvetica) 140.0 0.0 true true 0 ( 10)]
] -46.7 MCshow
1.000 UL
LTb
LCb setrgbcolor
6164 448 M
0 63 V
0 4360 R
0 -63 V
stroke
6164 308 M
[ [(Helvetica) 140.0 0.0 true true 0 ( 15)]
] -46.7 MCshow
1.000 UL
LTb
LCb setrgbcolor
6947 448 M
0 63 V
0 4360 R
0 -63 V
stroke
6947 308 M
[ [(Helvetica) 140.0 0.0 true true 0 ( 20)]
] -46.7 MCshow
1.000 UL
LTb
LCb setrgbcolor
1.000 UL
LTb
LCb setrgbcolor
686 4871 N
686 448 L
6261 0 V
0 4423 V
-6261 0 V
Z stroke
1.000 UP
1.000 UL
LTb
LCb setrgbcolor
LCb setrgbcolor
112 2659 M
currentpoint gsave translate -270 rotate 0 0 moveto
[ [(Helvetica) 140.0 0.0 true true 0 (H)]
] -46.7 MCshow
grestore
LTb
LCb setrgbcolor
3816 98 M
[ [(Helvetica) 140.0 0.0 true true 0 (x)]
] -46.7 MCshow
LTb
% Begin plot #1
1.000 UL
LTb
0.58 0.00 0.83 C /Helvetica findfont 140 scalefont setfont
LCb setrgbcolor
6296 4738 M
("TP_a0975_c1101_w1r6_mu033_dx025_nA160np16/leanbssnmol-ham.x.xg::hc" u 1:\(abs\($2\)\)) Rshow
1.000 UL
LTb
0.58 0.00 0.83 C 6380 4738 M
399 0 V
1508 448 M
0 1468 V
39 -150 V
39 -452 V
39 15 V
39 16 V
39 16 V
40 16 V
39 16 V
39 16 V
39 17 V
39 17 V
39 18 V
39 17 V
39 18 V
40 18 V
39 18 V
39 19 V
39 19 V
39 19 V
39 19 V
39 20 V
40 20 V
39 20 V
19 17 V
20 3 V
19 -141 V
20 161 V
19 226 V
20 -15 V
20 83 V
19 132 V
20 17 V
19 -17 V
20 -261 V
19 -471 V
20 10 V
20 11 V
19 11 V
20 12 V
19 11 V
20 11 V
19 8 V
20 6 V
20 2 V
19 -3 V
20 -9 V
19 -17 V
20 -27 V
19 -43 V
20 -80 V
19 -483 V
20 526 V
20 106 V
19 86 V
20 67 V
19 59 V
20 53 V
19 50 V
20 48 V
20 45 V
9 13 V
10 31 V
10 96 V
10 -53 V
9 147 V
10 -46 V
10 232 V
10 109 V
10 13 V
9 -46 V
10 -267 V
10 -349 V
10 21 V
10 22 V
9 21 V
10 22 V
10 21 V
10 22 V
9 22 V
10 22 V
10 23 V
10 22 V
10 23 V
9 23 V
10 23 V
10 24 V
10 23 V
9 24 V
10 25 V
10 24 V
10 25 V
10 26 V
9 25 V
10 26 V
10 27 V
10 27 V
10 27 V
4 13 V
5 15 V
5 26 V
5 2 V
5 -90 V
stroke 3479 2298 M
5 48 V
5 184 V
5 74 V
5 5 V
4 -99 V
5 -305 V
5 -78 V
5 16 V
5 16 V
5 16 V
5 16 V
5 16 V
5 16 V
4 17 V
5 17 V
5 17 V
5 17 V
5 18 V
5 18 V
5 18 V
5 18 V
5 19 V
4 19 V
5 19 V
5 20 V
5 20 V
5 20 V
5 21 V
5 21 V
5 22 V
5 22 V
5 22 V
2 11 V
2 12 V
3 16 V
2 8 V
3 -16 V
2 20 V
3 78 V
2 44 V
3 -7 V
2 -141 V
2 -649 V
3 392 V
2 13 V
3 14 V
2 13 V
3 14 V
2 14 V
3 15 V
2 14 V
2 15 V
3 15 V
2 15 V
3 15 V
2 16 V
3 16 V
2 16 V
3 16 V
2 17 V
2 17 V
3 17 V
2 18 V
3 17 V
2 18 V
3 19 V
2 18 V
3 19 V
2 20 V
2 19 V
3 20 V
2 20 V
3 21 V
2 21 V
3 21 V
2 21 V
3 22 V
2 22 V
2 22 V
3 22 V
2 23 V
3 22 V
2 23 V
3 23 V
2 24 V
3 23 V
2 23 V
2 23 V
3 23 V
2 23 V
3 22 V
2 21 V
3 20 V
2 19 V
3 16 V
2 12 V
2 5 V
3 -9 V
2 -46 V
3 -497 V
2 607 V
3 451 V
2 321 V
3 -13 V
stroke 3812 4147 M
2 -186 V
3 137 V
2 -137 V
2 186 V
3 13 V
2 -321 V
3 -451 V
2 -607 V
3 497 V
2 46 V
3 9 V
2 -5 V
2 -12 V
3 -16 V
2 -19 V
3 -20 V
2 -21 V
3 -22 V
2 -23 V
3 -23 V
2 -23 V
2 -23 V
3 -23 V
2 -24 V
3 -23 V
2 -23 V
3 -22 V
2 -23 V
3 -22 V
2 -22 V
2 -22 V
3 -22 V
2 -21 V
3 -21 V
2 -21 V
3 -21 V
2 -20 V
3 -20 V
2 -19 V
2 -20 V
3 -19 V
2 -18 V
3 -19 V
2 -18 V
3 -17 V
2 -18 V
3 -17 V
2 -17 V
2 -17 V
3 -16 V
2 -16 V
3 -16 V
2 -16 V
3 -15 V
2 -15 V
3 -15 V
2 -15 V
2 -14 V
3 -15 V
2 -14 V
3 -14 V
2 -13 V
3 -14 V
2 -13 V
3 -393 V
2 650 V
2 141 V
3 7 V
2 -44 V
3 -78 V
2 -20 V
3 16 V
2 -8 V
3 -16 V
2 -12 V
2 -11 V
5 -22 V
5 -22 V
5 -22 V
5 -21 V
5 -21 V
5 -20 V
5 -20 V
5 -20 V
5 -19 V
4 -19 V
5 -19 V
5 -18 V
5 -18 V
5 -18 V
5 -18 V
5 -17 V
5 -17 V
5 -17 V
4 -17 V
5 -16 V
5 -16 V
5 -16 V
5 -16 V
5 -16 V
5 -16 V
5 78 V
5 305 V
4 99 V
stroke 4134 2609 M
5 -4 V
5 -75 V
5 -184 V
5 -48 V
5 90 V
5 -2 V
5 -26 V
5 -15 V
4 -13 V
10 -27 V
10 -27 V
10 -27 V
10 -26 V
9 -25 V
10 -26 V
10 -25 V
10 -24 V
10 -25 V
9 -24 V
10 -23 V
10 -24 V
10 -23 V
9 -23 V
10 -23 V
10 -22 V
10 -23 V
10 -22 V
9 -22 V
10 -22 V
10 -21 V
10 -22 V
9 -21 V
10 -22 V
10 -21 V
10 349 V
10 267 V
9 46 V
10 -13 V
10 -109 V
10 -232 V
10 46 V
9 -147 V
10 53 V
10 -96 V
10 -31 V
9 -13 V
20 -45 V
20 -48 V
19 -50 V
20 -53 V
19 -59 V
20 -67 V
19 -82 V
20 -121 V
20 -551 V
19 519 V
20 80 V
19 43 V
20 27 V
19 17 V
20 9 V
19 3 V
20 -2 V
20 -6 V
19 -8 V
20 -11 V
19 -11 V
20 -12 V
19 -11 V
20 -11 V
20 -10 V
19 471 V
20 261 V
19 17 V
20 -17 V
19 -132 V
20 -83 V
20 15 V
19 -226 V
20 -161 V
19 141 V
20 -3 V
19 -17 V
39 -20 V
40 -20 V
39 -20 V
39 -19 V
39 -19 V
39 -19 V
39 -19 V
39 -18 V
40 -18 V
39 -18 V
39 -17 V
39 -18 V
39 -17 V
39 -17 V
39 -16 V
39 -16 V
40 -16 V
39 -16 V
39 -16 V
39 -15 V
39 452 V
stroke 6086 1766 M
39 150 V
0 -1468 V
% End plot #1
% Begin plot #2
stroke
LTb
0.00 0.62 0.45 C /Helvetica findfont 140 scalefont setfont
LCb setrgbcolor
6296 4598 M
("TP_a0975_c1101_w1r6_mu033_dx020_nA160np16/leanbssnmol-ham.x.xg::hc" u 1:\(abs\($2\)*2.44\)) Rshow
1.000 UL
LTb
0.00 0.62 0.45 C 6380 4598 M
399 0 V
1500 448 M
0 1492 V
31 -149 V
32 -487 V
31 12 V
31 12 V
31 13 V
32 12 V
31 13 V
31 13 V
32 13 V
31 13 V
31 14 V
32 13 V
31 14 V
31 14 V
32 14 V
31 14 V
31 14 V
31 15 V
32 14 V
31 15 V
31 15 V
32 15 V
31 15 V
31 16 V
32 15 V
31 16 V
31 16 V
31 16 V
32 16 V
15 15 V
16 1 V
16 -192 V
15 208 V
16 243 V
16 -17 V
15 93 V
16 130 V
16 19 V
15 -23 V
16 -258 V
16 -508 V
15 8 V
16 8 V
16 8 V
15 10 V
16 10 V
16 9 V
15 9 V
16 7 V
15 7 V
16 5 V
16 3 V
15 1 V
16 -2 V
16 -8 V
15 -12 V
16 -19 V
16 -28 V
15 -39 V
16 -66 V
16 -174 V
15 104 V
16 146 V
16 85 V
15 64 V
16 54 V
16 49 V
15 45 V
16 42 V
16 39 V
15 40 V
16 35 V
15 36 V
16 35 V
8 9 V
8 26 V
8 90 V
7 -56 V
8 152 V
8 -42 V
8 223 V
8 111 V
8 15 V
7 -46 V
8 -263 V
8 -393 V
8 17 V
8 17 V
8 17 V
7 17 V
8 17 V
8 18 V
8 17 V
8 18 V
7 17 V
8 18 V
8 17 V
8 18 V
8 19 V
8 18 V
7 18 V
stroke 3323 1997 M
8 18 V
8 19 V
8 19 V
8 19 V
8 19 V
7 19 V
8 20 V
8 20 V
8 20 V
8 20 V
8 20 V
7 21 V
8 21 V
8 21 V
8 21 V
8 22 V
7 22 V
8 22 V
4 10 V
4 13 V
4 25 V
4 -2 V
4 -112 V
4 51 V
4 205 V
4 78 V
4 7 V
3 -90 V
4 -288 V
4 -136 V
4 13 V
4 12 V
4 12 V
4 13 V
4 13 V
4 13 V
4 13 V
4 13 V
3 14 V
4 13 V
4 14 V
4 14 V
4 14 V
4 14 V
4 14 V
4 14 V
4 15 V
4 15 V
4 14 V
4 16 V
3 15 V
4 15 V
4 16 V
4 16 V
4 16 V
4 17 V
4 16 V
4 17 V
4 18 V
4 17 V
4 18 V
3 18 V
4 19 V
2 9 V
2 9 V
2 15 V
2 5 V
2 -22 V
2 18 V
2 84 V
2 48 V
2 -5 V
2 -128 V
0 93 V
2 -521 V
2 134 V
0 270 V
2 -260 V
2 11 V
0 293 V
2 -282 V
2 11 V
0 293 V
2 -282 V
2 11 V
0 293 V
2 -282 V
2 12 V
0 293 V
1 -282 V
2 12 V
0 294 V
2 -282 V
2 12 V
0 294 V
2 -282 V
2 12 V
0 294 V
2 -281 V
2 12 V
0 294 V
2 -281 V
2 13 V
0 294 V
stroke 3699 2855 M
2 -281 V
2 13 V
0 295 V
2 -281 V
2 13 V
0 295 V
2 -281 V
2 14 V
0 295 V
2 -281 V
2 15 V
0 294 V
2 -280 V
2 15 V
0 295 V
2 -280 V
2 15 V
0 660 V
0 -365 V
2 -280 V
1 16 V
0 295 V
2 -279 V
2 15 V
0 660 V
0 -364 V
2 -279 V
2 16 V
0 295 V
2 -279 V
2 17 V
0 659 V
2 -642 V
2 17 V
2 17 V
2 18 V
0 657 V
2 -640 V
2 18 V
2 18 V
2 18 V
2 18 V
2 18 V
2 19 V
2 18 V
2 19 V
2 18 V
2 19 V
2 18 V
1 19 V
2 19 V
2 18 V
2 18 V
2 18 V
2 18 V
2 17 V
2 16 V
2 15 V
2 14 V
2 11 V
2 8 V
2 3 V
2 -7 V
2 -28 V
2 -99 V
2 12 V
2 206 V
2 108 V
2 609 V
0 -8 V
2 330 V
2 -290 V
2 13 V
2 72 V
1 -72 V
2 -13 V
2 290 V
2 -330 V
0 8 V
2 -609 V
2 -108 V
2 -206 V
2 -12 V
2 99 V
2 28 V
2 7 V
2 -3 V
2 -8 V
2 282 V
0 -293 V
2 -14 V
2 286 V
0 -301 V
2 -16 V
2 286 V
0 -303 V
2 -18 V
2 286 V
0 342 V
0 -646 V
2 -18 V
2 285 V
0 -303 V
2 -19 V
stroke 3862 3164 M
1 284 V
0 350 V
0 -653 V
2 -18 V
2 282 V
0 -301 V
2 -18 V
2 281 V
0 355 V
0 -655 V
2 -18 V
2 280 V
0 -299 V
2 -18 V
2 280 V
0 358 V
0 -656 V
2 -18 V
2 279 V
0 -297 V
2 -18 V
2 279 V
0 361 V
0 -657 V
2 -18 V
2 279 V
0 -296 V
2 -17 V
2 279 V
0 363 V
0 -659 V
2 -17 V
2 279 V
0 -295 V
2 -16 V
2 279 V
0 364 V
0 -660 V
2 -15 V
2 279 V
0 -295 V
1 -16 V
2 280 V
0 365 V
0 -660 V
2 -15 V
2 280 V
0 -295 V
2 -15 V
2 280 V
0 367 V
0 -661 V
2 -15 V
2 281 V
0 -295 V
2 -14 V
2 281 V
0 724 V
0 -1019 V
2 -13 V
2 281 V
0 -295 V
2 -13 V
2 281 V
0 -294 V
2 -13 V
2 281 V
0 -294 V
2 -12 V
2 -13 V
0 1334 V
0 -672 V
2 -674 V
2 -12 V
2 -12 V
2 -12 V
0 662 V
2 -674 V
1 282 V
0 -293 V
2 -12 V
2 282 V
0 -293 V
0 662 V
2 -673 V
2 282 V
0 -293 V
2 -11 V
2 282 V
0 -293 V
0 662 V
2 -673 V
2 260 V
0 -270 V
2 -134 V
2 521 V
0 -92 V
0 352 V
2 -225 V
2 5 V
2 -48 V
2 -84 V
2 -18 V
2 22 V
stroke 3985 2650 M
2 -5 V
2 -15 V
2 -9 V
2 -9 V
4 -19 V
3 -18 V
4 -18 V
0 292 V
4 -309 V
4 -18 V
0 292 V
4 -309 V
4 -16 V
0 292 V
4 -309 V
4 -16 V
0 292 V
4 -308 V
4 -16 V
0 293 V
4 -308 V
3 -15 V
0 292 V
4 -308 V
4 -14 V
0 292 V
4 -307 V
4 -15 V
0 293 V
4 -307 V
4 -15 V
4 -13 V
4 -14 V
4 -14 V
4 -14 V
4 -13 V
3 -14 V
4 -13 V
4 -13 V
4 -13 V
4 -13 V
4 -13 V
4 -12 V
4 -12 V
4 -13 V
4 136 V
4 288 V
3 90 V
4 -7 V
4 -78 V
4 -205 V
4 -51 V
4 112 V
4 2 V
4 -25 V
4 -13 V
4 -10 V
8 -22 V
7 -22 V
8 -22 V
8 -21 V
8 -21 V
8 -21 V
7 -21 V
8 -20 V
8 -20 V
8 -20 V
8 -20 V
8 -20 V
7 -19 V
8 -19 V
8 -19 V
8 -19 V
8 -19 V
8 -17 V
7 -19 V
8 -18 V
8 -19 V
8 -18 V
8 -17 V
8 -18 V
7 -17 V
8 -18 V
8 -17 V
8 -18 V
8 -17 V
7 -17 V
8 -17 V
8 -17 V
8 -17 V
8 393 V
8 263 V
7 46 V
8 -15 V
8 -111 V
8 -223 V
8 42 V
8 -152 V
7 56 V
8 -90 V
8 -26 V
8 -9 V
16 -35 V
15 -36 V
stroke 4552 1837 M
16 -36 V
15 -38 V
16 -40 V
16 -42 V
15 -45 V
16 -49 V
16 -54 V
15 -64 V
16 -85 V
16 -146 V
15 -102 V
16 172 V
16 66 V
15 39 V
16 37 V
16 2 V
15 21 V
16 6 V
16 3 V
15 -1 V
16 -3 V
0 423 V
16 -428 V
15 -7 V
0 414 V
16 -421 V
15 -9 V
0 407 V
16 -416 V
16 -10 V
0 402 V
15 -411 V
16 -9 V
0 397 V
16 -405 V
15 -8 V
0 546 V
16 -38 V
16 258 V
0 -12 V
15 35 V
16 -19 V
16 -130 V
15 -93 V
16 17 V
16 -243 V
15 -208 V
16 192 V
16 -1 V
15 -15 V
32 -16 V
31 -16 V
31 -16 V
31 -16 V
32 -15 V
31 -16 V
31 -15 V
32 -15 V
31 -14 V
31 -17 V
32 -13 V
31 -15 V
31 -14 V
31 -14 V
32 -14 V
31 -14 V
31 -14 V
32 -13 V
31 -14 V
31 -13 V
32 -13 V
31 -13 V
31 -12 V
32 -13 V
31 -12 V
31 -13 V
31 -12 V
32 486 V
31 150 V
0 -1492 V
% End plot #2
stroke
2.000 UL
LTb
LCb setrgbcolor
1.000 UL
LTb
LCb setrgbcolor
686 4871 N
686 448 L
6261 0 V
0 4423 V
-6261 0 V
Z stroke
1.000 UP
1.000 UL
LTb
LCb setrgbcolor
stroke
grestore
end
showpage
%%Trailer
%%DocumentFonts: Helvetica
