%!PS-Adobe-2.0 EPSF-2.0
%%Title: Plots/Plot_Ham_y_VarNA.eps
%%Creator: gnuplot 4.2 patchlevel 3 
%%CreationDate: Fri Jan 20 11:18:19 2017
%%DocumentFonts: (atend)
%%BoundingBox: 50 50 410 302
%%EndComments
%%BeginProlog
/gnudict 256 dict def
gnudict begin
%
% The following 6 true/false flags may be edited by hand if required
% The unit line width may also be changed
%
/Color true def
/Blacktext false def
/Solid false def
/Dashlength 1 def
/Landscape false def
/Level1 false def
/Rounded false def
/TransparentPatterns false def
/gnulinewidth 5.000 def
/userlinewidth gnulinewidth def
%
/vshift -46 def
/dl1 {
  10.0 Dashlength mul mul
  Rounded { currentlinewidth 0.75 mul sub dup 0 le { pop 0.01 } if } if
} def
/dl2 {
  10.0 Dashlength mul mul
  Rounded { currentlinewidth 0.75 mul add } if
} def
/hpt_ 31.5 def
/vpt_ 31.5 def
/hpt hpt_ def
/vpt vpt_ def
Level1 {} {
/SDict 10 dict def
systemdict /pdfmark known not {
  userdict /pdfmark systemdict /cleartomark get put
} if
SDict begin [
  /Title (Plots/Plot_Ham_y_VarNA.eps)
  /Subject (gnuplot plot)
  /Creator (gnuplot 4.2 patchlevel 3 )
  /Author (Helvi Witek)
%  /Producer (gnuplot)
%  /Keywords ()
  /CreationDate (Fri Jan 20 11:18:19 2017)
  /DOCINFO pdfmark
end
} ifelse
%
% Gnuplot Prolog Version 4.2 (November 2007)
%
/M {moveto} bind def
/L {lineto} bind def
/R {rmoveto} bind def
/V {rlineto} bind def
/N {newpath moveto} bind def
/Z {closepath} bind def
/C {setrgbcolor} bind def
/f {rlineto fill} bind def
/Gshow {show} def   % May be redefined later in the file to support UTF-8
/vpt2 vpt 2 mul def
/hpt2 hpt 2 mul def
/Lshow {currentpoint stroke M 0 vshift R 
	Blacktext {gsave 0 setgray show grestore} {show} ifelse} def
/Rshow {currentpoint stroke M dup stringwidth pop neg vshift R
	Blacktext {gsave 0 setgray show grestore} {show} ifelse} def
/Cshow {currentpoint stroke M dup stringwidth pop -2 div vshift R 
	Blacktext {gsave 0 setgray show grestore} {show} ifelse} def
/UP {dup vpt_ mul /vpt exch def hpt_ mul /hpt exch def
  /hpt2 hpt 2 mul def /vpt2 vpt 2 mul def} def
/DL {Color {setrgbcolor Solid {pop []} if 0 setdash}
 {pop pop pop 0 setgray Solid {pop []} if 0 setdash} ifelse} def
/BL {stroke userlinewidth 2 mul setlinewidth
	Rounded {1 setlinejoin 1 setlinecap} if} def
/AL {stroke userlinewidth 2 div setlinewidth
	Rounded {1 setlinejoin 1 setlinecap} if} def
/UL {dup gnulinewidth mul /userlinewidth exch def
	dup 1 lt {pop 1} if 10 mul /udl exch def} def
/PL {stroke userlinewidth setlinewidth
	Rounded {1 setlinejoin 1 setlinecap} if} def
% Default Line colors
/LCw {1 1 1} def
/LCb {0 0 0} def
/LCa {0 0 0} def
/LC0 {1 0 0} def
/LC1 {0 1 0} def
/LC2 {0 0 1} def
/LC3 {1 0 1} def
/LC4 {0 1 1} def
/LC5 {1 1 0} def
/LC6 {0 0 0} def
/LC7 {1 0.3 0} def
/LC8 {0.5 0.5 0.5} def
% Default Line Types
/LTw {PL [] 1 setgray} def
/LTb {BL [] LCb DL} def
/LTa {AL [1 udl mul 2 udl mul] 0 setdash LCa setrgbcolor} def
/LT0 {PL [] LC0 DL} def
/LT1 {PL [4 dl1 2 dl2] LC1 DL} def
/LT2 {PL [2 dl1 3 dl2] LC2 DL} def
/LT3 {PL [1 dl1 1.5 dl2] LC3 DL} def
/LT4 {PL [6 dl1 2 dl2 1 dl1 2 dl2] LC4 DL} def
/LT5 {PL [3 dl1 3 dl2 1 dl1 3 dl2] LC5 DL} def
/LT6 {PL [2 dl1 2 dl2 2 dl1 6 dl2] LC6 DL} def
/LT7 {PL [1 dl1 2 dl2 6 dl1 2 dl2 1 dl1 2 dl2] LC7 DL} def
/LT8 {PL [2 dl1 2 dl2 2 dl1 2 dl2 2 dl1 2 dl2 2 dl1 4 dl2] LC8 DL} def
/Pnt {stroke [] 0 setdash gsave 1 setlinecap M 0 0 V stroke grestore} def
/Dia {stroke [] 0 setdash 2 copy vpt add M
  hpt neg vpt neg V hpt vpt neg V
  hpt vpt V hpt neg vpt V closepath stroke
  Pnt} def
/Pls {stroke [] 0 setdash vpt sub M 0 vpt2 V
  currentpoint stroke M
  hpt neg vpt neg R hpt2 0 V stroke
 } def
/Box {stroke [] 0 setdash 2 copy exch hpt sub exch vpt add M
  0 vpt2 neg V hpt2 0 V 0 vpt2 V
  hpt2 neg 0 V closepath stroke
  Pnt} def
/Crs {stroke [] 0 setdash exch hpt sub exch vpt add M
  hpt2 vpt2 neg V currentpoint stroke M
  hpt2 neg 0 R hpt2 vpt2 V stroke} def
/TriU {stroke [] 0 setdash 2 copy vpt 1.12 mul add M
  hpt neg vpt -1.62 mul V
  hpt 2 mul 0 V
  hpt neg vpt 1.62 mul V closepath stroke
  Pnt} def
/Star {2 copy Pls Crs} def
/BoxF {stroke [] 0 setdash exch hpt sub exch vpt add M
  0 vpt2 neg V hpt2 0 V 0 vpt2 V
  hpt2 neg 0 V closepath fill} def
/TriUF {stroke [] 0 setdash vpt 1.12 mul add M
  hpt neg vpt -1.62 mul V
  hpt 2 mul 0 V
  hpt neg vpt 1.62 mul V closepath fill} def
/TriD {stroke [] 0 setdash 2 copy vpt 1.12 mul sub M
  hpt neg vpt 1.62 mul V
  hpt 2 mul 0 V
  hpt neg vpt -1.62 mul V closepath stroke
  Pnt} def
/TriDF {stroke [] 0 setdash vpt 1.12 mul sub M
  hpt neg vpt 1.62 mul V
  hpt 2 mul 0 V
  hpt neg vpt -1.62 mul V closepath fill} def
/DiaF {stroke [] 0 setdash vpt add M
  hpt neg vpt neg V hpt vpt neg V
  hpt vpt V hpt neg vpt V closepath fill} def
/Pent {stroke [] 0 setdash 2 copy gsave
  translate 0 hpt M 4 {72 rotate 0 hpt L} repeat
  closepath stroke grestore Pnt} def
/PentF {stroke [] 0 setdash gsave
  translate 0 hpt M 4 {72 rotate 0 hpt L} repeat
  closepath fill grestore} def
/Circle {stroke [] 0 setdash 2 copy
  hpt 0 360 arc stroke Pnt} def
/CircleF {stroke [] 0 setdash hpt 0 360 arc fill} def
/C0 {BL [] 0 setdash 2 copy moveto vpt 90 450 arc} bind def
/C1 {BL [] 0 setdash 2 copy moveto
	2 copy vpt 0 90 arc closepath fill
	vpt 0 360 arc closepath} bind def
/C2 {BL [] 0 setdash 2 copy moveto
	2 copy vpt 90 180 arc closepath fill
	vpt 0 360 arc closepath} bind def
/C3 {BL [] 0 setdash 2 copy moveto
	2 copy vpt 0 180 arc closepath fill
	vpt 0 360 arc closepath} bind def
/C4 {BL [] 0 setdash 2 copy moveto
	2 copy vpt 180 270 arc closepath fill
	vpt 0 360 arc closepath} bind def
/C5 {BL [] 0 setdash 2 copy moveto
	2 copy vpt 0 90 arc
	2 copy moveto
	2 copy vpt 180 270 arc closepath fill
	vpt 0 360 arc} bind def
/C6 {BL [] 0 setdash 2 copy moveto
	2 copy vpt 90 270 arc closepath fill
	vpt 0 360 arc closepath} bind def
/C7 {BL [] 0 setdash 2 copy moveto
	2 copy vpt 0 270 arc closepath fill
	vpt 0 360 arc closepath} bind def
/C8 {BL [] 0 setdash 2 copy moveto
	2 copy vpt 270 360 arc closepath fill
	vpt 0 360 arc closepath} bind def
/C9 {BL [] 0 setdash 2 copy moveto
	2 copy vpt 270 450 arc closepath fill
	vpt 0 360 arc closepath} bind def
/C10 {BL [] 0 setdash 2 copy 2 copy moveto vpt 270 360 arc closepath fill
	2 copy moveto
	2 copy vpt 90 180 arc closepath fill
	vpt 0 360 arc closepath} bind def
/C11 {BL [] 0 setdash 2 copy moveto
	2 copy vpt 0 180 arc closepath fill
	2 copy moveto
	2 copy vpt 270 360 arc closepath fill
	vpt 0 360 arc closepath} bind def
/C12 {BL [] 0 setdash 2 copy moveto
	2 copy vpt 180 360 arc closepath fill
	vpt 0 360 arc closepath} bind def
/C13 {BL [] 0 setdash 2 copy moveto
	2 copy vpt 0 90 arc closepath fill
	2 copy moveto
	2 copy vpt 180 360 arc closepath fill
	vpt 0 360 arc closepath} bind def
/C14 {BL [] 0 setdash 2 copy moveto
	2 copy vpt 90 360 arc closepath fill
	vpt 0 360 arc} bind def
/C15 {BL [] 0 setdash 2 copy vpt 0 360 arc closepath fill
	vpt 0 360 arc closepath} bind def
/Rec {newpath 4 2 roll moveto 1 index 0 rlineto 0 exch rlineto
	neg 0 rlineto closepath} bind def
/Square {dup Rec} bind def
/Bsquare {vpt sub exch vpt sub exch vpt2 Square} bind def
/S0 {BL [] 0 setdash 2 copy moveto 0 vpt rlineto BL Bsquare} bind def
/S1 {BL [] 0 setdash 2 copy vpt Square fill Bsquare} bind def
/S2 {BL [] 0 setdash 2 copy exch vpt sub exch vpt Square fill Bsquare} bind def
/S3 {BL [] 0 setdash 2 copy exch vpt sub exch vpt2 vpt Rec fill Bsquare} bind def
/S4 {BL [] 0 setdash 2 copy exch vpt sub exch vpt sub vpt Square fill Bsquare} bind def
/S5 {BL [] 0 setdash 2 copy 2 copy vpt Square fill
	exch vpt sub exch vpt sub vpt Square fill Bsquare} bind def
/S6 {BL [] 0 setdash 2 copy exch vpt sub exch vpt sub vpt vpt2 Rec fill Bsquare} bind def
/S7 {BL [] 0 setdash 2 copy exch vpt sub exch vpt sub vpt vpt2 Rec fill
	2 copy vpt Square fill Bsquare} bind def
/S8 {BL [] 0 setdash 2 copy vpt sub vpt Square fill Bsquare} bind def
/S9 {BL [] 0 setdash 2 copy vpt sub vpt vpt2 Rec fill Bsquare} bind def
/S10 {BL [] 0 setdash 2 copy vpt sub vpt Square fill 2 copy exch vpt sub exch vpt Square fill
	Bsquare} bind def
/S11 {BL [] 0 setdash 2 copy vpt sub vpt Square fill 2 copy exch vpt sub exch vpt2 vpt Rec fill
	Bsquare} bind def
/S12 {BL [] 0 setdash 2 copy exch vpt sub exch vpt sub vpt2 vpt Rec fill Bsquare} bind def
/S13 {BL [] 0 setdash 2 copy exch vpt sub exch vpt sub vpt2 vpt Rec fill
	2 copy vpt Square fill Bsquare} bind def
/S14 {BL [] 0 setdash 2 copy exch vpt sub exch vpt sub vpt2 vpt Rec fill
	2 copy exch vpt sub exch vpt Square fill Bsquare} bind def
/S15 {BL [] 0 setdash 2 copy Bsquare fill Bsquare} bind def
/D0 {gsave translate 45 rotate 0 0 S0 stroke grestore} bind def
/D1 {gsave translate 45 rotate 0 0 S1 stroke grestore} bind def
/D2 {gsave translate 45 rotate 0 0 S2 stroke grestore} bind def
/D3 {gsave translate 45 rotate 0 0 S3 stroke grestore} bind def
/D4 {gsave translate 45 rotate 0 0 S4 stroke grestore} bind def
/D5 {gsave translate 45 rotate 0 0 S5 stroke grestore} bind def
/D6 {gsave translate 45 rotate 0 0 S6 stroke grestore} bind def
/D7 {gsave translate 45 rotate 0 0 S7 stroke grestore} bind def
/D8 {gsave translate 45 rotate 0 0 S8 stroke grestore} bind def
/D9 {gsave translate 45 rotate 0 0 S9 stroke grestore} bind def
/D10 {gsave translate 45 rotate 0 0 S10 stroke grestore} bind def
/D11 {gsave translate 45 rotate 0 0 S11 stroke grestore} bind def
/D12 {gsave translate 45 rotate 0 0 S12 stroke grestore} bind def
/D13 {gsave translate 45 rotate 0 0 S13 stroke grestore} bind def
/D14 {gsave translate 45 rotate 0 0 S14 stroke grestore} bind def
/D15 {gsave translate 45 rotate 0 0 S15 stroke grestore} bind def
/DiaE {stroke [] 0 setdash vpt add M
  hpt neg vpt neg V hpt vpt neg V
  hpt vpt V hpt neg vpt V closepath stroke} def
/BoxE {stroke [] 0 setdash exch hpt sub exch vpt add M
  0 vpt2 neg V hpt2 0 V 0 vpt2 V
  hpt2 neg 0 V closepath stroke} def
/TriUE {stroke [] 0 setdash vpt 1.12 mul add M
  hpt neg vpt -1.62 mul V
  hpt 2 mul 0 V
  hpt neg vpt 1.62 mul V closepath stroke} def
/TriDE {stroke [] 0 setdash vpt 1.12 mul sub M
  hpt neg vpt 1.62 mul V
  hpt 2 mul 0 V
  hpt neg vpt -1.62 mul V closepath stroke} def
/PentE {stroke [] 0 setdash gsave
  translate 0 hpt M 4 {72 rotate 0 hpt L} repeat
  closepath stroke grestore} def
/CircE {stroke [] 0 setdash 
  hpt 0 360 arc stroke} def
/Opaque {gsave closepath 1 setgray fill grestore 0 setgray closepath} def
/DiaW {stroke [] 0 setdash vpt add M
  hpt neg vpt neg V hpt vpt neg V
  hpt vpt V hpt neg vpt V Opaque stroke} def
/BoxW {stroke [] 0 setdash exch hpt sub exch vpt add M
  0 vpt2 neg V hpt2 0 V 0 vpt2 V
  hpt2 neg 0 V Opaque stroke} def
/TriUW {stroke [] 0 setdash vpt 1.12 mul add M
  hpt neg vpt -1.62 mul V
  hpt 2 mul 0 V
  hpt neg vpt 1.62 mul V Opaque stroke} def
/TriDW {stroke [] 0 setdash vpt 1.12 mul sub M
  hpt neg vpt 1.62 mul V
  hpt 2 mul 0 V
  hpt neg vpt -1.62 mul V Opaque stroke} def
/PentW {stroke [] 0 setdash gsave
  translate 0 hpt M 4 {72 rotate 0 hpt L} repeat
  Opaque stroke grestore} def
/CircW {stroke [] 0 setdash 
  hpt 0 360 arc Opaque stroke} def
/BoxFill {gsave Rec 1 setgray fill grestore} def
/Density {
  /Fillden exch def
  currentrgbcolor
  /ColB exch def /ColG exch def /ColR exch def
  /ColR ColR Fillden mul Fillden sub 1 add def
  /ColG ColG Fillden mul Fillden sub 1 add def
  /ColB ColB Fillden mul Fillden sub 1 add def
  ColR ColG ColB setrgbcolor} def
/BoxColFill {gsave Rec PolyFill} def
/PolyFill {gsave Density fill grestore grestore} def
/h {rlineto rlineto rlineto gsave closepath fill grestore} bind def
%
% PostScript Level 1 Pattern Fill routine for rectangles
% Usage: x y w h s a XX PatternFill
%	x,y = lower left corner of box to be filled
%	w,h = width and height of box
%	  a = angle in degrees between lines and x-axis
%	 XX = 0/1 for no/yes cross-hatch
%
/PatternFill {gsave /PFa [ 9 2 roll ] def
  PFa 0 get PFa 2 get 2 div add PFa 1 get PFa 3 get 2 div add translate
  PFa 2 get -2 div PFa 3 get -2 div PFa 2 get PFa 3 get Rec
  gsave 1 setgray fill grestore clip
  currentlinewidth 0.5 mul setlinewidth
  /PFs PFa 2 get dup mul PFa 3 get dup mul add sqrt def
  0 0 M PFa 5 get rotate PFs -2 div dup translate
  0 1 PFs PFa 4 get div 1 add floor cvi
	{PFa 4 get mul 0 M 0 PFs V} for
  0 PFa 6 get ne {
	0 1 PFs PFa 4 get div 1 add floor cvi
	{PFa 4 get mul 0 2 1 roll M PFs 0 V} for
 } if
  stroke grestore} def
%
/languagelevel where
 {pop languagelevel} {1} ifelse
 2 lt
	{/InterpretLevel1 true def}
	{/InterpretLevel1 Level1 def}
 ifelse
%
% PostScript level 2 pattern fill definitions
%
/Level2PatternFill {
/Tile8x8 {/PaintType 2 /PatternType 1 /TilingType 1 /BBox [0 0 8 8] /XStep 8 /YStep 8}
	bind def
/KeepColor {currentrgbcolor [/Pattern /DeviceRGB] setcolorspace} bind def
<< Tile8x8
 /PaintProc {0.5 setlinewidth pop 0 0 M 8 8 L 0 8 M 8 0 L stroke} 
>> matrix makepattern
/Pat1 exch def
<< Tile8x8
 /PaintProc {0.5 setlinewidth pop 0 0 M 8 8 L 0 8 M 8 0 L stroke
	0 4 M 4 8 L 8 4 L 4 0 L 0 4 L stroke}
>> matrix makepattern
/Pat2 exch def
<< Tile8x8
 /PaintProc {0.5 setlinewidth pop 0 0 M 0 8 L
	8 8 L 8 0 L 0 0 L fill}
>> matrix makepattern
/Pat3 exch def
<< Tile8x8
 /PaintProc {0.5 setlinewidth pop -4 8 M 8 -4 L
	0 12 M 12 0 L stroke}
>> matrix makepattern
/Pat4 exch def
<< Tile8x8
 /PaintProc {0.5 setlinewidth pop -4 0 M 8 12 L
	0 -4 M 12 8 L stroke}
>> matrix makepattern
/Pat5 exch def
<< Tile8x8
 /PaintProc {0.5 setlinewidth pop -2 8 M 4 -4 L
	0 12 M 8 -4 L 4 12 M 10 0 L stroke}
>> matrix makepattern
/Pat6 exch def
<< Tile8x8
 /PaintProc {0.5 setlinewidth pop -2 0 M 4 12 L
	0 -4 M 8 12 L 4 -4 M 10 8 L stroke}
>> matrix makepattern
/Pat7 exch def
<< Tile8x8
 /PaintProc {0.5 setlinewidth pop 8 -2 M -4 4 L
	12 0 M -4 8 L 12 4 M 0 10 L stroke}
>> matrix makepattern
/Pat8 exch def
<< Tile8x8
 /PaintProc {0.5 setlinewidth pop 0 -2 M 12 4 L
	-4 0 M 12 8 L -4 4 M 8 10 L stroke}
>> matrix makepattern
/Pat9 exch def
/Pattern1 {PatternBgnd KeepColor Pat1 setpattern} bind def
/Pattern2 {PatternBgnd KeepColor Pat2 setpattern} bind def
/Pattern3 {PatternBgnd KeepColor Pat3 setpattern} bind def
/Pattern4 {PatternBgnd KeepColor Landscape {Pat5} {Pat4} ifelse setpattern} bind def
/Pattern5 {PatternBgnd KeepColor Landscape {Pat4} {Pat5} ifelse setpattern} bind def
/Pattern6 {PatternBgnd KeepColor Landscape {Pat9} {Pat6} ifelse setpattern} bind def
/Pattern7 {PatternBgnd KeepColor Landscape {Pat8} {Pat7} ifelse setpattern} bind def
} def
%
%
%End of PostScript Level 2 code
%
/PatternBgnd {
  TransparentPatterns {} {gsave 1 setgray fill grestore} ifelse
} def
%
% Substitute for Level 2 pattern fill codes with
% grayscale if Level 2 support is not selected.
%
/Level1PatternFill {
/Pattern1 {0.250 Density} bind def
/Pattern2 {0.500 Density} bind def
/Pattern3 {0.750 Density} bind def
/Pattern4 {0.125 Density} bind def
/Pattern5 {0.375 Density} bind def
/Pattern6 {0.625 Density} bind def
/Pattern7 {0.875 Density} bind def
} def
%
% Now test for support of Level 2 code
%
Level1 {Level1PatternFill} {Level2PatternFill} ifelse
%
/Symbol-Oblique /Symbol findfont [1 0 .167 1 0 0] makefont
dup length dict begin {1 index /FID eq {pop pop} {def} ifelse} forall
currentdict end definefont pop
end
%%EndProlog
gnudict begin
gsave
50 50 translate
0.050 0.050 scale
0 setgray
newpath
(Helvetica) findfont 140 scalefont setfont
/Helvetica findfont 140 scalefont setfont
/Helvetica findfont 140 scalefont setfont
/Helvetica findfont 140 scalefont setfont
/Helvetica findfont 140 scalefont setfont
1.000 UL
LTb
966 420 M
63 0 V
5933 0 R
-63 0 V
882 420 M
( 1e-10) Rshow
1.000 UL
LTb
966 865 M
63 0 V
5933 0 R
-63 0 V
882 865 M
( 1e-09) Rshow
1.000 UL
LTb
966 1310 M
63 0 V
5933 0 R
-63 0 V
-6017 0 R
( 1e-08) Rshow
1.000 UL
LTb
966 1756 M
63 0 V
5933 0 R
-63 0 V
-6017 0 R
( 1e-07) Rshow
1.000 UL
LTb
966 2201 M
63 0 V
5933 0 R
-63 0 V
-6017 0 R
( 1e-06) Rshow
1.000 UL
LTb
966 2646 M
63 0 V
5933 0 R
-63 0 V
-6017 0 R
( 1e-05) Rshow
1.000 UL
LTb
966 3091 M
63 0 V
5933 0 R
-63 0 V
-6017 0 R
( 0.0001) Rshow
1.000 UL
LTb
966 3536 M
63 0 V
5933 0 R
-63 0 V
-6017 0 R
( 0.001) Rshow
1.000 UL
LTb
966 3982 M
63 0 V
5933 0 R
-63 0 V
-6017 0 R
( 0.01) Rshow
1.000 UL
LTb
966 4427 M
63 0 V
5933 0 R
-63 0 V
-6017 0 R
( 0.1) Rshow
1.000 UL
LTb
966 4872 M
63 0 V
5933 0 R
-63 0 V
-6017 0 R
( 1) Rshow
1.000 UL
LTb
966 420 M
0 63 V
0 4389 R
0 -63 V
966 280 M
( 0.01) Cshow
1.000 UL
LTb
1417 420 M
0 31 V
0 4421 R
0 -31 V
1681 420 M
0 31 V
0 4421 R
0 -31 V
1868 420 M
0 31 V
0 4421 R
0 -31 V
2014 420 M
0 31 V
0 4421 R
0 -31 V
2132 420 M
0 31 V
0 4421 R
0 -31 V
2233 420 M
0 31 V
0 4421 R
0 -31 V
2320 420 M
0 31 V
0 4421 R
0 -31 V
2396 420 M
0 31 V
0 4421 R
0 -31 V
2465 420 M
0 63 V
0 4389 R
0 -63 V
0 -4529 R
( 0.1) Cshow
1.000 UL
LTb
2916 420 M
0 31 V
0 4421 R
0 -31 V
3180 420 M
0 31 V
0 4421 R
0 -31 V
3367 420 M
0 31 V
0 4421 R
0 -31 V
3513 420 M
0 31 V
0 4421 R
0 -31 V
3631 420 M
0 31 V
0 4421 R
0 -31 V
3732 420 M
0 31 V
0 4421 R
0 -31 V
3819 420 M
0 31 V
0 4421 R
0 -31 V
3895 420 M
0 31 V
0 4421 R
0 -31 V
3964 420 M
0 63 V
0 4389 R
0 -63 V
0 -4529 R
( 1) Cshow
1.000 UL
LTb
4415 420 M
0 31 V
0 4421 R
0 -31 V
4679 420 M
0 31 V
0 4421 R
0 -31 V
4866 420 M
0 31 V
0 4421 R
0 -31 V
5012 420 M
0 31 V
0 4421 R
0 -31 V
5130 420 M
0 31 V
0 4421 R
0 -31 V
5231 420 M
0 31 V
0 4421 R
0 -31 V
5318 420 M
0 31 V
0 4421 R
0 -31 V
5394 420 M
0 31 V
0 4421 R
0 -31 V
5463 420 M
0 63 V
0 4389 R
0 -63 V
0 -4529 R
( 10) Cshow
1.000 UL
LTb
5914 420 M
0 31 V
0 4421 R
0 -31 V
6178 420 M
0 31 V
0 4421 R
0 -31 V
6365 420 M
0 31 V
0 4421 R
0 -31 V
6511 420 M
0 31 V
0 4421 R
0 -31 V
6629 420 M
0 31 V
0 4421 R
0 -31 V
6730 420 M
0 31 V
0 4421 R
0 -31 V
6817 420 M
0 31 V
0 4421 R
0 -31 V
6893 420 M
0 31 V
0 4421 R
0 -31 V
6962 420 M
0 63 V
0 4389 R
0 -63 V
0 -4529 R
( 100) Cshow
1.000 UL
LTb
1.000 UL
LTb
966 4872 N
966 420 L
5996 0 V
0 4452 V
-5996 0 V
Z stroke
LCb setrgbcolor
140 2646 M
currentpoint gsave translate 90 rotate 0 0 M
(H) Cshow
grestore
LTb
LCb setrgbcolor
3964 70 M
(y) Cshow
LTb
1.000 UP
1.000 UL
LTb
1.000 UL
LT0
/Helvetica findfont 140 scalefont setfont
LTb
6311 4739 M
("TP_a0975_c1101_w1r6_mu033_dx025_nA96np16/leanbssnmol-ham.y.xg::hc" u 1:\(abs\($2\)\)) Rshow
LT0
6395 4739 M
399 0 V
966 4480 M
291 0 V
451 262 V
264 19 V
187 -452 V
145 -636 V
119 -852 V
100 697 V
87 65 V
77 12 V
69 -5 V
62 -20 V
56 -22 V
52 -22 V
49 -34 V
44 -33 V
43 -22 V
39 -31 V
37 -46 V
35 -34 V
34 -12 V
32 -27 V
30 -59 V
29 -55 V
27 -4 V
27 6 V
26 -36 V
24 -86 V
24 -81 V
23 16 V
22 42 V
21 -8 V
21 -76 V
20 -128 V
19 -71 V
19 59 V
18 50 V
18 -10 V
18 -56 V
17 -59 V
16 -16 V
16 -7 V
16 -80 V
15 -429 V
15 274 V
15 -855 V
14 1076 V
14 134 V
14 16 V
13 -122 V
13 -117 V
13 238 V
13 24 V
12 -143 V
12 -10 V
12 204 V
12 38 V
12 -69 V
11 -596 V
11 594 V
11 94 V
11 -12 V
10 -149 V
11 -83 V
10 260 V
10 -7 V
10 -43 V
10 -197 V
9 -17 V
10 151 V
9 13 V
10 -87 V
9 -801 V
9 833 V
9 110 V
17 -6 V
17 -494 V
16 493 V
16 -51 V
16 -160 V
15 243 V
15 -44 V
15 -389 V
14 408 V
14 -3 V
14 -392 V
13 359 V
14 62 V
12 -119 V
13 -124 V
12 218 V
13 -5 V
12 -219 V
11 99 V
12 129 V
11 -24 V
11 -224 V
11 93 V
11 135 V
11 -8 V
10 -144 V
10 -43 V
10 147 V
4435 2878 L
10 -134 V
10 -241 V
9 273 V
10 49 V
9 -45 V
9 -189 V
9 -2 V
9 187 V
17 11 V
17 -484 V
17 467 V
16 -65 V
15 -184 V
16 229 V
15 -64 V
14 -323 V
14 333 V
14 -15 V
14 -336 V
14 258 V
13 69 V
13 -90 V
12 -418 V
13 418 V
12 35 V
12 -93 V
12 -713 V
11 691 V
11 62 V
12 -39 V
10 -171 V
11 -111 V
11 211 V
10 48 V
10 -119 V
11 -49 V
10 86 V
9 -22 V
10 -81 V
9 -78 V
10 -93 V
9 -244 V
9 49 V
9 163 V
9 77 V
17 91 V
17 -11 V
17 -625 V
16 698 V
16 92 V
15 -64 V
15 -279 V
14 367 V
15 59 V
14 -68 V
13 -980 V
14 992 V
13 84 V
13 -18 V
13 -132 V
12 -266 V
12 309 V
12 57 V
12 -20 V
11 -89 V
12 -233 V
11 -15 V
11 152 V
10 25 V
11 -28 V
10 -76 V
11 -71 V
10 -122 V
10 67 V
10 20 V
9 -23 V
10 -102 V
9 -288 V
9 26 V
9 130 V
9 33 V
9 -10 V
18 -90 V
17 -135 V
16 -117 V
16 -119 V
16 -173 V
15 349 V
15 110 V
15 31 V
14 -35 V
14 -144 V
14 -164 V
13 269 V
13 74 V
13 11 V
13 -41 V
12 -115 V
12 -667 V
12 641 V
12 110 V
12 37 V
11 31 V
11 -320 V
5716 420 L
stroke
LT1
/Helvetica findfont 140 scalefont setfont
LTb
6311 4599 M
("TP_a0975_c1101_w1r6_mu033_dx025_nA128np16/leanbssnmol-ham.y.xg::hc" u 1:\(abs\($2\)\)) Rshow
LT1
6395 4599 M
399 0 V
966 4480 M
291 0 V
451 262 V
264 19 V
187 -452 V
145 -636 V
119 -856 V
100 701 V
87 65 V
77 13 V
69 -7 V
62 -17 V
56 -23 V
52 -26 V
49 -30 V
44 -29 V
43 -32 V
39 -32 V
37 -31 V
35 -33 V
34 -35 V
32 -29 V
30 -32 V
29 -39 V
27 -29 V
27 -23 V
26 -40 V
24 -45 V
24 -17 V
23 -13 V
22 -47 V
21 -64 V
21 -11 V
20 19 V
19 -31 V
19 -104 V
18 -76 V
18 72 V
18 48 V
17 -56 V
16 -213 V
16 -253 V
16 322 V
15 126 V
15 -25 V
15 -254 V
14 5 V
14 -203 V
14 336 V
13 103 V
13 -71 V
13 -556 V
13 494 V
12 -98 V
12 17 V
12 171 V
12 -27 V
12 -330 V
11 237 V
11 44 V
11 -243 V
11 185 V
10 106 V
11 -79 V
10 -13 V
10 159 V
10 15 V
10 -27 V
9 -36 V
10 8 V
9 1 V
10 -73 V
9 -143 V
9 -120 V
9 34 V
17 208 V
17 0 V
16 -243 V
16 -618 V
16 690 V
15 91 V
15 -117 V
15 -745 V
14 147 V
14 537 V
14 49 V
13 -120 V
14 -419 V
12 -223 V
13 482 V
12 86 V
13 -14 V
12 -43 V
11 -56 V
12 -169 V
11 -79 V
11 72 V
11 20 V
11 255 V
11 41 V
10 -788 V
10 964 V
10 165 V
4435 2557 L
10 -79 V
10 -155 V
9 -52 V
10 9 V
9 -139 V
9 -472 V
9 313 V
9 220 V
17 124 V
17 -258 V
17 66 V
16 -133 V
15 288 V
16 -148 V
15 19 V
14 -28 V
14 10 V
14 116 V
14 -275 V
14 201 V
13 -13 V
13 -201 V
12 258 V
13 -73 V
12 -181 V
12 226 V
12 -78 V
11 -172 V
11 239 V
12 -30 V
10 -541 V
11 508 V
11 43 V
10 -77 V
10 184 V
11 75 V
10 -26 V
9 -202 V
10 -38 V
9 56 V
10 -135 V
9 -423 V
9 435 V
9 65 V
9 -26 V
17 -240 V
17 218 V
17 -336 V
16 270 V
16 -53 V
15 -161 V
15 188 V
14 -118 V
15 -146 V
14 183 V
13 -22 V
14 -101 V
13 -183 V
13 -66 V
13 269 V
12 86 V
12 -18 V
12 -219 V
12 116 V
11 134 V
12 -13 V
11 -185 V
11 11 V
10 163 V
11 12 V
10 -43 V
11 83 V
10 103 V
10 -3 V
10 -125 V
9 -731 V
10 537 V
9 8 V
9 30 V
9 -4 V
9 -80 V
9 -227 V
18 162 V
17 3 V
16 -466 V
16 404 V
16 37 V
15 -122 V
15 -370 V
15 328 V
14 -9 V
14 -194 V
14 -13 V
13 154 V
13 5 V
13 -80 V
13 -239 V
12 -2 V
12 133 V
12 -4 V
12 -92 V
12 -318 V
11 685 V
11 194 V
5716 420 L
stroke
LT2
/Helvetica findfont 140 scalefont setfont
LTb
6311 4459 M
("TP_a0975_c1101_w1r6_mu033_dx025_nA160np16/leanbssnmol-ham.y.xg::hc" u 1:\(abs\($2\)\)) Rshow
LT2
6395 4459 M
399 0 V
966 4480 M
291 0 V
451 262 V
264 19 V
187 -452 V
145 -636 V
119 -856 V
100 701 V
87 65 V
77 13 V
69 -7 V
62 -18 V
56 -22 V
52 -27 V
49 -28 V
44 -30 V
43 -32 V
39 -32 V
37 -32 V
35 -32 V
34 -33 V
32 -32 V
30 -34 V
29 -31 V
27 -33 V
27 -33 V
26 -30 V
24 -32 V
24 -33 V
23 -29 V
22 -30 V
21 -33 V
21 -29 V
20 -25 V
19 -32 V
19 -32 V
18 -24 V
18 -23 V
18 -33 V
17 -32 V
16 -20 V
16 -19 V
16 -32 V
15 -35 V
15 -19 V
15 -12 V
14 -25 V
14 -38 V
14 -27 V
13 -10 V
13 -12 V
13 -30 V
13 -36 V
12 -22 V
12 -8 V
12 -13 V
12 -25 V
12 -30 V
11 -21 V
11 -16 V
11 -19 V
11 -19 V
10 -12 V
11 -877 V
10 1236 V
10 197 V
10 9 V
10 -62 V
9 -108 V
10 -27 V
9 21 V
10 -13 V
9 -25 V
9 -15 V
9 -11 V
17 -29 V
17 -44 V
16 -25 V
16 -14 V
16 -46 V
15 -45 V
15 2 V
15 -15 V
14 -70 V
14 -41 V
14 32 V
13 -12 V
14 -96 V
12 -65 V
13 70 V
12 22 V
13 -96 V
12 -170 V
11 77 V
12 110 V
11 -22 V
11 -187 V
11 -356 V
11 350 V
11 143 V
10 -135 V
10 544 V
10 142 V
4435 2567 L
10 -100 V
10 -241 V
9 -87 V
10 108 V
9 2 V
9 -24 V
9 -8 V
9 -14 V
17 -81 V
17 -20 V
17 -1 V
16 -82 V
15 -57 V
16 30 V
15 -38 V
14 -113 V
14 -13 V
14 43 V
14 -49 V
14 -129 V
13 -24 V
13 64 V
12 -14 V
13 -107 V
12 -112 V
12 35 V
12 46 V
11 -21 V
11 -76 V
12 -90 V
10 -55 V
11 -9 V
11 31 V
10 477 V
10 384 V
11 64 V
10 -18 V
9 -155 V
10 -324 V
9 54 V
10 -158 V
9 58 V
9 -138 V
9 -84 V
9 -47 V
17 47 V
17 -32 V
17 -182 V
16 219 V
16 -88 V
15 -77 V
15 118 V
14 -62 V
15 61 V
14 199 V
13 16 V
14 -104 V
13 -325 V
13 59 V
13 102 V
12 73 V
12 62 V
12 13 V
12 -66 V
11 -234 V
12 7 V
11 110 V
11 -47 V
10 -181 V
11 -319 V
10 695 V
11 344 V
10 56 V
10 -26 V
10 -185 V
9 -128 V
10 27 V
9 -300 V
9 -200 V
9 157 V
9 -12 V
9 -28 V
18 -27 V
17 -35 V
16 -33 V
16 -9 V
16 -4 V
15 -29 V
15 -59 V
15 -64 V
14 -21 V
14 24 V
14 16 V
13 -17 V
13 -57 V
13 -89 V
13 -82 V
12 -7 V
12 51 V
12 43 V
12 10 V
12 -27 V
11 562 V
11 209 V
5716 420 L
stroke
LT3
/Helvetica findfont 140 scalefont setfont
LTb
6311 4319 M
("TP_a0975_c1101_w1r6_mu033_dx025_nA192np16/leanbssnmol-ham.y.xg::hc" u 1:\(abs\($2\)\)) Rshow
LT3
6395 4319 M
399 0 V
966 4480 M
291 0 V
451 262 V
264 19 V
187 -452 V
145 -636 V
119 -856 V
100 701 V
87 65 V
77 13 V
69 -7 V
62 -18 V
56 -22 V
52 -27 V
49 -28 V
44 -30 V
43 -32 V
39 -32 V
37 -32 V
35 -32 V
34 -33 V
32 -33 V
30 -32 V
29 -33 V
27 -32 V
27 -32 V
26 -32 V
24 -31 V
24 -32 V
23 -31 V
22 -30 V
21 -30 V
21 -30 V
20 -29 V
19 -29 V
19 -29 V
18 -27 V
18 -28 V
18 -27 V
17 -27 V
16 -26 V
16 -26 V
16 -26 V
15 -25 V
15 -24 V
15 -24 V
14 -25 V
14 -23 V
14 -23 V
13 -22 V
13 -23 V
13 -23 V
13 -20 V
12 -21 V
12 -23 V
12 -22 V
12 -18 V
12 -18 V
11 -22 V
11 -23 V
11 -18 V
11 -14 V
10 -18 V
11 -537 V
10 895 V
10 199 V
10 10 V
10 -62 V
9 -111 V
10 -27 V
9 22 V
10 -10 V
9 -23 V
9 -17 V
9 -16 V
17 -31 V
17 -31 V
16 -31 V
16 -28 V
16 -31 V
15 -30 V
15 -25 V
15 -29 V
14 -29 V
14 -24 V
14 -26 V
13 -30 V
14 -23 V
12 -22 V
13 -28 V
12 -27 V
13 -19 V
12 -23 V
11 -29 V
12 -24 V
11 -16 V
11 -22 V
11 -30 V
11 -23 V
11 -15 V
10 104 V
10 432 V
10 140 V
4435 2568 L
10 -105 V
10 -259 V
9 -68 V
10 127 V
9 -2 V
9 -37 V
9 -22 V
9 -18 V
17 -38 V
17 -38 V
17 -37 V
16 -37 V
15 -36 V
16 -35 V
15 -37 V
14 -34 V
14 -33 V
14 -36 V
14 -34 V
14 -28 V
13 -35 V
13 -38 V
12 -27 V
13 -25 V
12 -40 V
12 -39 V
12 -20 V
11 -19 V
11 -43 V
12 -49 V
10 -18 V
11 -4 V
11 -32 V
10 474 V
10 375 V
11 65 V
10 -17 V
9 -154 V
10 -331 V
9 64 V
10 -190 V
9 73 V
9 -120 V
9 -41 V
9 -22 V
17 -64 V
17 -120 V
17 -322 V
16 365 V
16 91 V
15 23 V
15 -70 V
14 -520 V
15 582 V
14 109 V
13 29 V
14 -31 V
13 -126 V
13 -360 V
13 381 V
12 69 V
12 -4 V
12 -58 V
12 -120 V
11 -273 V
12 -5 V
11 115 V
11 -5 V
10 -54 V
11 -90 V
10 421 V
11 372 V
10 53 V
10 -27 V
10 -187 V
9 -121 V
10 22 V
9 -320 V
9 -228 V
9 202 V
9 -4 V
9 -25 V
18 -33 V
17 -27 V
16 -22 V
16 -27 V
16 -31 V
15 -29 V
15 -23 V
15 -21 V
14 -26 V
14 -30 V
14 -27 V
13 -22 V
13 -20 V
13 -21 V
13 -25 V
12 -27 V
12 -26 V
12 -21 V
12 -18 V
12 -18 V
11 634 V
11 210 V
5716 420 L
stroke
LTb
966 4872 N
966 420 L
5996 0 V
0 4452 V
-5996 0 V
Z stroke
1.000 UP
1.000 UL
LTb
stroke
grestore
end
showpage
%%Trailer
%%DocumentFonts: Helvetica
