%!PS-Adobe-2.0 EPSF-2.0
%%Title: Plots/Plot_Momy_x_Convergence.eps
%%Creator: gnuplot 5.0 patchlevel 1
%%CreationDate: Fri Jan 20 15:10:26 2017
%%DocumentFonts: (atend)
%%BoundingBox: 50 50 410 302
%%EndComments
%%BeginProlog
/gnudict 256 dict def
gnudict begin
%
% The following true/false flags may be edited by hand if desired.
% The unit line width and grayscale image gamma correction may also be changed.
%
/Color true def
/Blacktext false def
/Solid false def
/Dashlength 1 def
/Landscape false def
/Level1 false def
/Level3 false def
/Rounded false def
/ClipToBoundingBox false def
/SuppressPDFMark false def
/TransparentPatterns false def
/gnulinewidth 5.000 def
/userlinewidth gnulinewidth def
/Gamma 1.0 def
/BackgroundColor {-1.000 -1.000 -1.000} def
%
/vshift -46 def
/dl1 {
  10.0 Dashlength userlinewidth gnulinewidth div mul mul mul
  Rounded { currentlinewidth 0.75 mul sub dup 0 le { pop 0.01 } if } if
} def
/dl2 {
  10.0 Dashlength userlinewidth gnulinewidth div mul mul mul
  Rounded { currentlinewidth 0.75 mul add } if
} def
/hpt_ 31.5 def
/vpt_ 31.5 def
/hpt hpt_ def
/vpt vpt_ def
/doclip {
  ClipToBoundingBox {
    newpath 50 50 moveto 410 50 lineto 410 302 lineto 50 302 lineto closepath
    clip
  } if
} def
%
% Gnuplot Prolog Version 5.0 (Dec 2014)
%
%/SuppressPDFMark true def
%
/M {moveto} bind def
/L {lineto} bind def
/R {rmoveto} bind def
/V {rlineto} bind def
/N {newpath moveto} bind def
/Z {closepath} bind def
/C {setrgbcolor} bind def
/f {rlineto fill} bind def
/g {setgray} bind def
/Gshow {show} def   % May be redefined later in the file to support UTF-8
/vpt2 vpt 2 mul def
/hpt2 hpt 2 mul def
/Lshow {currentpoint stroke M 0 vshift R 
	Blacktext {gsave 0 setgray textshow grestore} {textshow} ifelse} def
/Rshow {currentpoint stroke M dup stringwidth pop neg vshift R
	Blacktext {gsave 0 setgray textshow grestore} {textshow} ifelse} def
/Cshow {currentpoint stroke M dup stringwidth pop -2 div vshift R 
	Blacktext {gsave 0 setgray textshow grestore} {textshow} ifelse} def
/UP {dup vpt_ mul /vpt exch def hpt_ mul /hpt exch def
  /hpt2 hpt 2 mul def /vpt2 vpt 2 mul def} def
/DL {Color {setrgbcolor Solid {pop []} if 0 setdash}
 {pop pop pop 0 setgray Solid {pop []} if 0 setdash} ifelse} def
/BL {stroke userlinewidth 2 mul setlinewidth
	Rounded {1 setlinejoin 1 setlinecap} if} def
/AL {stroke userlinewidth 2 div setlinewidth
	Rounded {1 setlinejoin 1 setlinecap} if} def
/UL {dup gnulinewidth mul /userlinewidth exch def
	dup 1 lt {pop 1} if 10 mul /udl exch def} def
/PL {stroke userlinewidth setlinewidth
	Rounded {1 setlinejoin 1 setlinecap} if} def
3.8 setmiterlimit
% Classic Line colors (version 5.0)
/LCw {1 1 1} def
/LCb {0 0 0} def
/LCa {0 0 0} def
/LC0 {1 0 0} def
/LC1 {0 1 0} def
/LC2 {0 0 1} def
/LC3 {1 0 1} def
/LC4 {0 1 1} def
/LC5 {1 1 0} def
/LC6 {0 0 0} def
/LC7 {1 0.3 0} def
/LC8 {0.5 0.5 0.5} def
% Default dash patterns (version 5.0)
/LTw {PL [] 1 setgray} def
/LTb {BL [] LCb DL} def
/LTa {AL [1 udl mul 2 udl mul] 0 setdash LCa setrgbcolor} def
/LT0 {PL [] LC0 DL} def
/LT1 {PL [2 dl1 3 dl2] LC1 DL} def
/LT2 {PL [1 dl1 1.5 dl2] LC2 DL} def
/LT3 {PL [6 dl1 2 dl2 1 dl1 2 dl2] LC3 DL} def
/LT4 {PL [1 dl1 2 dl2 6 dl1 2 dl2 1 dl1 2 dl2] LC4 DL} def
/LT5 {PL [4 dl1 2 dl2] LC5 DL} def
/LT6 {PL [1.5 dl1 1.5 dl2 1.5 dl1 1.5 dl2 1.5 dl1 6 dl2] LC6 DL} def
/LT7 {PL [3 dl1 3 dl2 1 dl1 3 dl2] LC7 DL} def
/LT8 {PL [2 dl1 2 dl2 2 dl1 6 dl2] LC8 DL} def
/SL {[] 0 setdash} def
/Pnt {stroke [] 0 setdash gsave 1 setlinecap M 0 0 V stroke grestore} def
/Dia {stroke [] 0 setdash 2 copy vpt add M
  hpt neg vpt neg V hpt vpt neg V
  hpt vpt V hpt neg vpt V closepath stroke
  Pnt} def
/Pls {stroke [] 0 setdash vpt sub M 0 vpt2 V
  currentpoint stroke M
  hpt neg vpt neg R hpt2 0 V stroke
 } def
/Box {stroke [] 0 setdash 2 copy exch hpt sub exch vpt add M
  0 vpt2 neg V hpt2 0 V 0 vpt2 V
  hpt2 neg 0 V closepath stroke
  Pnt} def
/Crs {stroke [] 0 setdash exch hpt sub exch vpt add M
  hpt2 vpt2 neg V currentpoint stroke M
  hpt2 neg 0 R hpt2 vpt2 V stroke} def
/TriU {stroke [] 0 setdash 2 copy vpt 1.12 mul add M
  hpt neg vpt -1.62 mul V
  hpt 2 mul 0 V
  hpt neg vpt 1.62 mul V closepath stroke
  Pnt} def
/Star {2 copy Pls Crs} def
/BoxF {stroke [] 0 setdash exch hpt sub exch vpt add M
  0 vpt2 neg V hpt2 0 V 0 vpt2 V
  hpt2 neg 0 V closepath fill} def
/TriUF {stroke [] 0 setdash vpt 1.12 mul add M
  hpt neg vpt -1.62 mul V
  hpt 2 mul 0 V
  hpt neg vpt 1.62 mul V closepath fill} def
/TriD {stroke [] 0 setdash 2 copy vpt 1.12 mul sub M
  hpt neg vpt 1.62 mul V
  hpt 2 mul 0 V
  hpt neg vpt -1.62 mul V closepath stroke
  Pnt} def
/TriDF {stroke [] 0 setdash vpt 1.12 mul sub M
  hpt neg vpt 1.62 mul V
  hpt 2 mul 0 V
  hpt neg vpt -1.62 mul V closepath fill} def
/DiaF {stroke [] 0 setdash vpt add M
  hpt neg vpt neg V hpt vpt neg V
  hpt vpt V hpt neg vpt V closepath fill} def
/Pent {stroke [] 0 setdash 2 copy gsave
  translate 0 hpt M 4 {72 rotate 0 hpt L} repeat
  closepath stroke grestore Pnt} def
/PentF {stroke [] 0 setdash gsave
  translate 0 hpt M 4 {72 rotate 0 hpt L} repeat
  closepath fill grestore} def
/Circle {stroke [] 0 setdash 2 copy
  hpt 0 360 arc stroke Pnt} def
/CircleF {stroke [] 0 setdash hpt 0 360 arc fill} def
/C0 {BL [] 0 setdash 2 copy moveto vpt 90 450 arc} bind def
/C1 {BL [] 0 setdash 2 copy moveto
	2 copy vpt 0 90 arc closepath fill
	vpt 0 360 arc closepath} bind def
/C2 {BL [] 0 setdash 2 copy moveto
	2 copy vpt 90 180 arc closepath fill
	vpt 0 360 arc closepath} bind def
/C3 {BL [] 0 setdash 2 copy moveto
	2 copy vpt 0 180 arc closepath fill
	vpt 0 360 arc closepath} bind def
/C4 {BL [] 0 setdash 2 copy moveto
	2 copy vpt 180 270 arc closepath fill
	vpt 0 360 arc closepath} bind def
/C5 {BL [] 0 setdash 2 copy moveto
	2 copy vpt 0 90 arc
	2 copy moveto
	2 copy vpt 180 270 arc closepath fill
	vpt 0 360 arc} bind def
/C6 {BL [] 0 setdash 2 copy moveto
	2 copy vpt 90 270 arc closepath fill
	vpt 0 360 arc closepath} bind def
/C7 {BL [] 0 setdash 2 copy moveto
	2 copy vpt 0 270 arc closepath fill
	vpt 0 360 arc closepath} bind def
/C8 {BL [] 0 setdash 2 copy moveto
	2 copy vpt 270 360 arc closepath fill
	vpt 0 360 arc closepath} bind def
/C9 {BL [] 0 setdash 2 copy moveto
	2 copy vpt 270 450 arc closepath fill
	vpt 0 360 arc closepath} bind def
/C10 {BL [] 0 setdash 2 copy 2 copy moveto vpt 270 360 arc closepath fill
	2 copy moveto
	2 copy vpt 90 180 arc closepath fill
	vpt 0 360 arc closepath} bind def
/C11 {BL [] 0 setdash 2 copy moveto
	2 copy vpt 0 180 arc closepath fill
	2 copy moveto
	2 copy vpt 270 360 arc closepath fill
	vpt 0 360 arc closepath} bind def
/C12 {BL [] 0 setdash 2 copy moveto
	2 copy vpt 180 360 arc closepath fill
	vpt 0 360 arc closepath} bind def
/C13 {BL [] 0 setdash 2 copy moveto
	2 copy vpt 0 90 arc closepath fill
	2 copy moveto
	2 copy vpt 180 360 arc closepath fill
	vpt 0 360 arc closepath} bind def
/C14 {BL [] 0 setdash 2 copy moveto
	2 copy vpt 90 360 arc closepath fill
	vpt 0 360 arc} bind def
/C15 {BL [] 0 setdash 2 copy vpt 0 360 arc closepath fill
	vpt 0 360 arc closepath} bind def
/Rec {newpath 4 2 roll moveto 1 index 0 rlineto 0 exch rlineto
	neg 0 rlineto closepath} bind def
/Square {dup Rec} bind def
/Bsquare {vpt sub exch vpt sub exch vpt2 Square} bind def
/S0 {BL [] 0 setdash 2 copy moveto 0 vpt rlineto BL Bsquare} bind def
/S1 {BL [] 0 setdash 2 copy vpt Square fill Bsquare} bind def
/S2 {BL [] 0 setdash 2 copy exch vpt sub exch vpt Square fill Bsquare} bind def
/S3 {BL [] 0 setdash 2 copy exch vpt sub exch vpt2 vpt Rec fill Bsquare} bind def
/S4 {BL [] 0 setdash 2 copy exch vpt sub exch vpt sub vpt Square fill Bsquare} bind def
/S5 {BL [] 0 setdash 2 copy 2 copy vpt Square fill
	exch vpt sub exch vpt sub vpt Square fill Bsquare} bind def
/S6 {BL [] 0 setdash 2 copy exch vpt sub exch vpt sub vpt vpt2 Rec fill Bsquare} bind def
/S7 {BL [] 0 setdash 2 copy exch vpt sub exch vpt sub vpt vpt2 Rec fill
	2 copy vpt Square fill Bsquare} bind def
/S8 {BL [] 0 setdash 2 copy vpt sub vpt Square fill Bsquare} bind def
/S9 {BL [] 0 setdash 2 copy vpt sub vpt vpt2 Rec fill Bsquare} bind def
/S10 {BL [] 0 setdash 2 copy vpt sub vpt Square fill 2 copy exch vpt sub exch vpt Square fill
	Bsquare} bind def
/S11 {BL [] 0 setdash 2 copy vpt sub vpt Square fill 2 copy exch vpt sub exch vpt2 vpt Rec fill
	Bsquare} bind def
/S12 {BL [] 0 setdash 2 copy exch vpt sub exch vpt sub vpt2 vpt Rec fill Bsquare} bind def
/S13 {BL [] 0 setdash 2 copy exch vpt sub exch vpt sub vpt2 vpt Rec fill
	2 copy vpt Square fill Bsquare} bind def
/S14 {BL [] 0 setdash 2 copy exch vpt sub exch vpt sub vpt2 vpt Rec fill
	2 copy exch vpt sub exch vpt Square fill Bsquare} bind def
/S15 {BL [] 0 setdash 2 copy Bsquare fill Bsquare} bind def
/D0 {gsave translate 45 rotate 0 0 S0 stroke grestore} bind def
/D1 {gsave translate 45 rotate 0 0 S1 stroke grestore} bind def
/D2 {gsave translate 45 rotate 0 0 S2 stroke grestore} bind def
/D3 {gsave translate 45 rotate 0 0 S3 stroke grestore} bind def
/D4 {gsave translate 45 rotate 0 0 S4 stroke grestore} bind def
/D5 {gsave translate 45 rotate 0 0 S5 stroke grestore} bind def
/D6 {gsave translate 45 rotate 0 0 S6 stroke grestore} bind def
/D7 {gsave translate 45 rotate 0 0 S7 stroke grestore} bind def
/D8 {gsave translate 45 rotate 0 0 S8 stroke grestore} bind def
/D9 {gsave translate 45 rotate 0 0 S9 stroke grestore} bind def
/D10 {gsave translate 45 rotate 0 0 S10 stroke grestore} bind def
/D11 {gsave translate 45 rotate 0 0 S11 stroke grestore} bind def
/D12 {gsave translate 45 rotate 0 0 S12 stroke grestore} bind def
/D13 {gsave translate 45 rotate 0 0 S13 stroke grestore} bind def
/D14 {gsave translate 45 rotate 0 0 S14 stroke grestore} bind def
/D15 {gsave translate 45 rotate 0 0 S15 stroke grestore} bind def
/DiaE {stroke [] 0 setdash vpt add M
  hpt neg vpt neg V hpt vpt neg V
  hpt vpt V hpt neg vpt V closepath stroke} def
/BoxE {stroke [] 0 setdash exch hpt sub exch vpt add M
  0 vpt2 neg V hpt2 0 V 0 vpt2 V
  hpt2 neg 0 V closepath stroke} def
/TriUE {stroke [] 0 setdash vpt 1.12 mul add M
  hpt neg vpt -1.62 mul V
  hpt 2 mul 0 V
  hpt neg vpt 1.62 mul V closepath stroke} def
/TriDE {stroke [] 0 setdash vpt 1.12 mul sub M
  hpt neg vpt 1.62 mul V
  hpt 2 mul 0 V
  hpt neg vpt -1.62 mul V closepath stroke} def
/PentE {stroke [] 0 setdash gsave
  translate 0 hpt M 4 {72 rotate 0 hpt L} repeat
  closepath stroke grestore} def
/CircE {stroke [] 0 setdash 
  hpt 0 360 arc stroke} def
/Opaque {gsave closepath 1 setgray fill grestore 0 setgray closepath} def
/DiaW {stroke [] 0 setdash vpt add M
  hpt neg vpt neg V hpt vpt neg V
  hpt vpt V hpt neg vpt V Opaque stroke} def
/BoxW {stroke [] 0 setdash exch hpt sub exch vpt add M
  0 vpt2 neg V hpt2 0 V 0 vpt2 V
  hpt2 neg 0 V Opaque stroke} def
/TriUW {stroke [] 0 setdash vpt 1.12 mul add M
  hpt neg vpt -1.62 mul V
  hpt 2 mul 0 V
  hpt neg vpt 1.62 mul V Opaque stroke} def
/TriDW {stroke [] 0 setdash vpt 1.12 mul sub M
  hpt neg vpt 1.62 mul V
  hpt 2 mul 0 V
  hpt neg vpt -1.62 mul V Opaque stroke} def
/PentW {stroke [] 0 setdash gsave
  translate 0 hpt M 4 {72 rotate 0 hpt L} repeat
  Opaque stroke grestore} def
/CircW {stroke [] 0 setdash 
  hpt 0 360 arc Opaque stroke} def
/BoxFill {gsave Rec 1 setgray fill grestore} def
/Density {
  /Fillden exch def
  currentrgbcolor
  /ColB exch def /ColG exch def /ColR exch def
  /ColR ColR Fillden mul Fillden sub 1 add def
  /ColG ColG Fillden mul Fillden sub 1 add def
  /ColB ColB Fillden mul Fillden sub 1 add def
  ColR ColG ColB setrgbcolor} def
/BoxColFill {gsave Rec PolyFill} def
/PolyFill {gsave Density fill grestore grestore} def
/h {rlineto rlineto rlineto gsave closepath fill grestore} bind def
%
% PostScript Level 1 Pattern Fill routine for rectangles
% Usage: x y w h s a XX PatternFill
%	x,y = lower left corner of box to be filled
%	w,h = width and height of box
%	  a = angle in degrees between lines and x-axis
%	 XX = 0/1 for no/yes cross-hatch
%
/PatternFill {gsave /PFa [ 9 2 roll ] def
  PFa 0 get PFa 2 get 2 div add PFa 1 get PFa 3 get 2 div add translate
  PFa 2 get -2 div PFa 3 get -2 div PFa 2 get PFa 3 get Rec
  TransparentPatterns {} {gsave 1 setgray fill grestore} ifelse
  clip
  currentlinewidth 0.5 mul setlinewidth
  /PFs PFa 2 get dup mul PFa 3 get dup mul add sqrt def
  0 0 M PFa 5 get rotate PFs -2 div dup translate
  0 1 PFs PFa 4 get div 1 add floor cvi
	{PFa 4 get mul 0 M 0 PFs V} for
  0 PFa 6 get ne {
	0 1 PFs PFa 4 get div 1 add floor cvi
	{PFa 4 get mul 0 2 1 roll M PFs 0 V} for
 } if
  stroke grestore} def
%
/languagelevel where
 {pop languagelevel} {1} ifelse
dup 2 lt
	{/InterpretLevel1 true def
	 /InterpretLevel3 false def}
	{/InterpretLevel1 Level1 def
	 2 gt
	    {/InterpretLevel3 Level3 def}
	    {/InterpretLevel3 false def}
	 ifelse }
 ifelse
%
% PostScript level 2 pattern fill definitions
%
/Level2PatternFill {
/Tile8x8 {/PaintType 2 /PatternType 1 /TilingType 1 /BBox [0 0 8 8] /XStep 8 /YStep 8}
	bind def
/KeepColor {currentrgbcolor [/Pattern /DeviceRGB] setcolorspace} bind def
<< Tile8x8
 /PaintProc {0.5 setlinewidth pop 0 0 M 8 8 L 0 8 M 8 0 L stroke} 
>> matrix makepattern
/Pat1 exch def
<< Tile8x8
 /PaintProc {0.5 setlinewidth pop 0 0 M 8 8 L 0 8 M 8 0 L stroke
	0 4 M 4 8 L 8 4 L 4 0 L 0 4 L stroke}
>> matrix makepattern
/Pat2 exch def
<< Tile8x8
 /PaintProc {0.5 setlinewidth pop 0 0 M 0 8 L
	8 8 L 8 0 L 0 0 L fill}
>> matrix makepattern
/Pat3 exch def
<< Tile8x8
 /PaintProc {0.5 setlinewidth pop -4 8 M 8 -4 L
	0 12 M 12 0 L stroke}
>> matrix makepattern
/Pat4 exch def
<< Tile8x8
 /PaintProc {0.5 setlinewidth pop -4 0 M 8 12 L
	0 -4 M 12 8 L stroke}
>> matrix makepattern
/Pat5 exch def
<< Tile8x8
 /PaintProc {0.5 setlinewidth pop -2 8 M 4 -4 L
	0 12 M 8 -4 L 4 12 M 10 0 L stroke}
>> matrix makepattern
/Pat6 exch def
<< Tile8x8
 /PaintProc {0.5 setlinewidth pop -2 0 M 4 12 L
	0 -4 M 8 12 L 4 -4 M 10 8 L stroke}
>> matrix makepattern
/Pat7 exch def
<< Tile8x8
 /PaintProc {0.5 setlinewidth pop 8 -2 M -4 4 L
	12 0 M -4 8 L 12 4 M 0 10 L stroke}
>> matrix makepattern
/Pat8 exch def
<< Tile8x8
 /PaintProc {0.5 setlinewidth pop 0 -2 M 12 4 L
	-4 0 M 12 8 L -4 4 M 8 10 L stroke}
>> matrix makepattern
/Pat9 exch def
/Pattern1 {PatternBgnd KeepColor Pat1 setpattern} bind def
/Pattern2 {PatternBgnd KeepColor Pat2 setpattern} bind def
/Pattern3 {PatternBgnd KeepColor Pat3 setpattern} bind def
/Pattern4 {PatternBgnd KeepColor Landscape {Pat5} {Pat4} ifelse setpattern} bind def
/Pattern5 {PatternBgnd KeepColor Landscape {Pat4} {Pat5} ifelse setpattern} bind def
/Pattern6 {PatternBgnd KeepColor Landscape {Pat9} {Pat6} ifelse setpattern} bind def
/Pattern7 {PatternBgnd KeepColor Landscape {Pat8} {Pat7} ifelse setpattern} bind def
} def
%
%
%End of PostScript Level 2 code
%
/PatternBgnd {
  TransparentPatterns {} {gsave 1 setgray fill grestore} ifelse
} def
%
% Substitute for Level 2 pattern fill codes with
% grayscale if Level 2 support is not selected.
%
/Level1PatternFill {
/Pattern1 {0.250 Density} bind def
/Pattern2 {0.500 Density} bind def
/Pattern3 {0.750 Density} bind def
/Pattern4 {0.125 Density} bind def
/Pattern5 {0.375 Density} bind def
/Pattern6 {0.625 Density} bind def
/Pattern7 {0.875 Density} bind def
} def
%
% Now test for support of Level 2 code
%
Level1 {Level1PatternFill} {Level2PatternFill} ifelse
%
/Symbol-Oblique /Symbol findfont [1 0 .167 1 0 0] makefont
dup length dict begin {1 index /FID eq {pop pop} {def} ifelse} forall
currentdict end definefont pop
%
/MFshow {
   { dup 5 get 3 ge
     { 5 get 3 eq {gsave} {grestore} ifelse }
     {dup dup 0 get findfont exch 1 get scalefont setfont
     [ currentpoint ] exch dup 2 get 0 exch R dup 5 get 2 ne {dup dup 6
     get exch 4 get {textshow} {stringwidth pop 0 R} ifelse }if dup 5 get 0 eq
     {dup 3 get {2 get neg 0 exch R pop} {pop aload pop M} ifelse} {dup 5
     get 1 eq {dup 2 get exch dup 3 get exch 6 get stringwidth pop -2 div
     dup 0 R} {dup 6 get stringwidth pop -2 div 0 R 6 get
     textshow 2 index {aload pop M neg 3 -1 roll neg R pop pop} {pop pop pop
     pop aload pop M} ifelse }ifelse }ifelse }
     ifelse }
   forall} def
/Gswidth {dup type /stringtype eq {stringwidth} {pop (n) stringwidth} ifelse} def
/MFwidth {0 exch { dup 5 get 3 ge { 5 get 3 eq { 0 } { pop } ifelse }
 {dup 3 get{dup dup 0 get findfont exch 1 get scalefont setfont
     6 get Gswidth pop add} {pop} ifelse} ifelse} forall} def
/MLshow { currentpoint stroke M
  0 exch R
  Blacktext {gsave 0 setgray MFshow grestore} {MFshow} ifelse } bind def
/MRshow { currentpoint stroke M
  exch dup MFwidth neg 3 -1 roll R
  Blacktext {gsave 0 setgray MFshow grestore} {MFshow} ifelse } bind def
/MCshow { currentpoint stroke M
  exch dup MFwidth -2 div 3 -1 roll R
  Blacktext {gsave 0 setgray MFshow grestore} {MFshow} ifelse } bind def
/XYsave    { [( ) 1 2 true false 3 ()] } bind def
/XYrestore { [( ) 1 2 true false 4 ()] } bind def
Level1 SuppressPDFMark or 
{} {
/SDict 10 dict def
systemdict /pdfmark known not {
  userdict /pdfmark systemdict /cleartomark get put
} if
SDict begin [
  /Title (Plots/Plot_Momy_x_Convergence.eps)
  /Subject (gnuplot plot)
  /Creator (gnuplot 5.0 patchlevel 1)
  /Author (helvi)
%  /Producer (gnuplot)
%  /Keywords ()
  /CreationDate (Fri Jan 20 15:10:26 2017)
  /DOCINFO pdfmark
end
} ifelse
end
%
% Support for boxed text - Ethan A Merritt May 2005
%
/InitTextBox { userdict /TBy2 3 -1 roll put userdict /TBx2 3 -1 roll put
           userdict /TBy1 3 -1 roll put userdict /TBx1 3 -1 roll put
	   /Boxing true def } def
/ExtendTextBox { Boxing
    { gsave dup false charpath pathbbox
      dup TBy2 gt {userdict /TBy2 3 -1 roll put} {pop} ifelse
      dup TBx2 gt {userdict /TBx2 3 -1 roll put} {pop} ifelse
      dup TBy1 lt {userdict /TBy1 3 -1 roll put} {pop} ifelse
      dup TBx1 lt {userdict /TBx1 3 -1 roll put} {pop} ifelse
      grestore } if } def
/PopTextBox { newpath TBx1 TBxmargin sub TBy1 TBymargin sub M
               TBx1 TBxmargin sub TBy2 TBymargin add L
	       TBx2 TBxmargin add TBy2 TBymargin add L
	       TBx2 TBxmargin add TBy1 TBymargin sub L closepath } def
/DrawTextBox { PopTextBox stroke /Boxing false def} def
/FillTextBox { gsave PopTextBox 1 1 1 setrgbcolor fill grestore /Boxing false def} def
0 0 0 0 InitTextBox
/TBxmargin 20 def
/TBymargin 20 def
/Boxing false def
/textshow { ExtendTextBox Gshow } def
%
%%EndProlog
%%Page: 1 1
gnudict begin
gsave
doclip
50 50 translate
0.050 0.050 scale
0 setgray
newpath
(Helvetica) findfont 140 scalefont setfont
BackgroundColor 0 lt 3 1 roll 0 lt exch 0 lt or or not {BackgroundColor C 1.000 0 0 7200.00 5040.00 BoxColFill} if
/Helvetica findfont 140 scalefont setfont
/vshift -46 def
/Helvetica findfont 140 scalefont setfont
1.000 UL
LTb
LCb setrgbcolor
686 448 M
63 0 V
6198 0 R
-63 0 V
stroke
602 448 M
[ [(Helvetica) 140.0 0.0 true true 0 (10)]
[(Helvetica) 112.0 70.0 true true 0 (-10)]
] -60.7 MRshow
1.000 UL
LTb
LCb setrgbcolor
686 817 M
31 0 V
6230 0 R
-31 0 V
686 1185 M
63 0 V
6198 0 R
-63 0 V
stroke
602 1185 M
[ [(Helvetica) 140.0 0.0 true true 0 (10)]
[(Helvetica) 112.0 70.0 true true 0 (-8)]
] -60.7 MRshow
1.000 UL
LTb
LCb setrgbcolor
686 1554 M
31 0 V
6230 0 R
-31 0 V
686 1922 M
63 0 V
6198 0 R
-63 0 V
stroke
602 1922 M
[ [(Helvetica) 140.0 0.0 true true 0 (10)]
[(Helvetica) 112.0 70.0 true true 0 (-6)]
] -60.7 MRshow
1.000 UL
LTb
LCb setrgbcolor
686 2291 M
31 0 V
6230 0 R
-31 0 V
686 2660 M
63 0 V
6198 0 R
-63 0 V
stroke
602 2660 M
[ [(Helvetica) 140.0 0.0 true true 0 (10)]
[(Helvetica) 112.0 70.0 true true 0 (-4)]
] -60.7 MRshow
1.000 UL
LTb
LCb setrgbcolor
686 3028 M
31 0 V
6230 0 R
-31 0 V
686 3397 M
63 0 V
6198 0 R
-63 0 V
stroke
602 3397 M
[ [(Helvetica) 140.0 0.0 true true 0 (10)]
[(Helvetica) 112.0 70.0 true true 0 (-2)]
] -60.7 MRshow
1.000 UL
LTb
LCb setrgbcolor
686 3765 M
31 0 V
6230 0 R
-31 0 V
686 4134 M
63 0 V
6198 0 R
-63 0 V
stroke
602 4134 M
[ [(Helvetica) 140.0 0.0 true true 0 (10)]
[(Helvetica) 112.0 70.0 true true 0 (0)]
] -60.7 MRshow
1.000 UL
LTb
LCb setrgbcolor
686 4502 M
31 0 V
6230 0 R
-31 0 V
686 4871 M
63 0 V
6198 0 R
-63 0 V
stroke
602 4871 M
[ [(Helvetica) 140.0 0.0 true true 0 (10)]
[(Helvetica) 112.0 70.0 true true 0 (2)]
] -60.7 MRshow
1.000 UL
LTb
LCb setrgbcolor
686 448 M
0 63 V
0 4360 R
0 -63 V
stroke
686 308 M
[ [(Helvetica) 140.0 0.0 true true 0 ( 0.01)]
] -46.7 MCshow
1.000 UL
LTb
LCb setrgbcolor
1157 448 M
0 31 V
0 4392 R
0 -31 V
1433 448 M
0 31 V
0 4392 R
0 -31 V
1628 448 M
0 31 V
0 4392 R
0 -31 V
1780 448 M
0 31 V
0 4392 R
0 -31 V
1904 448 M
0 31 V
0 4392 R
0 -31 V
2009 448 M
0 31 V
0 4392 R
0 -31 V
2100 448 M
0 31 V
0 4392 R
0 -31 V
2180 448 M
0 31 V
0 4392 R
0 -31 V
2251 448 M
0 63 V
0 4360 R
0 -63 V
stroke
2251 308 M
[ [(Helvetica) 140.0 0.0 true true 0 ( 0.1)]
] -46.7 MCshow
1.000 UL
LTb
LCb setrgbcolor
2722 448 M
0 31 V
0 4392 R
0 -31 V
2998 448 M
0 31 V
0 4392 R
0 -31 V
3194 448 M
0 31 V
0 4392 R
0 -31 V
3345 448 M
0 31 V
0 4392 R
0 -31 V
3469 448 M
0 31 V
0 4392 R
0 -31 V
3574 448 M
0 31 V
0 4392 R
0 -31 V
3665 448 M
0 31 V
0 4392 R
0 -31 V
3745 448 M
0 31 V
0 4392 R
0 -31 V
3817 448 M
0 63 V
0 4360 R
0 -63 V
stroke
3817 308 M
[ [(Helvetica) 140.0 0.0 true true 0 ( 1)]
] -46.7 MCshow
1.000 UL
LTb
LCb setrgbcolor
4288 448 M
0 31 V
0 4392 R
0 -31 V
4563 448 M
0 31 V
0 4392 R
0 -31 V
4759 448 M
0 31 V
0 4392 R
0 -31 V
4911 448 M
0 31 V
0 4392 R
0 -31 V
5035 448 M
0 31 V
0 4392 R
0 -31 V
5139 448 M
0 31 V
0 4392 R
0 -31 V
5230 448 M
0 31 V
0 4392 R
0 -31 V
5310 448 M
0 31 V
0 4392 R
0 -31 V
5382 448 M
0 63 V
0 4360 R
0 -63 V
stroke
5382 308 M
[ [(Helvetica) 140.0 0.0 true true 0 ( 10)]
] -46.7 MCshow
1.000 UL
LTb
LCb setrgbcolor
5853 448 M
0 31 V
0 4392 R
0 -31 V
6129 448 M
0 31 V
0 4392 R
0 -31 V
6324 448 M
0 31 V
0 4392 R
0 -31 V
6476 448 M
0 31 V
0 4392 R
0 -31 V
6600 448 M
0 31 V
0 4392 R
0 -31 V
6705 448 M
0 31 V
0 4392 R
0 -31 V
6795 448 M
0 31 V
0 4392 R
0 -31 V
6875 448 M
0 31 V
0 4392 R
0 -31 V
6947 448 M
0 63 V
0 4360 R
0 -63 V
stroke
6947 308 M
[ [(Helvetica) 140.0 0.0 true true 0 ( 100)]
] -46.7 MCshow
1.000 UL
LTb
LCb setrgbcolor
1.000 UL
LTb
LCb setrgbcolor
686 4871 N
686 448 L
6261 0 V
0 4423 V
-6261 0 V
Z stroke
1.000 UP
1.000 UL
LTb
LCb setrgbcolor
LCb setrgbcolor
112 2659 M
currentpoint gsave translate -270 rotate 0 0 moveto
[ [(Helvetica) 140.0 0.0 true true 0 (M)]
[(Helvetica) 112.0 -42.0 true true 0 (y)]
] -32.7 MCshow
grestore
LTb
LCb setrgbcolor
3816 98 M
[ [(Helvetica) 140.0 0.0 true true 0 (x)]
] -46.7 MCshow
LTb
% Begin plot #1
1.000 UL
LTb
0.58 0.00 0.83 C /Helvetica findfont 140 scalefont setfont
LCb setrgbcolor
6296 4738 M
("TP_a0975_c1101_w1r6_mu033_dx025_nA160np16/leanbssnmol-mom.x.xg::mcy" u 1:\(abs\($2\)\)) Rshow
1.000 UL
LTb
0.58 0.00 0.83 C 6380 4738 M
399 0 V
989 4353 M
472 64 V
275 -333 V
196 -392 V
151 -402 V
124 -26 V
105 92 V
91 9 V
80 -14 V
72 -25 V
64 -31 V
60 -33 V
54 -35 V
50 -36 V
47 -36 V
44 -37 V
41 -36 V
39 -36 V
37 -36 V
35 -35 V
33 -35 V
32 -34 V
30 -34 V
29 -33 V
28 -33 V
26 -32 V
26 -31 V
25 -31 V
23 -31 V
23 -30 V
23 -29 V
21 -30 V
21 -29 V
21 -29 V
19 -29 V
19 -30 V
19 -29 V
18 -30 V
18 -30 V
17 -32 V
17 -32 V
16 -35 V
16 -36 V
16 -40 V
15 -45 V
15 -53 V
15 -66 V
14 -94 V
14 -191 V
14 1 V
13 162 V
13 71 V
13 44 V
13 30 V
12 23 V
13 18 V
12 14 V
12 12 V
11 10 V
12 8 V
11 7 V
11 6 V
11 5 V
11 3 V
10 113 V
10 -26 V
11 -28 V
10 -30 V
10 -32 V
9 -36 V
10 -41 V
10 -49 V
9 -62 V
9 -90 V
18 -196 V
18 244 V
17 79 V
17 44 V
16 29 V
16 21 V
16 15 V
15 11 V
15 8 V
15 7 V
14 5 V
14 4 V
14 3 V
13 2 V
14 2 V
12 1 V
13 0 V
13 1 V
12 0 V
12 -1 V
12 0 V
11 -1 V
12 0 V
11 -1 V
11 -1 V
11 -2 V
11 -1 V
10 -94 V
11 10 V
stroke 4309 2084 M
10 9 V
10 7 V
10 6 V
10 4 V
9 4 V
10 3 V
9 2 V
9 2 V
19 2 V
17 1 V
17 0 V
17 0 V
17 -2 V
16 -1 V
15 -3 V
15 -2 V
15 -3 V
15 -2 V
14 -3 V
14 -3 V
14 -3 V
14 -3 V
13 -4 V
13 -3 V
12 -3 V
13 -3 V
12 -4 V
12 -3 V
12 -3 V
12 -3 V
11 -4 V
11 -3 V
11 -3 V
11 -4 V
11 -2 V
10 -11 V
11 -2 V
10 -3 V
10 -2 V
10 -3 V
10 -3 V
9 -2 V
10 -3 V
9 -3 V
10 -3 V
18 -6 V
17 -7 V
18 -7 V
16 -7 V
17 -8 V
16 -8 V
15 -10 V
16 -10 V
15 -11 V
14 -12 V
15 -13 V
14 -14 V
13 -15 V
14 -17 V
13 -17 V
13 -17 V
13 -19 V
12 -19 V
12 -19 V
12 -20 V
12 -20 V
12 -20 V
11 -20 V
11 -19 V
11 -20 V
11 -19 V
11 -18 V
11 -18 V
10 -18 V
10 -18 V
10 -18 V
10 -18 V
10 -17 V
10 -18 V
9 -17 V
10 -16 V
9 -17 V
18 -33 V
18 -31 V
17 -31 V
17 -30 V
16 -30 V
16 -29 V
16 -28 V
15 -28 V
15 -27 V
14 -26 V
15 -26 V
14 -26 V
13 -25 V
14 -24 V
13 -24 V
13 -24 V
13 -23 V
12 -22 V
12 -23 V
13 -22 V
11 -21 V
12 -22 V
stroke 5646 880 M
0 -432 V
% End plot #1
% Begin plot #2
stroke
LTb
0.00 0.62 0.45 C /Helvetica findfont 140 scalefont setfont
LCb setrgbcolor
6296 4598 M
("TP_a0975_c1101_w1r6_mu033_dx020_nA160np16/leanbssnmol-mom.x.xg::mcy" u 1:\(abs\($2\)*2.44\)) Rshow
1.000 UL
LTb
0.00 0.62 0.45 C 6380 4598 M
399 0 V
686 4435 M
152 0 V
471 151 V
276 -134 V
195 -253 V
0 -124 V
152 -513 V
124 -186 V
104 -264 V
91 218 V
80 38 V
72 3 V
65 -11 V
59 -19 V
54 -23 V
51 401 V
0 -427 V
47 -27 V
43 402 V
0 -431 V
42 -28 V
39 403 V
0 -433 V
36 -29 V
35 405 V
0 409 V
0 -843 V
33 -30 V
32 407 V
0 -436 V
30 -29 V
29 409 V
0 417 V
0 -854 V
28 -29 V
26 411 V
0 -439 V
26 -28 V
25 413 V
0 424 V
0 -864 V
24 -27 V
23 415 V
0 -442 V
22 -27 V
22 418 V
0 428 V
0 -872 V
21 -26 V
20 421 V
0 -447 V
20 -26 V
19 425 V
0 432 V
0 -882 V
18 -26 V
18 430 V
0 -455 V
18 -26 V
17 436 V
0 435 V
0 -897 V
17 -26 V
16 445 V
0 -472 V
16 -27 V
16 456 V
0 438 V
0 -922 V
15 -29 V
15 472 V
0 -503 V
15 -33 V
14 496 V
0 441 V
0 -972 V
14 -40 V
14 532 V
0 -577 V
13 -55 V
14 593 V
0 445 V
0 -1109 V
13 -110 V
12 736 V
0 -1079 V
13 278 V
12 764 V
0 877 V
0 -1526 V
12 60 V
12 551 V
0 -511 V
12 29 V
11 445 V
0 -423 V
11 18 V
11 367 V
0 -353 V
11 12 V
11 10 V
0 1595 V
0 -829 V
stroke 3665 3043 M
10 -757 V
11 7 V
10 7 V
10 5 V
0 677 V
10 -672 V
10 137 V
0 -132 V
9 4 V
10 82 V
0 -79 V
0 602 V
9 -599 V
10 24 V
0 -21 V
9 3 V
9 -43 V
0 45 V
0 535 V
9 -533 V
8 -124 V
0 126 V
9 1 V
8 -244 V
0 245 V
1 475 V
8 -821 V
8 -259 V
9 159 V
8 130 V
8 66 V
8 43 V
8 31 V
7 24 V
8 20 V
8 16 V
15 24 V
14 18 V
14 14 V
0 326 V
14 -315 V
14 8 V
0 253 V
14 -246 V
13 6 V
0 185 V
13 -181 V
13 4 V
0 118 V
12 -116 V
12 3 V
0 47 V
12 -46 V
12 2 V
0 -34 V
12 35 V
11 0 V
0 -138 V
11 139 V
11 0 V
0 -329 V
11 329 V
11 0 V
11 0 V
10 -1 V
10 0 V
10 -1 V
10 -1 V
10 -1 V
10 -1 V
9 -1 V
9 -1 V
10 -1 V
9 -1 V
9 -1 V
9 -1 V
8 -1 V
9 -2 V
9 -1 V
8 -34 V
8 2 V
9 1 V
8 1 V
8 1 V
8 0 V
8 0 V
7 0 V
8 0 V
8 0 V
15 -1 V
14 -1 V
15 -1 V
14 -2 V
13 -2 V
14 -2 V
13 -2 V
13 -2 V
13 -3 V
12 -2 V
12 -3 V
12 -3 V
12 -2 V
12 -3 V
11 -3 V
stroke 4563 2253 M
12 -2 V
11 -3 V
10 -3 V
11 -3 V
11 -2 V
10 -3 V
10 -3 V
10 -3 V
10 -2 V
10 -3 V
10 -3 V
9 -2 V
10 -3 V
9 -3 V
9 -2 V
9 -3 V
9 -3 V
9 -2 V
8 -3 V
9 -3 V
8 -5 V
9 -2 V
8 -3 V
8 -2 V
8 -3 V
8 -2 V
8 -2 V
8 -3 V
7 -2 V
8 -3 V
15 -5 V
15 -5 V
14 -5 V
14 -6 V
14 -5 V
13 -6 V
13 -6 V
13 -7 V
13 -7 V
12 -8 V
13 -8 V
12 -8 V
11 -10 V
12 -10 V
12 -10 V
11 -11 V
11 -12 V
11 -13 V
10 -13 V
11 -14 V
10 -14 V
11 -15 V
10 -15 V
10 -15 V
9 -16 V
0 1 V
10 -16 V
9 -16 V
10 -16 V
9 -16 V
0 1 V
9 -17 V
9 -16 V
0 1 V
9 -16 V
9 -16 V
0 1 V
9 -16 V
8 -15 V
9 -15 V
8 -15 V
8 -14 V
8 -15 V
8 -14 V
8 -15 V
8 -14 V
8 -14 V
8 -14 V
7 -13 V
15 -27 V
15 -27 V
14 -25 V
14 -26 V
14 -24 V
13 -25 V
13 -24 V
13 -23 V
13 -23 V
13 -23 V
12 -22 V
12 -22 V
12 -21 V
11 -22 V
12 -20 V
11 -21 V
11 -20 V
11 -20 V
11 -19 V
10 -20 V
10 -18 V
11 -19 V
10 -19 V
10 -18 V
9 -18 V
stroke 5610 1083 M
10 -17 V
10 -18 V
9 -17 V
9 -17 V
0 -566 V
% End plot #2
stroke
2.000 UL
LTb
LCb setrgbcolor
1.000 UL
LTb
LCb setrgbcolor
686 4871 N
686 448 L
6261 0 V
0 4423 V
-6261 0 V
Z stroke
1.000 UP
1.000 UL
LTb
LCb setrgbcolor
stroke
grestore
end
showpage
%%Trailer
%%DocumentFonts: Helvetica
