%!PS-Adobe-2.0 EPSF-2.0
%%Title: Plots/Plot_Ham_y_Convergence.eps
%%Creator: gnuplot 4.2 patchlevel 3 
%%CreationDate: Fri Jan 20 11:51:41 2017
%%DocumentFonts: (atend)
%%BoundingBox: 50 50 410 302
%%EndComments
%%BeginProlog
/gnudict 256 dict def
gnudict begin
%
% The following 6 true/false flags may be edited by hand if required
% The unit line width may also be changed
%
/Color true def
/Blacktext false def
/Solid false def
/Dashlength 1 def
/Landscape false def
/Level1 false def
/Rounded false def
/TransparentPatterns false def
/gnulinewidth 5.000 def
/userlinewidth gnulinewidth def
%
/vshift -46 def
/dl1 {
  10.0 Dashlength mul mul
  Rounded { currentlinewidth 0.75 mul sub dup 0 le { pop 0.01 } if } if
} def
/dl2 {
  10.0 Dashlength mul mul
  Rounded { currentlinewidth 0.75 mul add } if
} def
/hpt_ 31.5 def
/vpt_ 31.5 def
/hpt hpt_ def
/vpt vpt_ def
Level1 {} {
/SDict 10 dict def
systemdict /pdfmark known not {
  userdict /pdfmark systemdict /cleartomark get put
} if
SDict begin [
  /Title (Plots/Plot_Ham_y_Convergence.eps)
  /Subject (gnuplot plot)
  /Creator (gnuplot 4.2 patchlevel 3 )
  /Author (Helvi Witek)
%  /Producer (gnuplot)
%  /Keywords ()
  /CreationDate (Fri Jan 20 11:51:41 2017)
  /DOCINFO pdfmark
end
} ifelse
%
% Gnuplot Prolog Version 4.2 (November 2007)
%
/M {moveto} bind def
/L {lineto} bind def
/R {rmoveto} bind def
/V {rlineto} bind def
/N {newpath moveto} bind def
/Z {closepath} bind def
/C {setrgbcolor} bind def
/f {rlineto fill} bind def
/Gshow {show} def   % May be redefined later in the file to support UTF-8
/vpt2 vpt 2 mul def
/hpt2 hpt 2 mul def
/Lshow {currentpoint stroke M 0 vshift R 
	Blacktext {gsave 0 setgray show grestore} {show} ifelse} def
/Rshow {currentpoint stroke M dup stringwidth pop neg vshift R
	Blacktext {gsave 0 setgray show grestore} {show} ifelse} def
/Cshow {currentpoint stroke M dup stringwidth pop -2 div vshift R 
	Blacktext {gsave 0 setgray show grestore} {show} ifelse} def
/UP {dup vpt_ mul /vpt exch def hpt_ mul /hpt exch def
  /hpt2 hpt 2 mul def /vpt2 vpt 2 mul def} def
/DL {Color {setrgbcolor Solid {pop []} if 0 setdash}
 {pop pop pop 0 setgray Solid {pop []} if 0 setdash} ifelse} def
/BL {stroke userlinewidth 2 mul setlinewidth
	Rounded {1 setlinejoin 1 setlinecap} if} def
/AL {stroke userlinewidth 2 div setlinewidth
	Rounded {1 setlinejoin 1 setlinecap} if} def
/UL {dup gnulinewidth mul /userlinewidth exch def
	dup 1 lt {pop 1} if 10 mul /udl exch def} def
/PL {stroke userlinewidth setlinewidth
	Rounded {1 setlinejoin 1 setlinecap} if} def
% Default Line colors
/LCw {1 1 1} def
/LCb {0 0 0} def
/LCa {0 0 0} def
/LC0 {1 0 0} def
/LC1 {0 1 0} def
/LC2 {0 0 1} def
/LC3 {1 0 1} def
/LC4 {0 1 1} def
/LC5 {1 1 0} def
/LC6 {0 0 0} def
/LC7 {1 0.3 0} def
/LC8 {0.5 0.5 0.5} def
% Default Line Types
/LTw {PL [] 1 setgray} def
/LTb {BL [] LCb DL} def
/LTa {AL [1 udl mul 2 udl mul] 0 setdash LCa setrgbcolor} def
/LT0 {PL [] LC0 DL} def
/LT1 {PL [4 dl1 2 dl2] LC1 DL} def
/LT2 {PL [2 dl1 3 dl2] LC2 DL} def
/LT3 {PL [1 dl1 1.5 dl2] LC3 DL} def
/LT4 {PL [6 dl1 2 dl2 1 dl1 2 dl2] LC4 DL} def
/LT5 {PL [3 dl1 3 dl2 1 dl1 3 dl2] LC5 DL} def
/LT6 {PL [2 dl1 2 dl2 2 dl1 6 dl2] LC6 DL} def
/LT7 {PL [1 dl1 2 dl2 6 dl1 2 dl2 1 dl1 2 dl2] LC7 DL} def
/LT8 {PL [2 dl1 2 dl2 2 dl1 2 dl2 2 dl1 2 dl2 2 dl1 4 dl2] LC8 DL} def
/Pnt {stroke [] 0 setdash gsave 1 setlinecap M 0 0 V stroke grestore} def
/Dia {stroke [] 0 setdash 2 copy vpt add M
  hpt neg vpt neg V hpt vpt neg V
  hpt vpt V hpt neg vpt V closepath stroke
  Pnt} def
/Pls {stroke [] 0 setdash vpt sub M 0 vpt2 V
  currentpoint stroke M
  hpt neg vpt neg R hpt2 0 V stroke
 } def
/Box {stroke [] 0 setdash 2 copy exch hpt sub exch vpt add M
  0 vpt2 neg V hpt2 0 V 0 vpt2 V
  hpt2 neg 0 V closepath stroke
  Pnt} def
/Crs {stroke [] 0 setdash exch hpt sub exch vpt add M
  hpt2 vpt2 neg V currentpoint stroke M
  hpt2 neg 0 R hpt2 vpt2 V stroke} def
/TriU {stroke [] 0 setdash 2 copy vpt 1.12 mul add M
  hpt neg vpt -1.62 mul V
  hpt 2 mul 0 V
  hpt neg vpt 1.62 mul V closepath stroke
  Pnt} def
/Star {2 copy Pls Crs} def
/BoxF {stroke [] 0 setdash exch hpt sub exch vpt add M
  0 vpt2 neg V hpt2 0 V 0 vpt2 V
  hpt2 neg 0 V closepath fill} def
/TriUF {stroke [] 0 setdash vpt 1.12 mul add M
  hpt neg vpt -1.62 mul V
  hpt 2 mul 0 V
  hpt neg vpt 1.62 mul V closepath fill} def
/TriD {stroke [] 0 setdash 2 copy vpt 1.12 mul sub M
  hpt neg vpt 1.62 mul V
  hpt 2 mul 0 V
  hpt neg vpt -1.62 mul V closepath stroke
  Pnt} def
/TriDF {stroke [] 0 setdash vpt 1.12 mul sub M
  hpt neg vpt 1.62 mul V
  hpt 2 mul 0 V
  hpt neg vpt -1.62 mul V closepath fill} def
/DiaF {stroke [] 0 setdash vpt add M
  hpt neg vpt neg V hpt vpt neg V
  hpt vpt V hpt neg vpt V closepath fill} def
/Pent {stroke [] 0 setdash 2 copy gsave
  translate 0 hpt M 4 {72 rotate 0 hpt L} repeat
  closepath stroke grestore Pnt} def
/PentF {stroke [] 0 setdash gsave
  translate 0 hpt M 4 {72 rotate 0 hpt L} repeat
  closepath fill grestore} def
/Circle {stroke [] 0 setdash 2 copy
  hpt 0 360 arc stroke Pnt} def
/CircleF {stroke [] 0 setdash hpt 0 360 arc fill} def
/C0 {BL [] 0 setdash 2 copy moveto vpt 90 450 arc} bind def
/C1 {BL [] 0 setdash 2 copy moveto
	2 copy vpt 0 90 arc closepath fill
	vpt 0 360 arc closepath} bind def
/C2 {BL [] 0 setdash 2 copy moveto
	2 copy vpt 90 180 arc closepath fill
	vpt 0 360 arc closepath} bind def
/C3 {BL [] 0 setdash 2 copy moveto
	2 copy vpt 0 180 arc closepath fill
	vpt 0 360 arc closepath} bind def
/C4 {BL [] 0 setdash 2 copy moveto
	2 copy vpt 180 270 arc closepath fill
	vpt 0 360 arc closepath} bind def
/C5 {BL [] 0 setdash 2 copy moveto
	2 copy vpt 0 90 arc
	2 copy moveto
	2 copy vpt 180 270 arc closepath fill
	vpt 0 360 arc} bind def
/C6 {BL [] 0 setdash 2 copy moveto
	2 copy vpt 90 270 arc closepath fill
	vpt 0 360 arc closepath} bind def
/C7 {BL [] 0 setdash 2 copy moveto
	2 copy vpt 0 270 arc closepath fill
	vpt 0 360 arc closepath} bind def
/C8 {BL [] 0 setdash 2 copy moveto
	2 copy vpt 270 360 arc closepath fill
	vpt 0 360 arc closepath} bind def
/C9 {BL [] 0 setdash 2 copy moveto
	2 copy vpt 270 450 arc closepath fill
	vpt 0 360 arc closepath} bind def
/C10 {BL [] 0 setdash 2 copy 2 copy moveto vpt 270 360 arc closepath fill
	2 copy moveto
	2 copy vpt 90 180 arc closepath fill
	vpt 0 360 arc closepath} bind def
/C11 {BL [] 0 setdash 2 copy moveto
	2 copy vpt 0 180 arc closepath fill
	2 copy moveto
	2 copy vpt 270 360 arc closepath fill
	vpt 0 360 arc closepath} bind def
/C12 {BL [] 0 setdash 2 copy moveto
	2 copy vpt 180 360 arc closepath fill
	vpt 0 360 arc closepath} bind def
/C13 {BL [] 0 setdash 2 copy moveto
	2 copy vpt 0 90 arc closepath fill
	2 copy moveto
	2 copy vpt 180 360 arc closepath fill
	vpt 0 360 arc closepath} bind def
/C14 {BL [] 0 setdash 2 copy moveto
	2 copy vpt 90 360 arc closepath fill
	vpt 0 360 arc} bind def
/C15 {BL [] 0 setdash 2 copy vpt 0 360 arc closepath fill
	vpt 0 360 arc closepath} bind def
/Rec {newpath 4 2 roll moveto 1 index 0 rlineto 0 exch rlineto
	neg 0 rlineto closepath} bind def
/Square {dup Rec} bind def
/Bsquare {vpt sub exch vpt sub exch vpt2 Square} bind def
/S0 {BL [] 0 setdash 2 copy moveto 0 vpt rlineto BL Bsquare} bind def
/S1 {BL [] 0 setdash 2 copy vpt Square fill Bsquare} bind def
/S2 {BL [] 0 setdash 2 copy exch vpt sub exch vpt Square fill Bsquare} bind def
/S3 {BL [] 0 setdash 2 copy exch vpt sub exch vpt2 vpt Rec fill Bsquare} bind def
/S4 {BL [] 0 setdash 2 copy exch vpt sub exch vpt sub vpt Square fill Bsquare} bind def
/S5 {BL [] 0 setdash 2 copy 2 copy vpt Square fill
	exch vpt sub exch vpt sub vpt Square fill Bsquare} bind def
/S6 {BL [] 0 setdash 2 copy exch vpt sub exch vpt sub vpt vpt2 Rec fill Bsquare} bind def
/S7 {BL [] 0 setdash 2 copy exch vpt sub exch vpt sub vpt vpt2 Rec fill
	2 copy vpt Square fill Bsquare} bind def
/S8 {BL [] 0 setdash 2 copy vpt sub vpt Square fill Bsquare} bind def
/S9 {BL [] 0 setdash 2 copy vpt sub vpt vpt2 Rec fill Bsquare} bind def
/S10 {BL [] 0 setdash 2 copy vpt sub vpt Square fill 2 copy exch vpt sub exch vpt Square fill
	Bsquare} bind def
/S11 {BL [] 0 setdash 2 copy vpt sub vpt Square fill 2 copy exch vpt sub exch vpt2 vpt Rec fill
	Bsquare} bind def
/S12 {BL [] 0 setdash 2 copy exch vpt sub exch vpt sub vpt2 vpt Rec fill Bsquare} bind def
/S13 {BL [] 0 setdash 2 copy exch vpt sub exch vpt sub vpt2 vpt Rec fill
	2 copy vpt Square fill Bsquare} bind def
/S14 {BL [] 0 setdash 2 copy exch vpt sub exch vpt sub vpt2 vpt Rec fill
	2 copy exch vpt sub exch vpt Square fill Bsquare} bind def
/S15 {BL [] 0 setdash 2 copy Bsquare fill Bsquare} bind def
/D0 {gsave translate 45 rotate 0 0 S0 stroke grestore} bind def
/D1 {gsave translate 45 rotate 0 0 S1 stroke grestore} bind def
/D2 {gsave translate 45 rotate 0 0 S2 stroke grestore} bind def
/D3 {gsave translate 45 rotate 0 0 S3 stroke grestore} bind def
/D4 {gsave translate 45 rotate 0 0 S4 stroke grestore} bind def
/D5 {gsave translate 45 rotate 0 0 S5 stroke grestore} bind def
/D6 {gsave translate 45 rotate 0 0 S6 stroke grestore} bind def
/D7 {gsave translate 45 rotate 0 0 S7 stroke grestore} bind def
/D8 {gsave translate 45 rotate 0 0 S8 stroke grestore} bind def
/D9 {gsave translate 45 rotate 0 0 S9 stroke grestore} bind def
/D10 {gsave translate 45 rotate 0 0 S10 stroke grestore} bind def
/D11 {gsave translate 45 rotate 0 0 S11 stroke grestore} bind def
/D12 {gsave translate 45 rotate 0 0 S12 stroke grestore} bind def
/D13 {gsave translate 45 rotate 0 0 S13 stroke grestore} bind def
/D14 {gsave translate 45 rotate 0 0 S14 stroke grestore} bind def
/D15 {gsave translate 45 rotate 0 0 S15 stroke grestore} bind def
/DiaE {stroke [] 0 setdash vpt add M
  hpt neg vpt neg V hpt vpt neg V
  hpt vpt V hpt neg vpt V closepath stroke} def
/BoxE {stroke [] 0 setdash exch hpt sub exch vpt add M
  0 vpt2 neg V hpt2 0 V 0 vpt2 V
  hpt2 neg 0 V closepath stroke} def
/TriUE {stroke [] 0 setdash vpt 1.12 mul add M
  hpt neg vpt -1.62 mul V
  hpt 2 mul 0 V
  hpt neg vpt 1.62 mul V closepath stroke} def
/TriDE {stroke [] 0 setdash vpt 1.12 mul sub M
  hpt neg vpt 1.62 mul V
  hpt 2 mul 0 V
  hpt neg vpt -1.62 mul V closepath stroke} def
/PentE {stroke [] 0 setdash gsave
  translate 0 hpt M 4 {72 rotate 0 hpt L} repeat
  closepath stroke grestore} def
/CircE {stroke [] 0 setdash 
  hpt 0 360 arc stroke} def
/Opaque {gsave closepath 1 setgray fill grestore 0 setgray closepath} def
/DiaW {stroke [] 0 setdash vpt add M
  hpt neg vpt neg V hpt vpt neg V
  hpt vpt V hpt neg vpt V Opaque stroke} def
/BoxW {stroke [] 0 setdash exch hpt sub exch vpt add M
  0 vpt2 neg V hpt2 0 V 0 vpt2 V
  hpt2 neg 0 V Opaque stroke} def
/TriUW {stroke [] 0 setdash vpt 1.12 mul add M
  hpt neg vpt -1.62 mul V
  hpt 2 mul 0 V
  hpt neg vpt 1.62 mul V Opaque stroke} def
/TriDW {stroke [] 0 setdash vpt 1.12 mul sub M
  hpt neg vpt 1.62 mul V
  hpt 2 mul 0 V
  hpt neg vpt -1.62 mul V Opaque stroke} def
/PentW {stroke [] 0 setdash gsave
  translate 0 hpt M 4 {72 rotate 0 hpt L} repeat
  Opaque stroke grestore} def
/CircW {stroke [] 0 setdash 
  hpt 0 360 arc Opaque stroke} def
/BoxFill {gsave Rec 1 setgray fill grestore} def
/Density {
  /Fillden exch def
  currentrgbcolor
  /ColB exch def /ColG exch def /ColR exch def
  /ColR ColR Fillden mul Fillden sub 1 add def
  /ColG ColG Fillden mul Fillden sub 1 add def
  /ColB ColB Fillden mul Fillden sub 1 add def
  ColR ColG ColB setrgbcolor} def
/BoxColFill {gsave Rec PolyFill} def
/PolyFill {gsave Density fill grestore grestore} def
/h {rlineto rlineto rlineto gsave closepath fill grestore} bind def
%
% PostScript Level 1 Pattern Fill routine for rectangles
% Usage: x y w h s a XX PatternFill
%	x,y = lower left corner of box to be filled
%	w,h = width and height of box
%	  a = angle in degrees between lines and x-axis
%	 XX = 0/1 for no/yes cross-hatch
%
/PatternFill {gsave /PFa [ 9 2 roll ] def
  PFa 0 get PFa 2 get 2 div add PFa 1 get PFa 3 get 2 div add translate
  PFa 2 get -2 div PFa 3 get -2 div PFa 2 get PFa 3 get Rec
  gsave 1 setgray fill grestore clip
  currentlinewidth 0.5 mul setlinewidth
  /PFs PFa 2 get dup mul PFa 3 get dup mul add sqrt def
  0 0 M PFa 5 get rotate PFs -2 div dup translate
  0 1 PFs PFa 4 get div 1 add floor cvi
	{PFa 4 get mul 0 M 0 PFs V} for
  0 PFa 6 get ne {
	0 1 PFs PFa 4 get div 1 add floor cvi
	{PFa 4 get mul 0 2 1 roll M PFs 0 V} for
 } if
  stroke grestore} def
%
/languagelevel where
 {pop languagelevel} {1} ifelse
 2 lt
	{/InterpretLevel1 true def}
	{/InterpretLevel1 Level1 def}
 ifelse
%
% PostScript level 2 pattern fill definitions
%
/Level2PatternFill {
/Tile8x8 {/PaintType 2 /PatternType 1 /TilingType 1 /BBox [0 0 8 8] /XStep 8 /YStep 8}
	bind def
/KeepColor {currentrgbcolor [/Pattern /DeviceRGB] setcolorspace} bind def
<< Tile8x8
 /PaintProc {0.5 setlinewidth pop 0 0 M 8 8 L 0 8 M 8 0 L stroke} 
>> matrix makepattern
/Pat1 exch def
<< Tile8x8
 /PaintProc {0.5 setlinewidth pop 0 0 M 8 8 L 0 8 M 8 0 L stroke
	0 4 M 4 8 L 8 4 L 4 0 L 0 4 L stroke}
>> matrix makepattern
/Pat2 exch def
<< Tile8x8
 /PaintProc {0.5 setlinewidth pop 0 0 M 0 8 L
	8 8 L 8 0 L 0 0 L fill}
>> matrix makepattern
/Pat3 exch def
<< Tile8x8
 /PaintProc {0.5 setlinewidth pop -4 8 M 8 -4 L
	0 12 M 12 0 L stroke}
>> matrix makepattern
/Pat4 exch def
<< Tile8x8
 /PaintProc {0.5 setlinewidth pop -4 0 M 8 12 L
	0 -4 M 12 8 L stroke}
>> matrix makepattern
/Pat5 exch def
<< Tile8x8
 /PaintProc {0.5 setlinewidth pop -2 8 M 4 -4 L
	0 12 M 8 -4 L 4 12 M 10 0 L stroke}
>> matrix makepattern
/Pat6 exch def
<< Tile8x8
 /PaintProc {0.5 setlinewidth pop -2 0 M 4 12 L
	0 -4 M 8 12 L 4 -4 M 10 8 L stroke}
>> matrix makepattern
/Pat7 exch def
<< Tile8x8
 /PaintProc {0.5 setlinewidth pop 8 -2 M -4 4 L
	12 0 M -4 8 L 12 4 M 0 10 L stroke}
>> matrix makepattern
/Pat8 exch def
<< Tile8x8
 /PaintProc {0.5 setlinewidth pop 0 -2 M 12 4 L
	-4 0 M 12 8 L -4 4 M 8 10 L stroke}
>> matrix makepattern
/Pat9 exch def
/Pattern1 {PatternBgnd KeepColor Pat1 setpattern} bind def
/Pattern2 {PatternBgnd KeepColor Pat2 setpattern} bind def
/Pattern3 {PatternBgnd KeepColor Pat3 setpattern} bind def
/Pattern4 {PatternBgnd KeepColor Landscape {Pat5} {Pat4} ifelse setpattern} bind def
/Pattern5 {PatternBgnd KeepColor Landscape {Pat4} {Pat5} ifelse setpattern} bind def
/Pattern6 {PatternBgnd KeepColor Landscape {Pat9} {Pat6} ifelse setpattern} bind def
/Pattern7 {PatternBgnd KeepColor Landscape {Pat8} {Pat7} ifelse setpattern} bind def
} def
%
%
%End of PostScript Level 2 code
%
/PatternBgnd {
  TransparentPatterns {} {gsave 1 setgray fill grestore} ifelse
} def
%
% Substitute for Level 2 pattern fill codes with
% grayscale if Level 2 support is not selected.
%
/Level1PatternFill {
/Pattern1 {0.250 Density} bind def
/Pattern2 {0.500 Density} bind def
/Pattern3 {0.750 Density} bind def
/Pattern4 {0.125 Density} bind def
/Pattern5 {0.375 Density} bind def
/Pattern6 {0.625 Density} bind def
/Pattern7 {0.875 Density} bind def
} def
%
% Now test for support of Level 2 code
%
Level1 {Level1PatternFill} {Level2PatternFill} ifelse
%
/Symbol-Oblique /Symbol findfont [1 0 .167 1 0 0] makefont
dup length dict begin {1 index /FID eq {pop pop} {def} ifelse} forall
currentdict end definefont pop
/MFshow {
   { dup 5 get 3 ge
     { 5 get 3 eq {gsave} {grestore} ifelse }
     {dup dup 0 get findfont exch 1 get scalefont setfont
     [ currentpoint ] exch dup 2 get 0 exch R dup 5 get 2 ne {dup dup 6
     get exch 4 get {Gshow} {stringwidth pop 0 R} ifelse }if dup 5 get 0 eq
     {dup 3 get {2 get neg 0 exch R pop} {pop aload pop M} ifelse} {dup 5
     get 1 eq {dup 2 get exch dup 3 get exch 6 get stringwidth pop -2 div
     dup 0 R} {dup 6 get stringwidth pop -2 div 0 R 6 get
     show 2 index {aload pop M neg 3 -1 roll neg R pop pop} {pop pop pop
     pop aload pop M} ifelse }ifelse }ifelse }
     ifelse }
   forall} def
/Gswidth {dup type /stringtype eq {stringwidth} {pop (n) stringwidth} ifelse} def
/MFwidth {0 exch { dup 5 get 3 ge { 5 get 3 eq { 0 } { pop } ifelse }
 {dup 3 get{dup dup 0 get findfont exch 1 get scalefont setfont
     6 get Gswidth pop add} {pop} ifelse} ifelse} forall} def
/MLshow { currentpoint stroke M
  0 exch R
  Blacktext {gsave 0 setgray MFshow grestore} {MFshow} ifelse } bind def
/MRshow { currentpoint stroke M
  exch dup MFwidth neg 3 -1 roll R
  Blacktext {gsave 0 setgray MFshow grestore} {MFshow} ifelse } bind def
/MCshow { currentpoint stroke M
  exch dup MFwidth -2 div 3 -1 roll R
  Blacktext {gsave 0 setgray MFshow grestore} {MFshow} ifelse } bind def
/XYsave    { [( ) 1 2 true false 3 ()] } bind def
/XYrestore { [( ) 1 2 true false 4 ()] } bind def
end
%%EndProlog
gnudict begin
gsave
50 50 translate
0.050 0.050 scale
0 setgray
newpath
(Helvetica) findfont 140 scalefont setfont
/Helvetica findfont 140 scalefont setfont
/Helvetica findfont 140 scalefont setfont
1.000 UL
LTb
966 420 M
63 0 V
5933 0 R
-63 0 V
stroke
882 420 M
[ [(Helvetica) 140.0 0.0 true true 0 ( 1e-10)]
] -46.7 MRshow
1.000 UL
LTb
966 791 M
31 0 V
5965 0 R
-31 0 V
966 1162 M
63 0 V
5933 0 R
-63 0 V
stroke
882 1162 M
[ [(Helvetica) 140.0 0.0 true true 0 ( 1e-08)]
] -46.7 MRshow
1.000 UL
LTb
966 1533 M
31 0 V
5965 0 R
-31 0 V
966 1904 M
63 0 V
5933 0 R
-63 0 V
stroke
882 1904 M
[ [(Helvetica) 140.0 0.0 true true 0 ( 1e-06)]
] -46.7 MRshow
1.000 UL
LTb
966 2275 M
31 0 V
5965 0 R
-31 0 V
966 2646 M
63 0 V
5933 0 R
-63 0 V
stroke
882 2646 M
[ [(Helvetica) 140.0 0.0 true true 0 ( 0.0001)]
] -46.7 MRshow
1.000 UL
LTb
966 3017 M
31 0 V
5965 0 R
-31 0 V
966 3388 M
63 0 V
5933 0 R
-63 0 V
stroke
882 3388 M
[ [(Helvetica) 140.0 0.0 true true 0 ( 0.01)]
] -46.7 MRshow
1.000 UL
LTb
966 3759 M
31 0 V
5965 0 R
-31 0 V
966 4130 M
63 0 V
5933 0 R
-63 0 V
stroke
882 4130 M
[ [(Helvetica) 140.0 0.0 true true 0 ( 1)]
] -46.7 MRshow
1.000 UL
LTb
966 4501 M
31 0 V
5965 0 R
-31 0 V
966 4872 M
63 0 V
5933 0 R
-63 0 V
stroke
882 4872 M
[ [(Helvetica) 140.0 0.0 true true 0 ( 100)]
] -46.7 MRshow
1.000 UL
LTb
966 420 M
0 63 V
0 4389 R
0 -63 V
stroke
966 280 M
[ [(Helvetica) 140.0 0.0 true true 0 (-20)]
] -46.7 MCshow
1.000 UL
LTb
1716 420 M
0 63 V
0 4389 R
0 -63 V
stroke
1716 280 M
[ [(Helvetica) 140.0 0.0 true true 0 (-15)]
] -46.7 MCshow
1.000 UL
LTb
2465 420 M
0 63 V
0 4389 R
0 -63 V
stroke
2465 280 M
[ [(Helvetica) 140.0 0.0 true true 0 (-10)]
] -46.7 MCshow
1.000 UL
LTb
3215 420 M
0 63 V
0 4389 R
0 -63 V
stroke
3215 280 M
[ [(Helvetica) 140.0 0.0 true true 0 (-5)]
] -46.7 MCshow
1.000 UL
LTb
3964 420 M
0 63 V
0 4389 R
0 -63 V
stroke
3964 280 M
[ [(Helvetica) 140.0 0.0 true true 0 ( 0)]
] -46.7 MCshow
1.000 UL
LTb
4714 420 M
0 63 V
0 4389 R
0 -63 V
stroke
4714 280 M
[ [(Helvetica) 140.0 0.0 true true 0 ( 5)]
] -46.7 MCshow
1.000 UL
LTb
5463 420 M
0 63 V
0 4389 R
0 -63 V
stroke
5463 280 M
[ [(Helvetica) 140.0 0.0 true true 0 ( 10)]
] -46.7 MCshow
1.000 UL
LTb
6213 420 M
0 63 V
0 4389 R
0 -63 V
stroke
6213 280 M
[ [(Helvetica) 140.0 0.0 true true 0 ( 15)]
] -46.7 MCshow
1.000 UL
LTb
6962 420 M
0 63 V
0 4389 R
0 -63 V
stroke
6962 280 M
[ [(Helvetica) 140.0 0.0 true true 0 ( 20)]
] -46.7 MCshow
1.000 UL
LTb
1.000 UL
LTb
966 4872 N
966 420 L
5996 0 V
0 4452 V
-5996 0 V
Z stroke
LCb setrgbcolor
140 2646 M
currentpoint gsave translate 90 rotate 0 0 moveto
[ [(Helvetica) 140.0 0.0 true true 0 (H)]
] -46.7 MCshow
grestore
LTb
LCb setrgbcolor
3964 70 M
[ [(Helvetica) 140.0 0.0 true true 0 (y)]
] -46.7 MCshow
LTb
1.000 UP
1.000 UL
LTb
1.000 UL
LT0
/Helvetica findfont 140 scalefont setfont
LTb
6311 4739 M
("TP_a0975_c1101_w1r6_mu033_dx025_nA160np16/leanbssnmol-ham.y.xg::hc" u 1:\(abs\($2\)\)) Rshow
LT0
6395 4739 M
399 0 V
1753 420 M
0 982 V
37 -175 V
38 -468 V
37 22 V
38 -8 V
37 -35 V
38 -43 V
37 5 V
38 69 V
37 75 V
38 47 V
37 14 V
38 -14 V
37 -19 V
38 17 V
37 54 V
38 49 V
37 23 V
38 4 V
37 8 V
37 27 V
38 29 V
37 23 V
19 23 V
19 11 V
19 -132 V
18 167 V
19 250 V
19 -22 V
19 106 V
18 154 V
19 22 V
19 -47 V
19 -286 V
18 -579 V
19 265 V
19 151 V
18 39 V
19 -91 V
19 -6 V
19 195 V
18 55 V
19 -11 V
19 -52 V
19 -61 V
18 -85 V
19 -49 V
19 271 V
19 86 V
18 -12 V
19 -166 V
19 -51 V
19 51 V
18 -98 V
19 64 V
19 74 V
19 -183 V
18 152 V
19 27 V
19 -39 V
9 39 V
9 69 V
10 115 V
9 -48 V
10 132 V
9 -45 V
9 270 V
10 129 V
9 15 V
9 -53 V
10 -320 V
9 -398 V
10 -26 V
9 8 V
9 45 V
10 75 V
9 64 V
9 18 V
10 -39 V
9 -29 V
9 93 V
10 89 V
9 12 V
10 -53 V
9 20 V
9 107 V
10 41 V
9 -35 V
9 10 V
10 94 V
9 32 V
10 -25 V
9 47 V
9 69 V
10 1 V
9 17 V
9 67 V
5 11 V
5 7 V
4 20 V
5 -1 V
5 -91 V
3645 1925 L
5 201 V
5 84 V
5 3 V
4 -118 V
5 -453 V
5 112 V
4 -119 V
5 -291 V
5 296 V
4 156 V
5 18 V
5 -91 V
4 -64 V
5 141 V
5 80 V
4 -18 V
5 -58 V
5 54 V
4 80 V
5 10 V
5 -27 V
5 34 V
4 58 V
5 13 V
5 -2 V
4 38 V
5 38 V
5 12 V
4 20 V
5 37 V
5 24 V
2 10 V
2 12 V
3 21 V
2 11 V
2 -18 V
3 23 V
2 90 V
2 52 V
3 -8 V
2 -165 V
2 -1030 V
3 731 V
2 10 V
2 17 V
3 15 V
2 13 V
2 18 V
3 25 V
2 21 V
3 11 V
2 7 V
2 18 V
3 30 V
2 25 V
2 10 V
3 8 V
2 22 V
2 32 V
3 21 V
2 10 V
2 16 V
3 29 V
2 27 V
2 16 V
3 16 V
2 27 V
2 27 V
3 19 V
2 20 V
2 28 V
3 26 V
2 21 V
2 24 V
3 28 V
2 24 V
2 24 V
3 28 V
2 26 V
2 26 V
3 27 V
2 27 V
2 27 V
3 27 V
2 28 V
2 27 V
3 27 V
2 27 V
3 26 V
2 26 V
2 25 V
3 24 V
2 22 V
2 19 V
3 14 V
2 6 V
2 -10 V
3 -55 V
2 -583 V
2 713 V
3 529 V
2 377 V
2 -16 V
3 -217 V
3964 3965 L
2 -161 V
3 217 V
2 16 V
2 -377 V
3 -529 V
2 -713 V
2 583 V
3 55 V
2 10 V
2 -6 V
3 -14 V
2 -19 V
2 -22 V
3 -24 V
2 -25 V
2 -26 V
3 -26 V
2 -27 V
3 -27 V
2 -27 V
2 -28 V
3 -27 V
2 -27 V
2 -27 V
3 -27 V
2 -26 V
2 -26 V
3 -28 V
2 -24 V
2 -24 V
3 -28 V
2 -24 V
2 -21 V
3 -26 V
2 -28 V
2 -20 V
3 -19 V
2 -27 V
2 -27 V
3 -16 V
2 -16 V
2 -27 V
3 -29 V
2 -16 V
2 -10 V
3 -21 V
2 -31 V
2 -23 V
3 -8 V
2 -10 V
2 -25 V
3 -30 V
2 -18 V
2 -7 V
3 -11 V
2 -21 V
3 -25 V
2 -18 V
2 -13 V
3 -15 V
2 -17 V
2 -10 V
3 -731 V
2 1030 V
2 165 V
3 8 V
2 -52 V
2 -90 V
3 -23 V
2 18 V
2 -11 V
3 -21 V
2 -12 V
2 -10 V
5 -24 V
5 -37 V
4 -20 V
5 -12 V
5 -38 V
4 -38 V
5 2 V
5 -13 V
4 -58 V
5 -34 V
5 27 V
5 -10 V
4 -80 V
5 -54 V
5 58 V
4 18 V
5 -80 V
5 -141 V
4 64 V
5 91 V
5 -18 V
4 -156 V
5 -296 V
5 291 V
4 119 V
5 -112 V
5 453 V
4 118 V
5 -3 V
5 -84 V
4283 1925 L
4 -73 V
5 91 V
5 1 V
4 -20 V
5 -7 V
5 -11 V
9 -67 V
9 -17 V
10 -1 V
9 -69 V
9 -47 V
10 25 V
9 -32 V
10 -94 V
9 -11 V
9 36 V
10 -41 V
9 -107 V
9 -20 V
10 53 V
9 -12 V
10 -89 V
9 -93 V
9 29 V
10 39 V
9 -18 V
9 -64 V
10 -75 V
9 -45 V
9 -8 V
10 26 V
9 398 V
10 320 V
9 53 V
9 -15 V
10 -129 V
9 -270 V
9 45 V
10 -132 V
9 48 V
10 -115 V
9 -69 V
9 -39 V
19 39 V
19 -27 V
19 -152 V
18 183 V
19 -74 V
19 -64 V
18 98 V
19 -51 V
19 51 V
19 166 V
18 12 V
19 -86 V
19 -271 V
19 49 V
18 85 V
19 61 V
19 52 V
19 11 V
18 -55 V
19 -195 V
19 6 V
19 91 V
18 -39 V
19 -151 V
19 -265 V
18 579 V
19 286 V
19 47 V
19 -22 V
18 -154 V
19 -106 V
19 22 V
19 -250 V
18 -167 V
19 132 V
19 -11 V
19 -23 V
37 -23 V
38 -29 V
37 -27 V
37 -8 V
38 -4 V
37 -23 V
38 -49 V
37 -54 V
38 -17 V
37 19 V
38 14 V
37 -14 V
38 -47 V
37 -75 V
38 -69 V
37 -5 V
38 43 V
37 35 V
38 8 V
37 -22 V
38 468 V
37 175 V
0 -982 V
stroke
LT1
/Helvetica findfont 140 scalefont setfont
LTb
6311 4599 M
("TP_a0975_c1101_w1r6_mu033_dx020_nA160np16/leanbssnmol-ham.y.xg::hc" u 1:\(abs\($2\)*2.44\)) Rshow
LT1
6395 4599 M
399 0 V
1745 420 M
0 1011 V
30 -176 V
30 -464 V
30 52 V
30 16 V
30 -20 V
30 -67 V
30 -165 V
30 -160 V
30 64 V
30 71 V
30 231 V
30 100 V
30 44 V
30 1 V
30 -43 V
30 -93 V
30 -106 V
30 71 V
30 138 V
30 87 V
30 38 V
30 -4 V
30 -34 V
30 -26 V
30 27 V
30 51 V
30 36 V
30 19 V
30 28 V
15 26 V
15 7 V
15 -161 V
15 161 V
15 270 V
15 -30 V
15 136 V
15 148 V
15 21 V
15 -52 V
15 -264 V
15 -307 V
15 -347 V
15 401 V
15 124 V
15 38 V
15 -40 V
15 -374 V
15 397 V
15 103 V
15 20 V
15 -45 V
15 -136 V
15 -364 V
15 170 V
15 228 V
15 42 V
15 -370 V
15 468 V
15 109 V
15 6 V
15 -111 V
15 -169 V
15 168 V
15 -92 V
15 -172 V
15 0 V
15 189 V
15 95 V
15 -154 V
14 93 V
15 52 V
15 -171 V
15 -200 V
15 350 V
8 58 V
7 38 V
8 66 V
7 -82 V
8 167 V
7 -38 V
8 243 V
7 133 V
8 18 V
7 -52 V
8 -328 V
7 -367 V
8 -179 V
7 -263 V
8 -49 V
7 342 V
8 183 V
7 97 V
8 40 V
7 -20 V
8 -121 V
7 -566 V
8 472 V
7 264 V
8 96 V
7 -2 V
8 -123 V
3499 1110 L
8 338 V
7 184 V
8 46 V
7 -69 V
8 -174 V
7 139 V
8 161 V
7 33 V
8 -77 V
7 -63 V
8 147 V
7 81 V
8 -28 V
7 -58 V
8 94 V
7 77 V
8 -18 V
3 -22 V
4 3 V
4 58 V
4 25 V
3 -82 V
4 45 V
4 197 V
4 86 V
3 6 V
4 -104 V
4 -568 V
4 298 V
3 -82 V
4 -264 V
4 227 V
4 -286 V
3 363 V
4 83 V
4 -47 V
4 -336 V
3 152 V
4 -44 V
4 271 V
4 48 V
3 -73 V
4 -265 V
4 42 V
4 260 V
3 82 V
4 -24 V
4 -105 V
4 -4 V
3 128 V
4 61 V
4 -16 V
4 -47 V
3 33 V
4 72 V
4 26 V
4 -15 V
3 6 V
4 46 V
4 33 V
4 7 V
3 12 V
2 15 V
2 17 V
2 21 V
2 7 V
2 -28 V
2 17 V
1 98 V
2 56 V
2 -5 V
2 -146 V
2 -643 V
2 314 V
2 -5 V
2 4 V
1 14 V
2 12 V
2 7 V
2 11 V
2 24 V
2 31 V
2 22 V
2 4 V
1 -11 V
2 -6 V
2 25 V
2 43 V
2 34 V
2 9 V
2 -12 V
2 -9 V
1 25 V
2 44 V
2 31 V
2 7 V
2 -9 V
2 4 V
2 33 V
2 38 V
1 19 V
2 0 V
2 4 V
2 25 V
3876 2383 L
2 21 V
2 7 V
2 10 V
1 26 V
2 28 V
2 18 V
2 12 V
2 18 V
2 27 V
2 22 V
2 16 V
1 18 V
2 24 V
0 349 V
2 -326 V
2 19 V
0 350 V
2 -330 V
2 24 V
0 350 V
2 -328 V
2 20 V
0 352 V
1 -330 V
2 23 V
0 353 V
2 -332 V
2 21 V
2 23 V
2 21 V
2 22 V
2 21 V
1 21 V
2 21 V
2 20 V
2 19 V
2 18 V
2 16 V
2 13 V
2 10 V
1 3 V
2 -8 V
2 -33 V
2 -116 V
0 504 V
2 -490 V
2 242 V
0 543 V
2 -417 V
2 715 V
0 -8 V
0 208 V
1 178 V
2 -340 V
0 -93 V
2 108 V
2 85 V
2 -85 V
2 -108 V
0 93 V
2 340 V
1 -178 V
0 -208 V
0 8 V
2 -715 V
2 417 V
0 -543 V
2 -242 V
2 490 V
0 -504 V
2 116 V
2 33 V
2 8 V
1 -3 V
2 -10 V
2 -13 V
2 -16 V
2 -18 V
2 -19 V
2 336 V
0 -356 V
2 -21 V
1 336 V
0 -357 V
2 -21 V
2 335 V
0 -357 V
2 -21 V
2 333 V
0 -356 V
2 -21 V
2 332 V
0 -353 V
2 -23 V
1 330 V
0 418 V
0 -770 V
2 -20 V
2 328 V
0 -350 V
2 -24 V
2 330 V
0 421 V
0 -771 V
4026 2653 L
2 326 V
0 -349 V
2 -24 V
1 331 V
0 424 V
0 -773 V
2 -16 V
2 324 V
0 -346 V
2 -27 V
2 758 V
0 -426 V
0 -350 V
2 -12 V
2 323 V
0 -341 V
2 -28 V
1 759 V
0 -429 V
0 -356 V
2 -10 V
2 330 V
0 -337 V
2 -21 V
2 750 V
0 -430 V
0 -353 V
2 -25 V
2 344 V
0 -348 V
2 0 V
1 743 V
0 -429 V
0 -333 V
2 -38 V
2 335 V
0 -368 V
2 -4 V
2 9 V
0 763 V
0 -430 V
2 -340 V
2 -31 V
0 338 V
2 -382 V
1 -25 V
0 808 V
0 -434 V
2 -365 V
2 12 V
0 327 V
2 -336 V
2 -34 V
0 770 V
0 -432 V
2 -381 V
2 -25 V
0 375 V
2 -369 V
1 11 V
0 765 V
0 -431 V
2 -338 V
2 -22 V
0 331 V
2 -362 V
2 -24 V
0 792 V
0 -435 V
2 -368 V
2 -7 V
0 351 V
2 -363 V
1 -14 V
0 784 V
0 -433 V
2 -355 V
2 5 V
0 300 V
2 -615 V
2 644 V
0 106 V
2 40 V
2 5 V
2 -56 V
1 -98 V
2 -17 V
2 28 V
2 -7 V
2 -21 V
2 -17 V
2 -15 V
3 -12 V
4 -7 V
4 -33 V
4 -46 V
3 -6 V
4 15 V
4 -26 V
4 -72 V
3 -33 V
4 47 V
4 16 V
4 -61 V
4181 1863 L
4 4 V
4 105 V
4 24 V
3 -82 V
4 -260 V
4 -42 V
4 265 V
3 73 V
4 -48 V
4 -271 V
4 44 V
3 -152 V
4 336 V
4 47 V
4 -83 V
3 -363 V
4 286 V
4 -227 V
4 264 V
3 82 V
4 -298 V
4 568 V
4 104 V
3 -6 V
4 -86 V
4 -197 V
4 -45 V
3 82 V
4 -25 V
4 -58 V
4 -3 V
3 22 V
8 18 V
7 -77 V
8 -94 V
7 58 V
8 28 V
7 -81 V
8 -147 V
7 63 V
8 77 V
7 -33 V
8 -162 V
7 -138 V
8 174 V
7 69 V
8 -46 V
7 -184 V
8 -338 V
7 327 V
8 123 V
7 2 V
8 -96 V
7 -264 V
8 -472 V
7 566 V
8 121 V
7 20 V
8 -40 V
7 -97 V
8 -183 V
7 -342 V
8 732 V
0 -682 V
7 262 V
8 496 V
0 -317 V
7 367 V
8 340 V
0 -12 V
7 52 V
8 -18 V
7 -133 V
8 -243 V
7 38 V
8 -166 V
7 81 V
8 -66 V
7 -38 V
8 -58 V
15 -350 V
15 200 V
15 171 V
15 -52 V
15 -93 V
14 154 V
15 -95 V
15 -189 V
15 0 V
15 172 V
15 93 V
15 -169 V
15 169 V
15 111 V
15 -6 V
15 -109 V
15 -468 V
15 370 V
15 -42 V
15 -228 V
15 -169 V
15 363 V
15 136 V
15 45 V
5013 1404 L
15 -103 V
15 -397 V
15 374 V
15 40 V
15 -38 V
15 -124 V
15 -401 V
15 347 V
15 307 V
15 264 V
15 52 V
15 -21 V
15 -148 V
15 -136 V
15 30 V
15 -270 V
15 -161 V
15 161 V
15 -7 V
15 -26 V
30 -28 V
30 -20 V
30 -35 V
30 -51 V
30 -27 V
30 26 V
30 34 V
30 4 V
30 -38 V
30 -87 V
30 -138 V
30 -71 V
30 106 V
30 93 V
30 43 V
30 -1 V
30 -44 V
30 -100 V
30 -231 V
30 -71 V
30 -63 V
30 159 V
30 165 V
30 67 V
30 20 V
30 -16 V
30 -52 V
30 464 V
30 176 V
0 -1011 V
stroke
LTb
966 4872 N
966 420 L
5996 0 V
0 4452 V
-5996 0 V
Z stroke
1.000 UP
1.000 UL
LTb
stroke
grestore
end
showpage
%%Trailer
%%DocumentFonts: Helvetica
